System Dynamics/Lab/lab8/sinof2waves2to200 1ms/Sumof2sinRC33.csv

#Digilent WaveForms Oscilloscope Acquisition
#Device Name: Discovery2
#Serial Number: SN:210321AFD7CC
#Date Time: 2020-12-01 11:06:02.562
#Sample rate: 20479.2Hz
#Samples: 8192
#Trigger: Source: Channel 1 Type: Edge Condition: Rising Level: 0 V Hyst.: Auto HoldOff: 0 s
#Channel 1: Range: 500 mV/div Offset: 0 V Attenuation: 10 X
#Channel 2: Range: 500 mV/div Offset: 0 V Attenuation: 10 X
#Wavegen Channel 1: Running
#Mode: Simple
#Type: sumof2sin
#Frequency: 1 kHz
#Period: 1 ms
#Amplitude: 1 V
#Offset: 0 V
#Phase: 0 °

Time (s),Channel 1 (V),Channel 2 (V)
-3.096536585364684e-05,-0.08772760613571456,-0.021845824852061
1.786463414635286e-05,0.0483210756280783,-0.021845824852061
6.669463414635257e-05,0.1843697573918712,-0.021845824852061
0.0001155246341463523,0.3038271365014886,-0.01849366289657315
0.000164354634146352,0.4000566918954014,-0.02184582485205948
0.0002131846341463517,0.4597853814502539,-0.01849366289657315
0.0002620146341463514,0.4730584235735719,-0.01849366289657162
0.0003108446341463511,0.4398758182653509,-0.01514150094108376
0.0003596746341463508,0.3602375655255908,-0.01514150094108224
0.0004085046341463505,0.2440984469467599,-0.01514150094108224
0.0004573346341463502,0.1014132441213307,-0.01514150094108224
0.0005061646341463499,-0.04790847976575609,-0.01514150094108224
0.0005549946341463496,-0.1905936825912004,-0.01514150094108224
0.0006038246341463771,-0.313369322231802,-0.01514150094108376
0.0006526546341463768,-0.4029623565640407,-0.01849366289657162
0.0007014846341463765,-0.4593727855880358,-0.01849366289657315
0.0007503146341463762,-0.4792823487729615,-0.02184582485205948
0.0007991446341463759,-0.4560545250571754,-0.01849366289657162
0.0008479746341463756,-0.3963258355023229,-0.01849366289657315
0.0008968046341463753,-0.3000962801084056,-0.021845824852061
0.0009456346341463751,-0.1706841194062536,-0.021845824852061
0.0009944646341463748,-0.02468065604998505,-0.021845824852061
0.001043294634146374,0.1279593283678595,-0.021845824852061
0.001092124634146374,0.2640080101316523,-0.021845824852061
0.001140954634146374,0.3768288681796757,-0.021845824852061
0.001189784634146374,0.4465123393269843,-0.01849366289657162
0.001238614634146373,0.4697401630427537,-0.01849366289657162
0.001287444634146373,0.4465123393269843,-0.01514150094108224
0.001336274634146373,0.3834653892413241,-0.01514150094108224
0.001385104634146372,0.2905540943782461,-0.01514150094108224
0.001433934634146372,0.1710967152685743,-0.01514150094108224
0.001482764634146372,0.03504803350478143,-0.01514150094108224
0.001531594634146372,-0.1043189087898356,-0.01514150094108224
0.001580424634146371,-0.2370493300228043,-0.01514150094108224
0.001629254634146371,-0.3565067091324761,-0.01514150094108224
0.001678084634146371,-0.4460997434647299,-0.01849366289657162
0.00172691463414637,-0.4925553908962689,-0.01849366289657162
0.00177574463414637,-0.4925553908962689,-0.021845824852061
0.00182457463414637,-0.4394632224030815,-0.021845824852061
0.001873404634146369,-0.3465519275400034,-0.021845824852061
0.001922234634146369,-0.2204580273686832,-0.021845824852061
0.001971064634146369,-0.07445456401241771,-0.021845824852061
0.002019894634146369,0.06491237828219937,-0.021845824852061
0.002068724634146368,0.2009610600459922,-0.021845824852061
0.002117554634146368,0.3137819180940156,-0.021845824852061
0.002166384634146368,0.396738431364621,-0.021845824852061
0.002215214634146367,0.4498305998578084,-0.01849366289657162
0.002264044634146367,0.4597853814502811,-0.01849366289657162
0.002312874634146367,0.4332392972036874,-0.01514150094108224
0.002361704634146367,0.3569193049947304,-0.01514150094108224
0.002410534634146366,0.2474167074775313,-0.01514150094108224
0.002459364634146366,0.1080497651829142,-0.01514150094108224
0.002508194634146366,-0.04459021923499976,-0.01514150094108224
0.002557024634146365,-0.1939119431220895,-0.01514150094108224
0.002605854634146365,-0.3233241038242339,-0.01514150094108224
0.002654684634146365,-0.4195536592181362,-0.01849366289657162
0.002703514634146365,-0.4726458277113236,-0.01849366289657162
0.002752344634146364,-0.4826006093037963,-0.01849366289657162
0.002801174634146364,-0.4494180039955541,-0.021845824852061
0.002850004634146364,-0.3797345328482456,-0.021845824852061
0.002898834634146363,-0.2835049774543433,-0.021845824852061
0.002947664634146363,-0.1607293378138473,-0.021845824852061
0.002996494634146363,-0.02468065605005446,-0.021845824852061
0.003045324634146362,0.1246410678370353,-0.021845824852061
0.003094154634146362,0.2606897496008281,-0.021845824852061
0.003142984634146362,0.3735106076488515,-0.01849366289657162
0.003191814634146362,0.4498305998578084,-0.01849366289657162
0.003240644634146361,0.4796949446352264,-0.01849366289657162
0.003289474634146361,0.4564671209194569,-0.01849366289657162
0.003338304634146361,0.3901019103029725,-0.01514150094108224
0.00338713463414636,0.2872358338474219,-0.01514150094108224
0.00343596463414636,0.1578236731452774,-0.01514150094108224
0.00348479463414636,0.01845673085066035,-0.01514150094108224
0.00353362463414636,-0.1209102114439567,-0.01514150094108224
0.003582454634146359,-0.2503223721461011,-0.01514150094108224
0.003631284634146359,-0.3565067091324761,-0.01514150094108224
0.003680114634146359,-0.4361449618722573,-0.01849366289657162
0.003728944634146358,-0.4826006093037963,-0.01849366289657162
0.003777774634146358,-0.4859188698346205,-0.01849366289657162
0.003826604634146358,-0.4394632224030815,-0.021845824852061
0.003875434634146357,-0.3498701880708276,-0.021845824852061
0.003924264634146357,-0.2270945484303316,-0.021845824852061
0.003973094634146357,-0.07777282454324191,-0.021845824852061
0.004021924634146357,0.07486715987467202,-0.021845824852061
0.004070754634146356,0.2142341021692891,-0.021845824852061
0.004119584634146356,0.3303732207481367,-0.01849366289657162
0.004168414634146356,0.4100114734879178,-0.01849366289657162
0.004217244634146355,0.4531488603886327,-0.01849366289657162
0.004266074634146355,0.4531488603886327,-0.01849366289657162
0.004314904634146355,0.4166479945495663,-0.01514150094108224
0.004363734634146355,0.3403280023406093,-0.01514150094108224
0.004412564634146354,0.2374619258850586,-0.01514150094108224
0.004461394634146354,0.1080497651829142,-0.01178933898559285
0.004510224634146354,-0.04127195870417554,-0.01178933898559285
0.004559054634146353,-0.1872754220604411,-0.01514150094108224
0.004607884634146353,-0.3200058432934097,-0.01514150094108224
0.004656714634146353,-0.4228719197489604,-0.01514150094108224
0.004705544634146352,-0.4826006093037691,-0.02184582485205796
0.004754374634146352,-0.4958736514270871,-0.021845824852061
0.004803204634146352,-0.4593727855880434,-0.021845824852061
0.004852034634146352,-0.3797345328482818,-0.021845824852061
0.004900864634146351,-0.2702319353310962,-0.021845824852061
0.004949694634146351,-0.1408197746289609,-0.02519798680754887
0.004998524634146351,-0.004771092865171023,-0.02184582485206253
0.00504735463414635,0.1312775888986218,-0.021845824852061
0.00509618463414635,0.2573714890699466,-0.021845824852061
0.00514501463414635,0.3635558260563305,-0.021845824852061
0.005193844634146377,0.4365575577345282,-0.02184582485205948
0.005242674634146377,0.4730584235735719,-0.01849366289657162
0.005291504634146377,0.4597853814502524,-0.0184936628965701
0.005340334634146376,0.3967384313645742,-0.01514150094108224
0.005389164634146376,0.2938723549090099,-0.01514150094108224
0.005437994634146376,0.1611419336760337,-0.01514150094108224
0.005486824634146376,0.01182020978894401,-0.01514150094108224
0.005535654634146375,-0.1375015140981367,-0.01514150094108376
0.005584484634146375,-0.2669136748002705,-0.01849366289657162
0.005633314634146375,-0.3730980117865972,-0.01849366289657162
0.005682144634146374,-0.4427814829339057,-0.01849366289657162
0.005730974634146374,-0.4759640882421479,-0.01849366289657162
0.005779804634146374,-0.4726458277113236,-0.021845824852061
0.005828634634146374,-0.4261901802797846,-0.021845824852061
0.005877464634146373,-0.3432336670091792,-0.021845824852061
0.005926294634146373,-0.2270945484303316,-0.02519798680755039
0.005975124634146373,-0.08772760613571456,-0.02519798680755039
0.006023954634146372,0.06491237828219937,-0.021845824852061
0.006072784634146372,0.2142341021692891,-0.021845824852061
0.006121614634146372,0.3370097418097851,-0.021845824852061
0.006170444634146371,0.4232845156112147,-0.021845824852061
0.006219274634146371,0.4664219025119296,-0.01849366289657162
0.006268104634146371,0.4597853814502811,-0.01849366289657162
0.006316934634146371,0.4166479945495663,-0.01849366289657162
0.00636576463414637,0.3303732207481367,-0.01514150094108224
0.00641459463414637,0.2208706232309375,-0.01514150094108224
0.00646342463414637,0.09145846252879311,-0.01514150094108224
0.006512254634146369,-0.05122674029664819,-0.01514150094108224
0.006561084634146369,-0.1872754220604411,-0.01514150094108224
0.006609914634146369,-0.3133693222317613,-0.01849366289657162
0.006658744634146369,-0.4129171381564877,-0.01849366289657162
0.006707574634146368,-0.479282348772972,-0.01849366289657162
0.006756404634146368,-0.4958736514270932,-0.021845824852061
0.006805234634146368,-0.4660093066496752,-0.021845824852061
0.006854064634146367,-0.3896893144407182,-0.021845824852061
0.006902894634146367,-0.2735501958618707,-0.021845824852061
0.006951724634146367,-0.1375015140980778,-0.02519798680755039
0.007000554634146366,0.01182020978901192,-0.021845824852061
0.007049384634146366,0.1478688915528048,-0.021845824852061
0.007098214634146366,0.2706445311933008,-0.021845824852061
0.007147044634146366,0.3668740865872031,-0.021845824852061
0.007195874634146365,0.4332392972036874,-0.01849366289657162
0.007244704634146365,0.4631036419811053,-0.01849366289657162
0.007293534634146365,0.4465123393269843,-0.01514150094108224
0.007342364634146364,0.3901019103029725,-0.01514150094108224
0.007391194634146364,0.2971906154398945,-0.01514150094108224
0.007440024634146364,0.1677784547377501,-0.01514150094108224
0.007488854634146364,0.01845673085066035,-0.01514150094108224
0.007537684634146363,-0.1341832535672536,-0.01514150094108224
0.007586514634146363,-0.2735501958618707,-0.01514150094108224
0.007635344634146363,-0.386371053909894,-0.01849366289657162
0.007684174634146362,-0.4593727855880268,-0.01849366289657162
0.007733004634146362,-0.4859188698346205,-0.021845824852061
0.007781834634146362,-0.4693275671804994,-0.021845824852061
0.007830664634146361,-0.4129171381564877,-0.021845824852061
0.007879494634146361,-0.3266423643550581,-0.021845824852061
0.007928324634146361,-0.2105032457762106,-0.021845824852061
0.007977154634146361,-0.07777282454324191,-0.021845824852061
0.00802598463414636,0.06491237828219937,-0.021845824852061
0.00807481463414636,0.2075975811076407,-0.021845824852061
0.00812364463414636,0.3303732207481367,-0.01849366289657162
0.008172474634146359,0.4232845156112147,-0.01849366289657162
0.008221304634146359,0.473058423573578,-0.01849366289657162
0.008270134634146359,0.4697401630427537,-0.01514150094108224
0.008318964634146359,0.4232845156112147,-0.01514150094108224
0.008367794634146358,0.3303732207481367,-0.01514150094108224
0.008416624634146358,0.2109158416384649,-0.01514150094108224
0.008465454634146358,0.07486715987467202,-0.01514150094108224
0.008514284634146357,-0.06781804295076926,-0.01849366289657162
0.008563114634146357,-0.2005484641837379,-0.01514150094108224
0.008611944634146357,-0.3200058432934097,-0.01849366289657162
0.008660774634146357,-0.4095988776256635,-0.01849366289657162
0.008709604634146356,-0.4660093066496752,-0.01849366289657162
0.008758434634146356,-0.4859188698346205,-0.021845824852061
0.008807264634146356,-0.4593727855880268,-0.021845824852061
0.008856094634146355,-0.3896893144407182,-0.021845824852061
0.008904924634146355,-0.2801867169235191,-0.021845824852061
0.008953754634146355,-0.140819774628902,-0.021845824852061
0.009002584634146354,0.01182020978901192,-0.021845824852061
0.009051414634146354,0.1611419336761016,-0.021845824852061
0.009100244634146354,0.2872358338474219,-0.021845824852061
0.009149074634146354,0.3867836497721484,-0.01849366289657162
0.009197904634146353,0.44319407879616,-0.01849366289657162
0.009246734634146353,0.4597853814502811,-0.01849366289657162
0.009295564634146353,0.4365575577345222,-0.01514150094108376
0.009344394634146352,0.3735106076488801,-0.01514150094108224
0.009393224634146352,0.2805993127858157,-0.01514150094108224
0.009442054634146352,0.1578236731453332,-0.01514150094108224
0.009490884634146352,0.01845673085072372,-0.01514150094108224
0.009539714634146351,-0.1308649930363615,-0.01514150094108224
0.009588544634146351,-0.2702319353309831,-0.01514150094108224
0.009637374634146351,-0.3830527933790185,-0.0184936628965701
0.00968620463414635,-0.4626910461188147,-0.01849366289657162
0.009735034634146378,-0.4958736514270856,-0.01849366289657315
0.009783864634146378,-0.4792823487729434,-0.021845824852061
0.009832694634146377,-0.4162353986872667,-0.021845824852061
0.009881524634146377,-0.3166875827625296,-0.021845824852061
0.009930354634146377,-0.1939119431220276,-0.021845824852061
0.009979184634146376,-0.05786326135823475,-0.021845824852061
0.01002801463414638,0.07818542040555659,-0.021845824852061
0.01007684463414638,0.2109158416385177,-0.021845824852061
0.01012567463414638,0.3270549602173517,-0.02184582485205948
0.01017450463414638,0.4133297340187662,-0.01849366289657162
0.01022333463414637,0.4664219025119296,-0.01849366289657162
0.01027216463414637,0.4697401630427537,-0.01849366289657162
0.01032099463414637,0.426602776142039,-0.01514150094108224
0.01036982463414637,0.3403280023406093,-0.01514150094108224
0.01041865463414637,0.2175523627001133,-0.01514150094108224
0.01046748463414637,0.07154889934384781,-0.01514150094108224
0.01051631463414637,-0.07777282454324191,-0.01514150094108224
0.01056514463414637,-0.217139766837859,-0.01514150094108224
0.01061397463414637,-0.3332788854167066,-0.01849366289657162
0.01066280463414637,-0.4195536592181362,-0.01849366289657162
0.01071163463414637,-0.4660093066496752,-0.01849366289657162
0.01076046463414637,-0.4759640882421479,-0.01849366289657162
0.01080929463414637,-0.4427814829339057,-0.021845824852061
0.01085812463414637,-0.3764162723174214,-0.021845824852061
0.01090695463414637,-0.2702319353310464,-0.021845824852061
0.01095578463414637,-0.140819774628902,-0.021845824852061
0.01100461463414637,0.005183688727363484,-0.021845824852061
0.01105344463414637,0.1578236731452774,-0.021845824852061
0.01110227463414637,0.2905540943782461,-0.021845824852061
0.01115110463414637,0.396738431364621,-0.01849366289657162
0.01119993463414637,0.4564671209194569,-0.01849366289657162
0.01124876463414637,0.4697401630427537,-0.01849366289657162
0.01129759463414637,0.4398758182653358,-0.01849366289657162
0.01134642463414637,0.3668740865872031,-0.01849366289657162
0.01139525463414637,0.2673262706624766,-0.01514150094108224
0.01144408463414637,0.1412323704911563,-0.01514150094108224
0.01149291463414637,0.005183688727363484,-0.01514150094108224
0.01154174463414637,-0.1341832535672536,-0.01514150094108224
0.01159057463414637,-0.2669136748002222,-0.01514150094108224
0.01163940463414637,-0.3764162723174214,-0.01849366289657162
0.01168823463414637,-0.4560545250572026,-0.01849366289657162
0.01173706463414637,-0.4925553908962689,-0.01849366289657162
0.01178589463414637,-0.4826006093037963,-0.021845824852061
0.01183472463414637,-0.4261901802797846,-0.021845824852061
0.01188355463414636,-0.3233241038242339,-0.021845824852061
0.01193238463414636,-0.1939119431220895,-0.021845824852061
0.01198121463414636,-0.04127195870417554,-0.021845824852061
0.01203004463414636,0.09809498359044154,-0.021845824852061
0.01207887463414636,0.227507144292586,-0.021845824852061
0.01212770463414636,0.3370097418097851,-0.01849366289657162
0.01217653463414636,0.4133297340187421,-0.01849366289657162
0.01222536463414636,0.4531488603886327,-0.01849366289657162
0.01227419463414636,0.4564671209194569,-0.01849366289657162
0.01232302463414636,0.4166479945495663,-0.01514150094108224
0.01237185463414636,0.3370097418097851,-0.01514150094108224
0.01242068463414636,0.2241888837617617,-0.01514150094108224
0.01246951463414636,0.08150368093632046,-0.01514150094108224
0.01251834463414636,-0.07445456401241771,-0.01514150094108224
0.01256717463414636,-0.2204580273686832,-0.01514150094108224
0.01261600463414636,-0.3465519275400034,-0.01514150094108224
0.01266483463414636,-0.4361449618722573,-0.01849366289657162
0.01271366463414636,-0.479282348772972,-0.01849366289657162
0.01276249463414636,-0.4826006093037963,-0.01849366289657162
0.01281132463414636,-0.4394632224030815,-0.021845824852061
0.01286015463414636,-0.3598249696633003,-0.021845824852061
0.01290898463414636,-0.2569588932077496,-0.021845824852061
0.01295781463414636,-0.1275467325056052,-0.021845824852061
0.01300664463414636,0.0085019492581877,-0.021845824852061
0.01305547463414636,0.1545054126144532,-0.021845824852061
0.01310430463414636,0.2839175733165976,-0.021845824852061
0.01315313463414636,0.3934201708337968,-0.01849366289657162
0.01320196463414636,0.4597853814502811,-0.01849366289657162
0.01325079463414636,0.4796949446352264,-0.01514150094108224
0.01329962463414636,0.4498305998578084,-0.01514150094108224
0.01334845463414636,0.3768288681796757,-0.01514150094108224
0.01339728463414636,0.2673262706624766,-0.01514150094108224
0.01344611463414636,0.1312775888986837,-0.01514150094108224
0.01349494463414636,-0.0114076139267576,-0.01514150094108224
0.01354377463414635,-0.1507745562213747,-0.01514150094108224
0.01359260463414635,-0.2735501958618707,-0.01514150094108224
0.01364143463414635,-0.3764162723174214,-0.01514150094108224
0.01369026463414635,-0.4494180039955541,-0.01849366289657162
0.01373909463414635,-0.4826006093037963,-0.01849366289657162
0.01378792463414635,-0.4726458277113236,-0.01849366289657162
0.01383675463414635,-0.4195536592181362,-0.021845824852061
0.01388558463414635,-0.3266423643551004,-0.021845824852061
0.01393441463414635,-0.1972302036529725,-0.021845824852061
0.01398324463414635,-0.04790847976589188,-0.021845824852061
0.01403207463414635,0.1047315046520205,-0.021845824852061
0.01408090463414635,0.240780186415821,-0.021845824852061
0.01412973463414635,0.3536010444638549,-0.021845824852061
0.01417856463414635,0.4266027761420058,-0.021845824852061
0.01422739463414635,0.459785381450266,-0.01849366289657315
0.01427622463414635,0.4531488603886357,-0.01514150094108376
0.01432505463414638,0.4033749524262332,-0.01514150094108224
0.01437388463414638,0.3237366996864369,-0.01514150094108071
0.01442271463414638,0.2109158416384045,-0.01178933898559285
0.01447154463414638,0.07818542040542985,-0.01178933898559438
0.01452037463414638,-0.06781804295083566,-0.01514150094108224
0.01456920463414638,-0.2138215063070921,-0.01514150094108224
0.01461803463414638,-0.3399154064783987,-0.01514150094108224
0.01466686463414638,-0.4361449618722814,-0.01514150094108376
0.01471569463414638,-0.4892371303654462,-0.01849366289657162
0.01476452463414638,-0.4925553908962478,-0.01849366289657315
0.01481335463414638,-0.4460997434647299,-0.021845824852061
0.01486218463414637,-0.3598249696633003,-0.021845824852061
0.01491101463414637,-0.2436858510844527,-0.021845824852061
0.01495984463414637,-0.1076371693206599,-0.021845824852061
0.01500867463414637,0.028411512443133,-0.021845824852061
0.01505750463414637,0.1644601942069259,-0.021845824852061
0.01510633463414637,0.2839175733165976,-0.01849366289657162
0.01515516463414637,0.3834653892413241,-0.01849366289657162
0.01520399463414637,0.4498305998578084,-0.01849366289657162
0.01525282463414637,0.473058423573578,-0.01514150094108224
0.01530165463414637,0.4531488603886327,-0.01514150094108224
0.01535048463414637,0.3801471287104999,-0.01514150094108224
0.01539931463414637,0.273962791724125,-0.01178933898559285
0.01544814463414637,0.1312775888986837,-0.01514150094108224
0.01549697463414637,-0.01804413498840603,-0.01514150094108224
0.01554580463414637,-0.1640475983446715,-0.01514150094108224
0.01559463463414637,-0.2901414985159917,-0.01514150094108224
