System Dynamics/Lab/lab8/sinof2waves2to200 1ms/Sumof2sinCR33.csv

#Digilent WaveForms Oscilloscope Acquisition
#Device Name: Discovery2
#Serial Number: SN:210321AFD7CC
#Date Time: 2020-12-01 11:08:56.381
#Sample rate: 20479.2Hz
#Samples: 8192
#Trigger: Source: Channel 1 Type: Edge Condition: Rising Level: 0 V Hyst.: Auto HoldOff: 0 s
#Channel 1: Range: 500 mV/div Offset: 0 V Attenuation: 10 X
#Channel 2: Range: 500 mV/div Offset: 0 V Attenuation: 10 X
#Wavegen Channel 1: Running
#Mode: Simple
#Type: sumof2sin
#Frequency: 1 kHz
#Period: 1 ms
#Amplitude: 1 V
#Offset: 0 V
#Phase: 0 °

Time (s),Channel 1 (V),Channel 2 (V)
-4.564543478260963e-05,-0.1441380351597262,-0.1559323030716364
3.184565217390078e-06,0.0085019492581877,-0.01178933898559285
5.201456521738979e-05,0.1611419336761016,0.1357057870559401
0.0001008445652173895,0.2938723549090099,0.2697922652754544
0.0001496745652173892,0.3934201708337515,0.3703571239401512
0.0001985045652173889,0.4531488603886055,0.4306960391389784
0.0002473345652173886,0.4697401630427462,0.450809010871933
0.0002961645652173883,0.4398758182653494,0.4239917152280393
0.000344994565217388,0.370192347118059,0.3603006380737578
0.0003938245652173877,0.2673262706625233,0.2664401033200687
0.0004426545652173874,0.1445506310220364,0.1491144348779509
0.0004914845652173871,0.008501949258249569,0.01502795665838319
0.0005403145652173869,-0.1341832535671887,-0.12241068351668
0.0005891445652174143,-0.2669136748002735,-0.2531449997808788
0.000637974565217414,-0.3797345328482818,-0.3637663443120148
0.0006868045652174137,-0.4593727855880449,-0.4442182312437417
0.0007356345652174134,-0.4991919119579113,-0.4844441747095929
0.0007844645652174131,-0.4859188698345919,-0.4777398507985913
0.0008332945652174129,-0.4228719197489151,-0.420753097555255
0.0008821245652174126,-0.3233241038241736,-0.3268925628015386
0.0009309545652174123,-0.1905936825911989,-0.2028625704484237
0.000979784565217412,-0.04459021923493638,-0.06207176831787264
0.001028614565217412,0.09477672305961732,0.07201470990164174
0.001077444565217411,0.2241888837617617,0.1993968642102383
0.001126274565217411,0.3336914812789609,0.3066660467858986
0.001175104565217411,0.4100114734879178,0.3871179337176439
0.001223934565217411,0.4564671209194569,0.4340482010944952
0.00127276456521741,0.4597853814502811,0.4441046869609634
0.00132159456521741,0.4199662550803905,0.4105830674060695
0.00137042456521741,0.3403280023406093,0.3301311804743243
0.001419254565217409,0.2208706232309375,0.2195098359431746
0.001468084565217409,0.07818542040549624,0.07871903381262051
0.001516914565217409,-0.07777282454324191,-0.065423930273423
0.001565744565217408,-0.2237762878995074,-0.2095668943594665
0.001614574565217408,-0.3465519275400034,-0.3302447247570843
0.001663404565217408,-0.432826701341433,-0.4174009355998083
0.001712234565217408,-0.479282348772972,-0.4643312029766597
0.001761064565217407,-0.479282348772972,-0.4710355268876384
0.001809894565217407,-0.4394632224030815,-0.4375139073327446
0.001858724565217407,-0.3664614907249487,-0.3671185062674676
0.001907554565217406,-0.2602771537385738,-0.2699058095582754
0.001956384565217406,-0.1341832535672536,-0.1492279791606576
0.002005214565217406,0.005183688727363484,-0.01178933898559285
0.002054044565217406,0.151187152083629,0.1290014631449612
0.002102874565217405,0.2872358338474219,0.2597357794090472
0.002151704565217405,0.3934201708337968,0.3670049619847076
0.002200534565217405,0.4597853814502811,0.4340482010944952
0.002249364565217404,0.4796949446352264,0.4575133347829209
0.002298194565217404,0.4465123393269843,0.4306960391390058
0.002347024565217404,0.3701923471180273,0.3603006380737288
0.002395854565217403,0.2606897496008281,0.2597357794090472
0.002444684565217403,0.1312775888986837,0.1323536251004507
0.002493514565217403,-0.0114076139267576,-0.001732853119124703
0.002542344565217403,-0.1507745562213747,-0.1358193313387001
0.002591174565217402,-0.2735501958618707,-0.2598493236918072
0.002640004565217402,-0.3797345328482456,-0.3604141823564888
0.002688834565217402,-0.4527362645263783,-0.4375139073327446
0.002737664565217401,-0.4892371303654447,-0.4777398507986172
0.002786494565217401,-0.4826006093037963,-0.4710355268876384
0.002835324565217401,-0.4261901802797846,-0.4241052595107871
0.002884154565217401,-0.3299606248858823,-0.3335968867125737
0.0029329845652174,-0.1972302036529137,-0.2095668943594665
0.0029818145652174,-0.04790847976582398,-0.065423930273423
0.0030306445652174,0.1014132441212657,0.07871903381262051
0.003079474565217399,0.2374619258850586,0.2128055120321959
0.003128304565217399,0.3469645234022578,0.3200746946078561
0.003177134565217399,0.4232845156112147,0.397174419584112
0.003225964565217398,0.4564671209194569,0.4340482010944952
0.003274794565217398,0.4498305998578084,0.4340482010944952
0.003323624565217398,0.4066932129570937,0.3938222576286226
0.003372454565217398,0.3237366996864882,0.3200746946078561
0.003421284565217397,0.2109158416384649,0.2128055120321959
0.003470114565217397,0.07486715987467202,0.08207119576810989
0.003518944565217397,-0.07113630348159349,-0.06207176831793362
0.003567774565217396,-0.2204580273686832,-0.2028625704484878
0.003616604565217396,-0.3465519275400034,-0.326892562801595
0.003665434565217396,-0.4394632224030815,-0.4207530975552977
0.003714264565217396,-0.4892371303654447,-0.4743876888431278
0.003763094565217395,-0.4892371303654447,-0.4810920127541066
0.003811924565217395,-0.4460997434647299,-0.440866069288234
0.003860754565217395,-0.3598249696633003,-0.3637663443119782
0.003909584565217394,-0.2470041116152769,-0.2564971617363179
0.003958414565217394,-0.1142736903823083,-0.1324671693832107
0.004007244565217394,0.02177499138148457,0.004971470791854065
0.004056074565217394,0.1578236731452774,0.1357057870559401
0.004104904565217393,0.2839175733165976,0.2597357794090472
0.004153734565217393,0.3834653892413241,0.3603006380737288
0.004202564565217393,0.4498305998578084,0.4273438771835165
0.004251394565217392,0.4763766841044021,0.4541611728274315
0.004300224565217392,0.4498305998578084,0.4340482010944952
0.004349054565217392,0.3801471287104999,0.3703571239401969
0.004397884565217391,0.2673262706624766,0.266440103320026
0.004446714565217391,0.1279593283678595,0.1323536251004507
0.004495544565217391,-0.02136239551923024,-0.008437177030103471
0.004544374565217391,-0.1673658588754958,-0.152580141116147
0.00459320456521739,-0.293459759046816,-0.2732579715137648
0.00464203456521739,-0.3896893144407182,-0.3738228301784463
0.00469086456521739,-0.4527362645263496,-0.4408660692882035
0.004739694565217389,-0.47928234877296,-0.4676833649321369
0.004788524565217389,-0.4660093066496813,-0.4609790410211734
0.004837354565217389,-0.4129171381565119,-0.4106966116888524
0.004886184565217389,-0.3233241038242747,-0.326892562801633
0.004935014565217388,-0.2005484641837937,-0.2095668943595199
0.004983844565217388,-0.05786326135836151,-0.07212825418446428
0.005032674565217388,0.09809498359037064,0.07871903381255192
0.005081504565217387,0.2407801864158179,0.2195098359431106
0.005130334565217387,0.3569193049946776,0.3334833424297619
0.005179164565217415,0.4365575577345267,0.4105830674060863
0.005227994565217414,0.4697401630427462,0.4474568489164497
0.005276824565217414,0.4531488603886085,0.4407525250054511
0.005325654565217414,0.4000566918954044,0.3904700956730951
0.005374484565217413,0.3104636575631386,0.3066660467858484
0.005423314565217413,0.194324538984285,0.196044702254691
0.005472144565217413,0.06491237828213448,0.06866254794609138
0.005520974565217412,-0.07777282454330529,-0.06542393027348398
0.005569804565217412,-0.2171397668379133,-0.1995104084930547
0.005618634565217412,-0.3365971459475308,-0.3235404008461055
0.005667464565217412,-0.432826701341433,-0.4174009355998083
0.005716294565217411,-0.4892371303654447,-0.4743876888431278
0.005765124565217411,-0.4958736514270932,-0.484444174709596
0.005813954565217411,-0.4527362645263783,-0.4509225551547021
0.00586278456521741,-0.3664614907249487,-0.3704706682229569
0.00591161456521741,-0.2470041116152769,-0.2531449997808285
0.00596044456521741,-0.1076371693206599,-0.1224106835167425
0.00600927456521741,0.04168455456642986,0.02173228056930098
0.006058104565217409,0.1777332363302227,0.152466596833387
0.006106934565217409,0.2938723549090703,0.266440103320026
0.006155764565217409,0.3834653892413241,0.3603006380737288
0.006204594565217408,0.44319407879616,0.4206395532725377
0.006253424565217408,0.4631036419811053,0.4441046869609634
0.006302254565217408,0.4398758182653358,0.4273438771835165
0.006351084565217407,0.3768288681796757,0.3670049619847076
0.006399914565217407,0.2706445311933008,0.266440103320026
0.006448744565217407,0.1345958494295079,0.1390579490114294
0.006497574565217407,-0.01472587445758181,-0.005085015074614087
0.006546404565217406,-0.1673658588754958,-0.152580141116147
0.006595234565217406,-0.3034145406392886,-0.2833144573802329
0.006644064565217406,-0.4029623565640151,-0.3872314780004039
0.006692894565217405,-0.4660093066496752,-0.4509225551547021
0.006741724565217405,-0.4826006093037963,-0.4710355268876384
0.006790554565217405,-0.4593727855880268,-0.4542747171101915
0.006839384565217405,-0.3996440960331909,-0.397287963866872
0.006888214565217404,-0.3034145406392886,-0.310131753024148
0.006937044565217404,-0.1839571615296168,-0.196158246537509
0.006985874565217404,-0.05122674029664819,-0.065423930273423
0.007034704565217403,0.09809498359044154,0.07536687185713113
0.007083534565217403,0.2341436653542344,0.2094533500767065
0.007132364565217403,0.3536010444639062,0.326779018518835
0.007181194565217403,0.4398758182653358,0.4105830674060695
0.007230024565217402,0.4763766841044021,0.4541611728274315
0.007278854565217402,0.4664219025119296,0.4474568489164528
0.007327684565217402,0.4100114734879178,0.397174419584112
0.007376514565217401,0.3104636575631914,0.3033138848304093
0.007425344565217401,0.1876880179226954,0.1859882163882808
0.007474174565217401,0.04500281509725408,0.05190173816870544
0.0075230045652174,-0.09436412719736301,-0.0855369020063593
0.0075718345652174,-0.2270945484303316,-0.2129190563149559
0.0076206645652174,-0.339915406478355,-0.3235404008461055
0.0076694945652174,-0.4228719197489604,-0.4106966116888295
0.007718324565217399,-0.4759640882421479,-0.4643312029766597
0.007767154565217399,-0.4859188698346205,-0.4810920127541066
0.007815984565217399,-0.4494180039955541,-0.4475703931992128
0.007864814565217398,-0.3697797512557729,-0.3738228301784463
0.007913644565217398,-0.2536406326769254,-0.2632014856472966
0.007962474565217398,-0.1109554298514841,-0.1257628454722319
0.008011304565217398,0.04500281509725408,0.02173228056930098
0.008060134565217397,0.1876880179226954,0.1658752446553445
0.008108964565217397,0.3104636575631914,0.2865530750529623
0.008157794565217397,0.4000566918954452,0.3737092858956863
0.008206624565217396,0.4498305998578084,0.4273438771835165
0.008255454565217396,0.4597853814502811,0.440752525005474
0.008304284565217396,0.4299210366728631,0.4139352293615589
0.008353114565217395,0.3602375655255546,0.35359631416275
0.008401944565217395,0.2606897496008281,0.2597357794090472
0.008450774565217395,0.1312775888986837,0.1357057870559401
0.008499604565217395,-0.0114076139267576,-0.001732853119124703
0.008548434565217394,-0.1607293378138473,-0.1492279791606576
0.008597264565217394,-0.2967780195776402,-0.2799622954247435
0.008646094565217394,-0.4062806170948393,-0.3905836399558932
0.008694924565217393,-0.4759640882421479,-0.4609790410211703
0.008743754565217393,-0.4958736514270932,-0.484444174709596
0.008792584565217393,-0.4693275671804994,-0.4643312029766597
0.008841414565217393,-0.3996440960331909,-0.397287963866872
0.008890244565217392,-0.293459759046816,-0.3000752671576798
0.008939074565217392,-0.1673658588754958,-0.1827495987155515
0.008987904565217392,-0.03131717711170289,-0.0453109585404867
0.009036734565217391,0.10473150465209,0.08542335772359928
0.009085564565217391,0.2341436653542344,0.2128055120321959
0.009134394565217391,0.3469645234022578,0.3200746946078561
0.009183224565217391,0.426602776142039,0.4038787434950908
0.00923205456521739,0.4697401630427537,0.4508090108719421
0.00928088456521739,0.4664219025119311,0.4508090108719421
0.00932971456521739,0.416647994549589,0.4038787434951121
0.009378544565217389,0.3204184391557078,0.3133703706969185
0.009427374565217389,0.1910062784535784,0.1926925402993145
0.009476204565217389,0.04168455456649775,0.05190173816876947
0.009525034565217388,-0.107637169320592,-0.09224122591727252
0.009573864565217388,-0.2436858510843909,-0.2263277041368525
0.009622694565217388,-0.3531884486016021,-0.3369490486680128
0.009671524565217388,-0.4295084408105742,-0.4174009355997717
0.009720354565217415,-0.4726458277113251,-0.4609790410211718
0.009769184565217415,-0.4759640882421298,-0.464331202976646
0.009818014565217414,-0.4361449618722226,-0.4341617453772232
0.009866844565217414,-0.3598249696632505,-0.3637663443119294
0.009915674565217414,-0.2503223721460393,-0.2564971617362599
0.009964504565217414,-0.1142736903822389,-0.1291150074276542
0.01001333456521741,0.03836629403567355,0.01838011861387867
0.01006216456521741,0.1876880179227542,0.1658752446554009
0.01011099456521741,0.3171001786248835,0.2899052370084959
0.01015982456521741,0.4133297340187647,0.3871179337176682
0.01020865456521741,0.4631036419811053,0.440752525005474
0.01025748456521741,0.4664219025119296,0.4474568489164528
0.01030631456521741,0.4299210366728631,0.4139352293615589
0.01035514456521741,0.350282783933082,0.3435398282962819
0.01040397456521741,0.244098446946707,0.2429749696316003
0.01045280456521741,0.1146862862445626,0.1222971392339825
0.01050163456521741,-0.02136239551923024,-0.01178933898559285
0.01055046456521741,-0.1607293378138473,-0.1458758172051682
0.01059929456521741,-0.2901414985159917,-0.2732579715137648
0.01064812456521741,-0.3963258355023667,-0.3805271540894251
0.01069695456521741,-0.4693275671804994,-0.4542747171101915
0.01074578456521741,-0.4958736514270932,-0.484444174709596
0.01079461456521741,-0.4759640882421479,-0.4676833649321491
0.01084344456521741,-0.4062806170948393,-0.4039922877778508
0.01089227456521741,-0.2967780195776402,-0.3034274291131692
0.01094110456521741,-0.1607293378138473,-0.1726931128490833
0.01098993456521741,-0.0114076139267576,-0.03190231071852916
0.01103876456521741,0.1279593283678595,0.1021841675010462
0.01108759456521741,0.2540532285391797,0.2262141598541534
0.01113642456521741,0.3536010444639062,0.3301311804743243
0.01118525456521741,0.426602776142039,0.4005265815396014
0.01123408456521741,0.4631036419811053,0.440752525005474
0.01128291456521741,0.4531488603886327,0.4340482010944952
0.01133174456521741,0.4066932129570937,0.3938222576286226
0.01138057456521741,0.3171001786248398,0.3133703706968774
0.0114294045652174,0.1943245389843438,0.196044702254749
0.0114782345652174,0.0483210756280783,0.05525390012419482
0.0115270645652174,-0.1043189087898356,-0.09224122591733808
0.0115758945652174,-0.2503223721461011,-0.2330320280478922
0.0116247245652174,-0.3664614907249487,-0.3503576964900206
0.0116735545652174,-0.4460997434647299,-0.4308095834217658
0.0117223845652174,-0.4826006093037963,-0.4676833649321491
0.0117712145652174,-0.4726458277113236,-0.4676833649321491
0.0118200445652174,-0.4261901802797846,-0.4207530975552977
0.0118688745652174,-0.3432336670091792,-0.3470055345345313
0.0119177045652174,-0.2337310694919801,-0.2430885139143604
0.0119665345652174,-0.1043189087898356,-0.1190585215612531
0.0120153645652174,0.03836629403560565,0.0183801186138116
0.0120641945652174,0.1810514968610469,0.1591709207443657
0.0121130245652174,0.3104636575631914,0.283200913097473
0.0121618545652174,0.4100114734879178,0.3837657717621545
0.0122106845652174,0.4664219025119296,0.4441046869609634
0.0122595145652174,0.4796949446352264,0.4575133347829209
0.0123083445652174,0.4398758182653358,0.4239917152280271
0.0123571745652174,0.3536010444639062,0.3468919902517713
0.0124060045652174,0.2374619258850586,0.2396228076761109
0.0124548345652174,0.1014132441212657,0.108888491412025
0.0125036645652174,-0.03795369817335133,-0.02855014876303977
0.0125524945652174,-0.1740023799371442,-0.1626366269826151
0.0126013245652174,-0.2967780195776402,-0.2833144573802329
0.0126501545652174,-0.3930075749715424,-0.3805271540894251
0.0126989845652174,-0.4593727855880268,-0.4475703931992128
0.0127478145652174,-0.4859188698346205,-0.4743876888431278
0.0127966445652174,-0.4693275671804994,-0.4609790410211703
0.0128454745652174,-0.4062806170948393,-0.4073444497333402
0.0128943045652174,-0.3034145406392886,-0.310131753024148
0.0129431345652174,-0.17068411940632,-0.179397436760062
0.0129919645652174,-0.01472587445758181,-0.03190231071852916
0.0130407945652174,0.1345958494295079,0.1122406533675143
0.01308962456521739,0.2673262706624766,0.2429749696316003
0.01313845456521739,0.3701923471180273,0.3435398282962819
0.01318728456521739,0.4365575577345116,0.4139352293615589
0.01323611456521739,0.4597853814502811,0.440752525005474
0.01328494456521739,0.4465123393269843,0.4306960391390058
0.01333377456521739,0.3934201708337968,0.3804136098066651
0.01338260456521739,0.3005088759707187,0.2999617228749198
0.01343143456521739,0.1876880179226954,0.1893403783437702
0.01348026456521739,0.0483210756280783,0.05525390012419482
0.01352909456521739,-0.1010006482590114,-0.08888906396184869
0.01357792456521739,-0.2436858510844527,-0.2296798660924028
0.01362675456521739,-0.3664614907249487,-0.3503576964900206
0.01367558456521739,-0.4527362645263783,-0.4375139073327446
0.01372441456521739,-0.4925553908962689,-0.4810920127541066
0.01377324456521739,-0.4859188698346205,-0.4777398507986172
0.01382207456521739,-0.432826701341433,-0.4274574214662765
0.01387090456521739,-0.3399154064783972,-0.3403012106235921
0.01391973456521739,-0.2204580273687375,-0.2263277041369653
0.01396856456521739,-0.08440934560495222,-0.0955933878728869
0.01401739456521739,0.05495759668966335,0.03514092839119906
0.01406622456521739,0.187688017922635,0.165875244655285
0.01411505456521739,0.3071453970323128,0.2832009130974196
0.01416388456521739,0.4000566918954029,0.377061447851133
0.01421271456521739,0.4564671209194313,0.4374003630499572
0.01426154456521739,0.4730584235735704,0.4541611728274239
0.01431037456521742,0.4398758182652996,0.4273438771834829
0.01435920456521741,0.3602375655255033,0.3535963141626997
0.01440803456521741,0.2474167074774649,0.2429749696315393
0.01445686456521741,0.1014132441211978,0.1088884914119579
0.01450569456521741,-0.04790847976588886,-0.03860663462957042
0.01455452456521741,-0.1905936825913226,-0.1760452748046291
0.01460335456521741,-0.3166875827626262,-0.300075267157721
0.01465218456521741,-0.406280617094865,-0.3905836399559207
0.01470101456521741,-0.462691046118857,-0.4509225551547113
0.01474984456521741,-0.4759640882421388,-0.4710355268876293
0.01479867456521741,-0.4560545250572026,-0.4509225551547021
0.01484750456521741,-0.3930075749715424,-0.3939358019113826
0.01489633456521741,-0.2967780195776402,-0.3034274291131692
0.01494516456521741,-0.17068411940632,-0.1827495987155515
0.01499399456521741,-0.02468065605005446,-0.04195879658499731
0.01504282456521741,0.1279593283678595,0.108888491412025
0.01509165456521741,0.2673262706624766,0.2429749696316003
0.01514048456521741,0.3801471287104999,0.35359631416275
0.01518931456521741,0.4465123393269843,0.4239917152280271
0.01523814456521741,0.473058423573578,0.4508090108719421
0.01528697456521741,0.4498305998578084,0.4340482010944952
0.01533580456521741,0.3867836497721484,0.3770614478511757
0.01538463456521741,0.2872358338474219,0.283200913097473
0.01543346456521741,0.1677784547377501,0.1692274066108339
0.01548229456521741,0.03504803350478143,0.0384930903467479
0.01553112456521741,-0.1076371693206599,-0.09559338787282745
0.01557995456521741,-0.2403675905536285,-0.2263277041369134
0.01562878456521741,-0.3565067091324761,-0.3436533725790419
0.01567761456521741,-0.4427814829339057,-0.4308095834217658
0.01572644456521741,-0.4892371303654447,-0.4777398507986172
0.01577527456521741,-0.4892371303654447,-0.4810920127541066
0.01582410456521741,-0.4394632224030815,-0.4375139073327446
