System Dynamics/Lab/lab2/Experiment4.csv

#Digilent WaveForms Oscilloscope Acquisition
#Device Name: Discovery2
#Serial Number: SN:210321AF1F70
#Date Time: 2020-09-24 15:58:49.790
#Sample rate: 8000Hz
#Samples: 8000
#Trigger: Source: Channel 1 Type: Edge Condition: Falling Level: 0 V Hyst.: Auto HoldOff: 0 s
#Channel 1: Range: 1 V/div Offset: 0 V Attenuation: 10 X
#Channel 2: Range: 500 mV/div Offset: 0 V Attenuation: 10 X
#Wavegen Channel 1: Running
#Mode: Simple
#Type: Pulse
#Frequency: 1 Hz
#Period: 1 s
#Amplitude: 5 V
#Offset: 0 V
#Symmetry: 0.2 %
#Phase: 0 °

Time (s),Channel 1 (V),Channel 2 (V)
0.38,-0.0113225366087768,-0.01096326434272859
0.380125,-0.0113225366087768,-0.01096326434272859
0.38025,-0.0113225366087768,-0.01096326434272859
0.380375,-0.0113225366087768,-0.01096326434272859
0.3805,-0.0113225366087768,-0.01096326434272859
0.380625,-0.0113225366087768,-0.01096326434272859
0.38075,-0.0113225366087768,-0.007625443479211999
0.380875,-0.0113225366087768,-0.01096326434272859
0.381,-0.0113225366087768,-0.007625443479211999
0.381125,-0.0113225366087768,-0.01096326434272859
0.38125,-0.0113225366087768,-0.01096326434272859
0.381375,-0.0113225366087768,-0.01096326434272859
0.3815,-0.0113225366087768,-0.01096326434272859
0.381625,-0.0113225366087768,-0.007625443479211999
0.38175,-0.0113225366087768,-0.01096326434272859
0.381875,-0.0113225366087768,-0.01096326434272859
0.382,-0.0113225366087768,-0.01096326434272859
0.382125,-0.0113225366087768,-0.01096326434272859
0.38225,-0.01465408196997853,-0.01096326434272859
0.382375,-0.0113225366087768,-0.01096326434272859
0.3825,-0.0113225366087768,-0.01096326434272859
0.382625,-0.0113225366087768,-0.007625443479211999
0.38275,-0.0113225366087768,-0.01096326434272859
0.382875,-0.0113225366087768,-0.01096326434272859
0.383,-0.01465408196997853,-0.01096326434272859
0.383125,-0.0113225366087768,-0.01096326434272859
0.38325,-0.0113225366087768,-0.01096326434272859
0.383375,-0.01465408196997853,-0.01096326434272859
0.3835,-0.0113225366087768,-0.01096326434272859
0.383625,-0.01465408196997853,-0.01096326434272859
0.38375,-0.01465408196997853,-0.01096326434272859
0.383875,-0.01465408196997853,-0.01096326434272859
0.384,-0.0113225366087768,-0.01096326434272859
0.384125,-0.01465408196997853,-0.01096326434272859
0.38425,-0.0113225366087768,-0.01096326434272859
0.384375,-0.0113225366087768,-0.01096326434272859
0.3845,-0.01465408196997853,-0.01096326434272859
0.384625,-0.0113225366087768,-0.01096326434272859
0.38475,-0.01465408196997853,-0.01096326434272859
0.384875,-0.01465408196997853,-0.01096326434272859
0.385,-0.01465408196997853,-0.01430108520624517
0.385125,-0.01465408196997853,-0.01430108520624517
0.38525,-0.01465408196997853,-0.01430108520624517
0.385375,-0.0113225366087768,-0.01096326434272859
0.3855,-0.01465408196997853,-0.01096326434272859
0.385625,-0.01465408196997853,-0.01430108520624517
0.38575,-0.01465408196997853,-0.01430108520624517
0.385875,-0.01465408196997853,-0.01430108520624517
0.386,-0.01465408196997853,-0.01096326434272859
0.386125,-0.01465408196997853,-0.01096326434272859
0.38625,-0.01465408196997853,-0.01430108520624517
0.386375,-0.01465408196997853,-0.01096326434272859
0.3865,-0.01465408196997853,-0.01430108520624517
0.386625,-0.01465408196997853,-0.01430108520624517
0.38675,-0.01465408196997853,-0.01096326434272859
0.386875,-0.01465408196997853,-0.01430108520624517
0.387,-0.01465408196997853,-0.01430108520624517
0.387125,-0.01465408196997853,-0.01430108520624517
0.38725,-0.01465408196997853,-0.01430108520624517
0.387375,-0.01465408196997853,-0.01430108520624517
0.3875,-0.01465408196997853,-0.01430108520624517
0.387625,-0.01465408196997853,-0.01430108520624517
0.38775,-0.01465408196997853,-0.01430108520624517
0.387875,-0.01465408196997853,-0.01430108520624517
0.388,-0.01465408196997853,-0.01430108520624517
0.388125,-0.01465408196997853,-0.01430108520624517
0.38825,-0.01465408196997853,-0.01430108520624517
0.388375,-0.01465408196997853,-0.01430108520624517
0.3885,-0.01465408196997853,-0.01430108520624517
0.388625,-0.01465408196997853,-0.01430108520624517
0.38875,-0.01465408196997853,-0.01430108520624517
0.388875,-0.01465408196997853,-0.01430108520624517
0.389,-0.01465408196997853,-0.01430108520624517
0.389125,-0.01465408196997853,-0.01430108520624517
0.38925,-0.01465408196997853,-0.01430108520624517
0.389375,-0.01465408196997853,-0.01430108520624517
0.3895,-0.01465408196997853,-0.01430108520624517
0.389625,-0.01465408196997853,-0.01430108520624517
0.38975,-0.0179856273311807,-0.01430108520624517
0.389875,-0.01465408196997853,-0.01430108520624517
0.39,-0.01465408196997853,-0.01430108520624517
0.390125,-0.01465408196997853,-0.01430108520624517
0.39025,-0.01465408196997853,-0.01430108520624517
0.390375,-0.01465408196997853,-0.01430108520624517
0.3905,-0.01465408196997853,-0.01430108520624517
0.390625,-0.01465408196997853,-0.01430108520624517
0.39075,-0.01465408196997853,-0.01430108520624517
0.390875,-0.01465408196997853,-0.01430108520624517
0.391,-0.01465408196997853,-0.01096326434272859
0.391125,-0.01465408196997853,-0.01430108520624517
0.39125,-0.01465408196997853,-0.01430108520624517
0.391375,-0.01465408196997853,-0.01430108520624517
0.3915,-0.01465408196997853,-0.01096326434272859
0.391625,-0.01465408196997853,-0.01096326434272859
0.39175,-0.01465408196997853,-0.01096326434272859
0.391875,-0.01465408196997853,-0.01096326434272859
0.392,-0.0113225366087768,-0.01096326434272859
0.392125,-0.01465408196997853,-0.01096326434272859
0.39225,-0.01465408196997853,-0.01430108520624517
0.392375,-0.01465408196997853,-0.01096326434272859
0.3925,-0.01465408196997853,-0.01096326434272859
0.392625,-0.01465408196997853,-0.01096326434272859
0.39275,-0.01465408196997853,-0.01096326434272859
0.392875,-0.01465408196997853,-0.01096326434272859
0.393,-0.01465408196997853,-0.01096326434272859
0.393125,-0.01465408196997853,-0.01096326434272859
0.39325,-0.01465408196997853,-0.01096326434272859
0.393375,-0.0113225366087768,-0.01096326434272859
0.3935,-0.01465408196997853,-0.01096326434272859
0.393625,-0.0113225366087768,-0.01096326434272859
0.39375,-0.01465408196997853,-0.01096326434272859
0.393875,-0.0113225366087768,-0.01096326434272859
0.394,-0.0113225366087768,-0.01096326434272859
0.394125,-0.0113225366087768,-0.01096326434272859
0.39425,-0.0113225366087768,-0.01096326434272859
0.394375,-0.0113225366087768,-0.007625443479211999
0.3945,-0.0113225366087768,-0.01096326434272859
0.394625,-0.0113225366087768,-0.01096326434272859
0.39475,-0.01465408196997853,-0.01096326434272859
0.394875,-0.0113225366087768,-0.01096326434272859
0.395,-0.0113225366087768,-0.01096326434272859
0.395125,-0.0113225366087768,-0.007625443479211999
0.39525,-0.0113225366087768,-0.01096326434272859
0.395375,-0.0113225366087768,-0.007625443479211999
0.3955,-0.0113225366087768,-0.01096326434272859
0.395625,-0.0113225366087768,-0.007625443479211999
0.39575,-0.0113225366087768,-0.01096326434272859
0.395875,-0.0113225366087768,-0.007625443479211999
0.396,-0.0113225366087768,-0.01096326434272859
0.396125,-0.0113225366087768,-0.01096326434272859
0.39625,-0.0113225366087768,-0.01096326434272859
0.396375,-0.0113225366087768,-0.007625443479211999
0.3965,-0.0113225366087768,-0.01096326434272859
0.396625,-0.0113225366087768,-0.01096326434272859
0.39675,-0.0113225366087768,-0.01096326434272859
0.396875,-0.0113225366087768,-0.01096326434272859
0.397,-0.0113225366087768,-0.01096326434272859
0.397125,-0.0113225366087768,-0.01096326434272859
0.39725,-0.0113225366087768,-0.007625443479211999
0.397375,-0.01465408196997853,-0.01096326434272859
0.3975,-0.01465408196997853,-0.01096326434272859
0.397625,-0.0113225366087768,-0.01096326434272859
0.39775,-0.0113225366087768,-0.01096326434272859
0.397875,-0.0113225366087768,-0.01096326434272859
0.398,-0.0113225366087768,-0.01096326434272859
0.398125,-0.0113225366087768,-0.01096326434272859
0.39825,-0.0113225366087768,-0.007625443479211999
0.398375,-0.0113225366087768,-0.01096326434272859
0.3985,-0.0113225366087768,-0.01096326434272859
0.398625,-0.0113225366087768,-0.01096326434272859
0.39875,-0.0113225366087768,-0.01096326434272859
0.398875,-0.0113225366087768,-0.01096326434272859
0.399,-0.0113225366087768,-0.01096326434272859
0.399125,-0.0113225366087768,-0.01096326434272859
0.39925,-0.0113225366087768,-0.01096326434272859
0.399375,-0.0113225366087768,-0.01096326434272859
0.3995,-0.0113225366087768,-0.01096326434272859
0.399625,-0.01465408196997853,-0.01096326434272859
0.39975,-0.0113225366087768,-0.01096326434272859
0.399875,-0.0113225366087768,-0.01096326434272859
0.4,-0.0113225366087768,-0.01096326434272859
0.400125,-0.0113225366087768,-0.01096326434272859
0.40025,-0.01465408196997853,-0.01096326434272859
0.400375,-0.0113225366087768,-0.01096326434272859
0.4005,-0.01465408196997853,-0.01096326434272859
0.400625,-0.0113225366087768,-0.01096326434272859
0.40075,-0.0113225366087768,-0.01096326434272859
0.400875,-0.0113225366087768,-0.01096326434272859
0.401,-0.01465408196997853,-0.01096326434272859
0.401125,-0.0113225366087768,-0.01096326434272859
0.40125,-0.01465408196997853,-0.01096326434272859
0.401375,-0.0113225366087768,-0.01096326434272859
0.4015,-0.01465408196997853,-0.01096326434272859
0.401625,-0.01465408196997853,-0.01096326434272859
0.40175,-0.01465408196997853,-0.01096326434272859
0.401875,-0.01465408196997853,-0.01096326434272859
0.402,-0.01465408196997853,-0.01096326434272859
0.402125,-0.01465408196997853,-0.01096326434272859
0.40225,-0.01465408196997853,-0.01096326434272859
0.402375,-0.01465408196997853,-0.01096326434272859
0.4025,-0.01465408196997853,-0.01096326434272859
0.402625,-0.01465408196997853,-0.01096326434272859
0.40275,-0.01465408196997853,-0.01096326434272859
0.402875,-0.01465408196997853,-0.01096326434272859
0.403,-0.01465408196997853,-0.01096326434272859
0.403125,-0.01465408196997853,-0.01430108520624517
0.40325,-0.01465408196997853,-0.01430108520624517
0.403375,-0.01465408196997853,-0.01430108520624517
0.4035,-0.01465408196997853,-0.01430108520624517
0.403625,-0.01465408196997853,-0.01430108520624517
0.40375,-0.01465408196997853,-0.01096326434272859
0.403875,-0.01465408196997853,-0.01430108520624517
0.404,-0.01465408196997853,-0.01430108520624517
0.404125,-0.01465408196997853,-0.01430108520624517
0.40425,-0.01465408196997853,-0.01430108520624517
0.404375,-0.01465408196997853,-0.01430108520624517
0.4045,-0.01465408196997853,-0.01430108520624517
0.404625,-0.01465408196997853,-0.01430108520624517
0.40475,-0.01465408196997853,-0.01430108520624517
0.404875,-0.01465408196997853,-0.01430108520624517
0.405,-0.01465408196997853,-0.01430108520624517
0.405125,-0.01465408196997853,-0.01430108520624517
0.40525,-0.01465408196997853,-0.01430108520624517
0.405375,-0.01465408196997853,-0.01096326434272859
0.4055,-0.01465408196997853,-0.01096326434272859
0.405625,-0.01465408196997853,-0.01430108520624517
0.40575,-0.01465408196997853,-0.01430108520624517
0.405875,-0.01465408196997853,-0.01430108520624517
0.406,-0.01465408196997853,-0.01430108520624517
0.406125,-0.01465408196997853,-0.01430108520624517
0.40625,-0.01465408196997853,-0.01430108520624517
0.406375,-0.01465408196997853,-0.01430108520624517
0.4065,-0.01465408196997853,-0.01430108520624517
0.406625,-0.01465408196997853,-0.01430108520624517
0.40675,-0.01465408196997853,-0.01430108520624517
0.406875,-0.01465408196997853,-0.01096326434272859
0.407,-0.01465408196997853,-0.01096326434272859
0.407125,-0.01465408196997853,-0.01096326434272859
0.40725,-0.01465408196997853,-0.01096326434272859
0.407375,-0.01465408196997853,-0.01430108520624517
0.4075,-0.01465408196997853,-0.01430108520624517
0.407625,-0.01465408196997853,-0.01096326434272859
0.40775,-0.01465408196997853,-0.01096326434272859
0.407875,-0.01465408196997853,-0.01430108520624517
0.408,-0.01465408196997853,-0.01096326434272859
0.408125,-0.01465408196997853,-0.01096326434272859
0.40825,-0.01465408196997853,-0.01096326434272859
0.408375,-0.0113225366087768,-0.01096326434272859
0.4085,-0.0113225366087768,-0.01096326434272859
0.408625,-0.0113225366087768,-0.01096326434272859
0.40875,-0.0113225366087768,-0.01096326434272859
0.408875,-0.01465408196997853,-0.01430108520624517
0.409,-0.01465408196997853,-0.01096326434272859
0.409125,-0.0113225366087768,-0.01096326434272859
0.40925,-0.0113225366087768,-0.01096326434272859
0.409375,-0.01465408196997853,-0.01096326434272859
0.4095,-0.0113225366087768,-0.01096326434272859
0.409625,-0.0113225366087768,-0.01096326434272859
0.40975,-0.01465408196997853,-0.01096326434272859
0.409875,-0.01465408196997853,-0.01096326434272859
0.41,-0.0113225366087768,-0.01096326434272859
0.410125,-0.0113225366087768,-0.01096326434272859
0.41025,-0.0113225366087768,-0.01096326434272859
0.410375,-0.01465408196997853,-0.01096326434272859
0.4105,-0.0113225366087768,-0.01096326434272859
0.410625,-0.0113225366087768,-0.01096326434272859
0.41075,-0.0113225366087768,-0.01096326434272859
0.410875,-0.0113225366087768,-0.01096326434272859
0.411,-0.0113225366087768,-0.01096326434272859
0.411125,-0.0113225366087768,-0.01096326434272859
0.41125,-0.0113225366087768,-0.01096326434272859
0.411375,-0.0113225366087768,-0.01096326434272859
0.4115,-0.0113225366087768,-0.01096326434272859
0.411625,-0.0113225366087768,-0.007625443479211999
0.41175,-0.0113225366087768,-0.01096326434272859
0.411875,-0.0113225366087768,-0.01096326434272859
0.412,-0.0113225366087768,-0.01096326434272859
0.412125,-0.0113225366087768,-0.01096326434272859
0.41225,-0.0113225366087768,-0.007625443479211999
0.412375,-0.0113225366087768,-0.007625443479211999
0.4125,-0.0113225366087768,-0.007625443479211999
0.412625,-0.0113225366087768,-0.01096326434272859
0.41275,-0.0113225366087768,-0.01096326434272859
0.412875,-0.0113225366087768,-0.01096326434272859
0.413,-0.0113225366087768,-0.007625443479211999
0.413125,-0.0113225366087768,-0.01096326434272859
0.41325,-0.0113225366087768,-0.01096326434272859
0.413375,-0.0113225366087768,-0.01096326434272859
0.4135,-0.0113225366087768,-0.01096326434272859
0.413625,-0.0113225366087768,-0.01096326434272859
0.41375,-0.0113225366087768,-0.01096326434272859
0.413875,-0.0113225366087768,-0.01096326434272859
0.414,-0.0113225366087768,-0.007625443479211999
0.414125,-0.0113225366087768,-0.01096326434272859
0.41425,-0.01465408196997853,-0.01096326434272859
0.414375,-0.0113225366087768,-0.01096326434272859
0.4145,-0.0113225366087768,-0.01096326434272859
0.414625,-0.0113225366087768,-0.01096326434272859
0.41475,-0.0113225366087768,-0.01096326434272859
0.414875,-0.0113225366087768,-0.01096326434272859
0.415,-0.0113225366087768,-0.007625443479211999
0.415125,-0.0113225366087768,-0.01096326434272859
0.41525,-0.0113225366087768,-0.01096326434272859
0.415375,-0.0113225366087768,-0.01096326434272859
0.4155,-0.0113225366087768,-0.01096326434272859
0.415625,-0.0113225366087768,-0.01096326434272859
0.41575,-0.0113225366087768,-0.01096326434272859
0.415875,-0.0113225366087768,-0.01096326434272859
0.416,-0.0113225366087768,-0.01096326434272859
0.416125,-0.0113225366087768,-0.01096326434272859
0.41625,-0.0113225366087768,-0.01096326434272859
0.416375,-0.0113225366087768,-0.01096326434272859
0.4165,-0.01465408196997853,-0.01096326434272859
0.416625,-0.0113225366087768,-0.01096326434272859
0.41675,-0.0113225366087768,-0.01096326434272859
0.416875,-0.0113225366087768,-0.01096326434272859
0.417,-0.0113225366087768,-0.01096326434272859
0.417125,-0.0113225366087768,-0.01096326434272859
0.41725,-0.0113225366087768,-0.01096326434272859
0.417375,-0.0113225366087768,-0.01096326434272859
0.4175,-0.0113225366087768,-0.01096326434272859
0.417625,-0.01465408196997853,-0.01096326434272859
0.41775,-0.0113225366087768,-0.01096326434272859
0.417875,-0.0113225366087768,-0.01096326434272859
0.418,-0.0113225366087768,-0.01096326434272859
0.418125,-0.01465408196997853,-0.01096326434272859
0.41825,-0.01465408196997853,-0.01096326434272859
0.418375,-0.01465408196997853,-0.01096326434272859
0.4185,-0.01465408196997853,-0.01430108520624517
0.418625,-0.01465408196997853,-0.01096326434272859
0.41875,-0.01465408196997853,-0.01430108520624517
0.418875,-0.01465408196997853,-0.01430108520624517
0.419,-0.01465408196997853,-0.01430108520624517
0.419125,-0.01465408196997853,-0.01430108520624517
0.41925,-0.01465408196997853,-0.01430108520624517
0.419375,-0.01465408196997853,-0.01096326434272859
0.4195,-0.01465408196997853,-0.01430108520624517
0.419625,-0.01465408196997853,-0.01430108520624517
0.41975,-0.01465408196997853,-0.01430108520624517
0.419875,-0.01465408196997853,-0.01430108520624517
0.42,-0.01465408196997853,-0.01430108520624517
0.420125,-0.01465408196997853,-0.01430108520624517
0.42025,-0.01465408196997853,-0.01430108520624517
0.420375,-0.01465408196997853,-0.01430108520624517
0.4205,-0.01465408196997853,-0.01430108520624517
0.420625,-0.01465408196997853,-0.01430108520624517
0.42075,-0.01465408196997853,-0.01430108520624517
0.420875,-0.01465408196997853,-0.01430108520624517
0.421,-0.01465408196997853,-0.01430108520624517
0.421125,-0.01465408196997853,-0.01430108520624517
0.42125,-0.01465408196997853,-0.01430108520624517
0.421375,-0.0179856273311807,-0.01430108520624517
0.4215,-0.01465408196997853,-0.01430108520624517
0.421625,-0.01465408196997853,-0.01430108520624517
0.42175,-0.01465408196997853,-0.01430108520624517
0.421875,-0.01465408196997853,-0.01430108520624517
0.422,-0.01465408196997853,-0.01430108520624517
0.422125,-0.01465408196997853,-0.01430108520624517
0.42225,-0.01465408196997853,-0.01430108520624517
0.422375,-0.01465408196997853,-0.01096326434272859
0.4225,-0.01465408196997853,-0.01430108520624517
0.422625,-0.01465408196997853,-0.01430108520624517
0.42275,-0.01465408196997853,-0.01430108520624517
0.422875,-0.0179856273311807,-0.01430108520624517
0.423,-0.01465408196997853,-0.01430108520624517
0.423125,-0.01465408196997853,-0.01430108520624517
0.42325,-0.01465408196997853,-0.01430108520624517
0.423375,-0.01465408196997853,-0.01430108520624517
0.4235,-0.01465408196997853,-0.01430108520624517
0.423625,-0.01465408196997853,-0.01430108520624517
0.42375,-0.01465408196997853,-0.01430108520624517
0.423875,-0.01465408196997853,-0.01430108520624517
0.424,-0.01465408196997853,-0.01096326434272859
0.424125,-0.01465408196997853,-0.01430108520624517
0.42425,-0.01465408196997853,-0.01430108520624517
0.424375,-0.01465408196997853,-0.01430108520624517
0.4245,-0.01465408196997853,-0.01096326434272859
0.424625,-0.01465408196997853,-0.01430108520624517
0.42475,-0.01465408196997853,-0.01096326434272859
0.424875,-0.01465408196997853,-0.01430108520624517
0.425,-0.01465408196997853,-0.01096326434272859
0.425125,-0.01465408196997853,-0.01096326434272859
0.42525,-0.01465408196997853,-0.01096326434272859
0.425375,-0.01465408196997853,-0.01096326434272859
0.4255,-0.01465408196997853,-0.01096326434272859
0.425625,-0.01465408196997853,-0.01430108520624517
0.42575,-0.01465408196997853,-0.01430108520624517
0.425875,-0.01465408196997853,-0.01430108520624517
0.426,-0.01465408196997853,-0.01430108520624517
0.426125,-0.01465408196997853,-0.01430108520624517
0.42625,-0.01465408196997853,-0.01096326434272859
0.426375,-0.01465408196997853,-0.01096326434272859
0.4265,-0.0113225366087768,-0.01096326434272859
0.426625,-0.0113225366087768,-0.01096326434272859
0.42675,-0.0113225366087768,-0.01096326434272859
0.426875,-0.0113225366087768,-0.01096326434272859
0.427,-0.0113225366087768,-0.01096326434272859
0.427125,-0.01465408196997853,-0.01096326434272859
0.42725,4.123125256642698,0.01573930256540411
0.427375,4.746124239187441,0.04911751120056999
0.4275,4.892712235080321,0.08249571983573586
0.427625,4.94601696085955,0.1158739284709017
0.42775,4.969337778387963,0.1525899579695842
0.427875,4.979332414471569,0.1893059874682667
0.428,4.982663959832771,0.2260220169669491
0.428125,4.985995505193973,0.2627380464656316
0.42825,4.989327050555175,0.3027918968278306
0.428375,4.989327050555175,0.3361701054629965
0.4285,4.989327050555175,0.372886134961679
0.428625,4.989327050555175,0.4096021644603615
0.42875,4.989327050555175,0.4429803730955273
0.428875,4.989327050555175,0.4796964025942098
