System Dynamics/Lab/lab8/Sumof2sinRC33.csv

#Digilent WaveForms Oscilloscope Acquisition
#Device Name: Discovery2
#Serial Number: SN:210321AFD7CC
#Date Time: 2020-12-01 12:31:26.750
#Sample rate: 4000Hz
#Samples: 8000
#Trigger: Source: Channel 1 Type: Edge Condition: Rising Level: 0 V Hyst.: Auto HoldOff: 0 s
#Channel 1: Range: 500 mV/div Offset: 0 V Attenuation: 10 X
#Channel 2: Range: 500 mV/div Offset: 0 V Attenuation: 10 X
#Wavegen Channel 1: Running
#Mode: Simple
#Type: sumof2sin
#Frequency: 1 Hz
#Period: 1 s
#Amplitude: 1 V
#Offset: 0 V
#Phase: 0 °

Time (s),Channel 1 (V),Channel 2 (V)
0,-0.03463543764252711,-0.4207530975552977
0.0002499999999999725,-0.07777282454324191,-0.4174009355998083
0.0004999999999999449,-0.1308649930364294,-0.4106966116888295
0.0007500000000000284,-0.1905936825912653,-0.4073444497333402
0.001000000000000001,-0.263595414269398,-0.4073444497333402
0.001249999999999973,-0.3365971459475308,-0.4039922877778508
0.001499999999999946,-0.416235398687312,-0.4039922877778508
0.001750000000000029,-0.4925553908962689,-0.4039922877778508
0.002000000000000002,-0.5721936436360501,-0.4039922877778508
0.002249999999999974,-0.6485136358450071,-0.4073444497333402
0.002499999999999947,-0.7215153675231398,-0.4140487736443189
0.00275000000000003,-0.7845623176087999,-0.4207530975552977
0.003000000000000003,-0.8442910071636358,-0.4274574214662765
0.003249999999999975,-0.8907466545951749,-0.4308095834217658
0.003499999999999948,-0.9305657809650655,-0.4375139073327446
0.003750000000000031,-0.9571118652116591,-0.4475703931992128
0.004000000000000004,-0.9737031678657803,-0.4542747171101915
0.004249999999999976,-0.9737031678657803,-0.4643312029766597
0.004499999999999948,-0.9637483862733076,-0.4710355268876384
0.004750000000000032,-0.9438388230883623,-0.4810920127541066
0.005000000000000004,-0.9106562177801202,-0.4877963366650854
0.005249999999999977,-0.8675188308794054,-0.4945006605760641
0.005499999999999949,-0.8144266623862179,-0.4978528225315535
0.005750000000000033,-0.7513797123005578,-0.5045571464425324
0.006000000000000005,-0.6816962411532492,-0.5079093083980217
0.006249999999999978,-0.6086945094751165,-0.5079093083980217
0.00649999999999995,-0.5323745172661595,-0.5112614703535111
0.006750000000000034,-0.4527362645263783,-0.5079093083980217
0.007000000000000006,-0.3730980117865972,-0.5079093083980217
0.007249999999999979,-0.3000962801084644,-0.5045571464425324
0.007499999999999951,-0.2270945484303316,-0.501204984487043
0.007750000000000035,-0.1640475983446715,-0.4978528225315535
0.008000000000000007,-0.1076371693206599,-0.4911484986205747
0.00824999999999998,-0.06118152188912084,-0.4877963366650854
0.008499999999999952,-0.02468065605005446,-0.4777398507986172
0.008750000000000036,-0.001452832334284948,-0.4710355268876384
0.009000000000000008,0.01182020978901192,-0.4643312029766597
0.00924999999999998,0.01182020978901192,-0.4576268790656809
0.009499999999999953,0.001865428196539268,-0.4509225551547021
0.009750000000000036,-0.02136239551923024,-0.4442182312437234
0.01000000000000001,-0.05454500082747241,-0.4375139073327446
0.01024999999999998,-0.1010006482590114,-0.4308095834217658
0.01049999999999995,-0.1540928167521989,-0.4274574214662765
0.01075000000000004,-0.2204580273686832,-0.4241052595107871
0.01100000000000001,-0.2901414985159917,-0.4207530975552977
0.01124999999999998,-0.3664614907249487,-0.4207530975552977
0.01149999999999995,-0.4427814829339057,-0.4207530975552977
0.01175000000000004,-0.5191014751428626,-0.4207530975552977
0.01200000000000001,-0.5987397278826438,-0.4207530975552977
0.01224999999999998,-0.6750597200916009,-0.4274574214662765
0.01249999999999996,-0.7447431912389094,-0.4308095834217658
0.01275000000000004,-0.8077901413245695,-0.4341617453772552
0.01300000000000001,-0.8642005703485811,-0.440866069288234
0.01324999999999998,-0.9106562177801202,-0.4475703931992128
0.01349999999999996,-0.9471570836191866,-0.4542747171101915
0.01375000000000004,-0.9737031678657803,-0.4643312029766597
0.01400000000000001,-0.9836579494582529,-0.4710355268876384
0.01424999999999998,-0.9836579494582529,-0.4777398507986172
0.01449999999999996,-0.9737031678657803,-0.484444174709596
0.01475000000000004,-0.9504753441500108,-0.4945006605760641
0.01500000000000001,-0.9139744783109444,-0.501204984487043
0.01524999999999999,-0.8675188308794054,-0.5079093083980217
0.01549999999999996,-0.8144266623862179,-0.5112614703535111
0.01575000000000004,-0.7480614517697336,-0.5179657942644899
0.01600000000000001,-0.678377980622425,-0.5179657942644899
0.01624999999999999,-0.602057988413468,-0.5179657942644899
0.01649999999999996,-0.5257379962045111,-0.5213179562199792
0.01675000000000004,-0.4460997434647299,-0.5213179562199792
0.01700000000000002,-0.3697797512557729,-0.5179657942644899
0.01724999999999999,-0.293459759046816,-0.5146136323090005
0.01749999999999996,-0.2237762878995074,-0.5112614703535111
0.01775000000000004,-0.1607293378138473,-0.5079093083980217
0.01800000000000002,-0.1076371693206599,-0.501204984487043
0.01824999999999999,-0.06449978241994506,-0.4978528225315535
0.01849999999999996,-0.02799891658087868,-0.4877963366650854
0.01875000000000004,-0.004771092865109164,-0.4810920127541066
0.01900000000000002,0.005183688727363484,-0.4743876888431278
0.01924999999999999,0.005183688727363484,-0.4643312029766597
0.01949999999999996,-0.0114076139267576,-0.4609790410211703
0.01975000000000005,-0.03463543764252711,-0.4542747171101915
0.02000000000000002,-0.07113630348159349,-0.4475703931992128
0.02024999999999999,-0.1175919509131325,-0.440866069288234
0.02049999999999996,-0.1740023799371442,-0.4375139073327446
0.02075000000000005,-0.2403675905536285,-0.4341617453772552
0.02100000000000002,-0.2702319353310464,-0.4308095834217658
0.02124999999999999,-0.3133693222317613,-0.4308095834217658
0.02149999999999996,-0.3896893144407182,-0.4308095834217658
0.02175000000000005,-0.4660093066496752,-0.4274574214662765
0.02200000000000002,-0.5456475593894564,-0.4274574214662765
0.02224999999999999,-0.6219675515984133,-0.4308095834217658
0.02249999999999996,-0.6982875438073703,-0.4341617453772552
0.02275000000000005,-0.7679710149546789,-0.440866069288234
0.02300000000000002,-0.831017965040339,-0.4475703931992128
0.02324999999999999,-0.8841101335335264,-0.4542747171101915
0.02349999999999997,-0.9305657809650655,-0.4609790410211703
0.02375000000000005,-0.9637483862733076,-0.4676833649321491
0.02400000000000002,-0.9836579494582529,-0.4743876888431278
0.02424999999999999,-0.9969309915815497,-0.484444174709596
0.02449999999999997,-0.9969309915815497,-0.4911484986205747
0.02475000000000005,-0.9803396889274287,-0.4978528225315535
0.02500000000000002,-0.953793604680835,-0.5079093083980217
0.02524999999999999,-0.9172927388417687,-0.5112614703535111
0.02549999999999997,-0.8675188308794054,-0.5213179562199792
0.02575000000000005,-0.8077901413245695,-0.5213179562199792
0.02600000000000002,-0.7447431912389094,-0.528022280130958
0.02625,-0.6750597200916009,-0.5313744420864475
0.02649999999999997,-0.5987397278826438,-0.5313744420864475
0.02675000000000005,-0.5224197356736869,-0.5313744420864475
0.02700000000000002,-0.4427814829339057,-0.5313744420864475
0.02725,-0.3664614907249487,-0.5313744420864475
0.02749999999999997,-0.2901414985159917,-0.5246701181754686
0.02775000000000005,-0.2237762878995074,-0.5213179562199792
0.02800000000000002,-0.1640475983446715,-0.5179657942644899
0.02825,-0.1109554298514841,-0.5112614703535111
0.02849999999999997,-0.06781804295076926,-0.5079093083980217
0.02875000000000005,-0.03463543764252711,-0.501204984487043
0.02900000000000003,-0.0114076139267576,-0.4911484986205747
0.02925,-0.004771092865109164,-0.484444174709596
0.02949999999999997,-0.00808935339593338,-0.4777398507986172
0.02975000000000005,-0.02136239551923024,-0.4710355268876384
0.03000000000000003,-0.05122674029664819,-0.4643312029766597
0.03025,-0.08772760613571456,-0.4576268790656809
0.03049999999999997,-0.1375015140980778,-0.4509225551547021
0.03075000000000006,-0.1972302036529137,-0.4475703931992128
0.03100000000000003,-0.263595414269398,-0.4442182312437234
0.03125,-0.3332788854167066,-0.440866069288234
0.03149999999999997,-0.4129171381564877,-0.440866069288234
0.03174999999999994,-0.4892371303654447,-0.440866069288234
0.03200000000000003,-0.5655571225744017,-0.440866069288234
0.03225,-0.6451953753141829,-0.4442182312437234
0.03249999999999997,-0.7181971069923156,-0.4475703931992128
0.03274999999999995,-0.7878805781396242,-0.4542747171101915
0.03300000000000003,-0.8476092676944601,-0.4576268790656809
0.03325,-0.9007014361876475,-0.4643312029766597
0.03349999999999997,-0.9438388230883623,-0.4710355268876384
0.03374999999999995,-0.9770214283966044,-0.4777398507986172
0.03400000000000003,-0.9936127310507256,-0.484444174709596
0.03425,-1.003567512643198,-0.4911484986205747
0.03449999999999998,-0.9969309915815497,-0.501204984487043
0.03474999999999995,-0.9803396889274287,-0.5112614703535111
0.03500000000000003,-0.953793604680835,-0.5179657942644899
0.03525,-0.9139744783109444,-0.5213179562199792
0.03549999999999998,-0.8642005703485811,-0.528022280130958
0.03574999999999995,-0.8044718807937452,-0.5347266040419368
0.03600000000000003,-0.7381066701772609,-0.5380787659974262
0.03625,-0.6651049384991282,-0.5380787659974262
0.03649999999999998,-0.5887849462901712,-0.5380787659974262
0.03674999999999995,-0.5124649540812143,-0.5414309279529156
0.03700000000000003,-0.432826701341433,-0.5414309279529156
0.03725000000000001,-0.3565067091324761,-0.5380787659974262
0.03749999999999998,-0.2835049774543433,-0.5347266040419368
0.03774999999999995,-0.217139766837859,-0.5313744420864475
0.03800000000000003,-0.1574110772830231,-0.5246701181754686
0.03825000000000001,-0.1076371693206599,-0.5179657942644899
0.03849999999999998,-0.06449978241994506,-0.5146136323090005
0.03874999999999995,-0.03463543764252711,-0.5079093083980217
0.03900000000000003,-0.01472587445758181,-0.501204984487043
0.03925000000000001,-0.00808935339593338,-0.4911484986205747
0.03949999999999998,-0.01472587445758181,-0.484444174709596
0.03974999999999995,-0.03131717711170289,-0.4777398507986172
0.04000000000000004,-0.06449978241994506,-0.4710355268876384
0.04025000000000001,-0.1043189087898356,-0.4676833649321491
0.04049999999999998,-0.1540928167521989,-0.4609790410211703
0.04074999999999995,-0.2138215063070348,-0.4576268790656809
0.04100000000000004,-0.2835049774543433,-0.4542747171101915
0.04125000000000001,-0.3531884486016519,-0.4509225551547021
0.04149999999999998,-0.432826701341433,-0.4509225551547021
0.04174999999999995,-0.50914669355039,-0.4509225551547021
0.04200000000000004,-0.5887849462901712,-0.4542747171101915
0.04225000000000001,-0.6684231990299524,-0.4576268790656809
0.04249999999999998,-0.7414249307080851,-0.4609790410211703
0.04274999999999995,-0.8077901413245695,-0.4676833649321491
0.04300000000000004,-0.8675188308794054,-0.4710355268876384
0.04325000000000001,-0.9172927388417687,-0.4777398507986172
0.04349999999999998,-0.9571118652116591,-0.484444174709596
0.04374999999999996,-0.9869762099890771,-0.4911484986205747
0.04400000000000004,-1.003567512643198,-0.501204984487043
0.04425000000000001,-1.010204033704847,-0.5045571464425324
0.04449999999999998,-1.003567512643198,-0.5146136323090005
0.04474999999999996,-0.9836579494582529,-0.5213179562199792
0.04500000000000004,-0.953793604680835,-0.528022280130958
0.04525000000000001,-0.9106562177801202,-0.5347266040419368
0.04549999999999998,-0.8575640492869328,-0.5380787659974262
0.04574999999999996,-0.801153620262921,-0.544783089908405
0.04600000000000004,-0.7314701491156125,-0.5481352518638943
0.04625000000000001,-0.6584684174374797,-0.5514874138193837
0.04649999999999999,-0.5821484252285227,-0.5514874138193837
0.04674999999999996,-0.5025101724887416,-0.5514874138193837
0.04700000000000004,-0.4261901802797846,-0.5481352518638943
0.04725000000000001,-0.3498701880708276,-0.544783089908405
0.04749999999999999,-0.2768684563926949,-0.5414309279529156
0.04774999999999996,-0.2105032457762106,-0.5380787659974262
0.04800000000000004,-0.1507745562213747,-0.5347266040419368
0.04825000000000002,-0.1043189087898356,-0.528022280130958
0.04849999999999999,-0.06118152188912084,-0.5213179562199792
0.04874999999999996,-0.03463543764252711,-0.5146136323090005
0.04900000000000004,-0.01804413498840603,-0.5079093083980217
0.04925000000000002,-0.0114076139267576,-0.4978528225315535
0.04949999999999999,-0.02136239551923024,-0.4911484986205747
0.04974999999999996,-0.04127195870417554,-0.4877963366650854
0.05000000000000004,-0.07445456401241771,-0.4810920127541066
0.05025000000000002,-0.1142736903823083,-0.4743876888431278
0.05049999999999999,-0.1673658588754958,-0.4676833649321491
0.05074999999999996,-0.2270945484303316,-0.4643312029766597
0.05100000000000005,-0.2967780195776402,-0.4576268790656809
0.05125000000000002,-0.3730980117865972,-0.4576268790656809
0.05149999999999999,-0.4494180039955541,-0.4576268790656809
0.05174999999999996,-0.5290562567353353,-0.4576268790656809
0.05200000000000005,-0.6053762489442923,-0.4609790410211703
0.05225000000000002,-0.6816962411532492,-0.4643312029766597
0.05249999999999999,-0.754697972831382,-0.4676833649321491
0.05274999999999996,-0.8210631834478663,-0.4743876888431278
0.05300000000000005,-0.8774736124718781,-0.4777398507986172
0.05325000000000002,-0.9272475204342413,-0.484444174709596
0.05349999999999999,-0.9637483862733076,-0.4911484986205747
0.05374999999999996,-0.9936127310507256,-0.4978528225315535
0.05400000000000005,-1.010204033704847,-0.5079093083980217
0.05425000000000002,-1.010204033704847,-0.5146136323090005
0.05449999999999999,-1.000249252112374,-0.5213179562199792
0.05474999999999997,-0.9803396889274287,-0.528022280130958
0.05500000000000005,-0.9504753441500108,-0.5347266040419368
0.05525000000000002,-0.907337957249296,-0.5414309279529156
0.05549999999999999,-0.8509275282252843,-0.544783089908405
0.05574999999999997,-0.7911988386704484,-0.5514874138193837
0.05600000000000005,-0.7215153675231398,-0.5548395757748731
0.05625000000000002,-0.6485136358450071,-0.5581917377303625
0.05649999999999999,-0.5721936436360501,-0.5581917377303625
0.05674999999999997,-0.4925553908962689,-0.5548395757748731
0.05700000000000005,-0.416235398687312,-0.5548395757748731
0.05725000000000002,-0.339915406478355,-0.5548395757748731
0.0575,-0.2669136748002222,-0.5481352518638943
0.05774999999999997,-0.2038667247145621,-0.544783089908405
0.05800000000000005,-0.1474562956905505,-0.5380787659974262
0.05825000000000002,-0.09768238772818721,-0.5347266040419368
0.0585,-0.06118152188912084,-0.528022280130958
0.05874999999999997,-0.03463543764252711,-0.5213179562199792
0.05900000000000005,-0.02136239551923024,-0.5146136323090005
0.05925000000000002,-0.01804413498840603,-0.5079093083980217
0.0595,-0.02799891658087868,-0.4978528225315535
0.05974999999999997,-0.05122674029664819,-0.4911484986205747
0.06000000000000005,-0.08440934560489036,-0.484444174709596
0.06025000000000003,-0.1275467325056052,-0.4777398507986172
0.0605,-0.1806389009987926,-0.4743876888431278
0.06074999999999997,-0.2436858510844527,-0.4710355268876384
0.06100000000000005,-0.3166875827625855,-0.4676833649321491
0.06125000000000003,-0.3896893144407182,-0.4676833649321491
0.0615,-0.4660093066496752,-0.4643312029766597
0.06174999999999997,-0.5456475593894564,-0.4643312029766597
0.06200000000000006,-0.6219675515984133,-0.4676833649321491
0.06225000000000003,-0.6982875438073703,-0.4710355268876384
0.0625,-0.7712892754855031,-0.4743876888431278
0.06274999999999997,-0.8343362255711632,-0.4810920127541066
0.06299999999999994,-0.8907466545951749,-0.484444174709596
0.06325000000000003,-0.937202302026714,-0.4911484986205747
0.0635,-0.9737031678657803,-0.4978528225315535
0.06374999999999997,-0.9969309915815497,-0.5045571464425324
0.06399999999999995,-1.010204033704847,-0.5112614703535111
0.06425000000000003,-1.013522294235671,-0.5213179562199792
0.0645,-1.000249252112374,-0.528022280130958
0.06474999999999997,-0.9770214283966044,-0.5313744420864475
0.06499999999999995,-0.9438388230883623,-0.5414309279529156
0.06525000000000003,-0.8973831756568234,-0.5481352518638943
0.0655,-0.8442910071636358,-0.5514874138193837
0.06574999999999998,-0.7812440570779757,-0.5548395757748731
0.06599999999999995,-0.708242325399843,-0.5581917377303625
0.06625000000000003,-0.6352405937217103,-0.5615438996858518
0.0665,-0.5589206015127532,-0.5615438996858518
0.06674999999999998,-0.479282348772972,-0.5615438996858518
0.06699999999999995,-0.4029623565640151,-0.5581917377303625
0.06725000000000003,-0.3266423643550581,-0.5548395757748731
0.0675,-0.2569588932077496,-0.5514874138193837
0.06774999999999998,-0.1905936825912653,-0.544783089908405
0.06799999999999995,-0.1341832535672536,-0.5414309279529156
0.06825000000000003,-0.09104586666653879,-0.5347266040419368
0.06850000000000001,-0.05454500082747241,-0.528022280130958
0.06874999999999998,-0.02799891658087868,-0.5213179562199792
0.06899999999999995,-0.01804413498840603,-0.5146136323090005
0.06925000000000003,-0.01804413498840603,-0.5079093083980217
0.06950000000000001,-0.03131717711170289,-0.501204984487043
0.06974999999999998,-0.05454500082747241,-0.4945006605760641
0.06999999999999995,-0.09104586666653879,-0.4877963366650854
0.07025000000000003,-0.1341832535672536,-0.4810920127541066
0.07050000000000001,-0.1905936825912653,-0.4743876888431278
0.07074999999999998,-0.2569588932077496,-0.4743876888431278
0.07099999999999995,-0.3266423643550581,-0.4710355268876384
0.07125000000000004,-0.4029623565640151,-0.4676833649321491
0.07150000000000001,-0.479282348772972,-0.4676833649321491
0.07174999999999998,-0.5589206015127532,-0.4676833649321491
0.07199999999999995,-0.6352405937217103,-0.4710355268876384
0.07225000000000004,-0.7115605859306672,-0.4743876888431278
0.07250000000000001,-0.7812440570779757,-0.4777398507986172
0.07274999999999998,-0.8442910071636358,-0.484444174709596
0.07299999999999995,-0.8973831756568234,-0.4877963366650854
0.07325000000000004,-0.9438388230883623,-0.4945006605760641
0.07350000000000001,-0.9803396889274287,-0.5045571464425324
0.07374999999999998,-1.000249252112374,-0.5112614703535111
0.07399999999999995,-1.013522294235671,-0.5179657942644899
0.07425000000000004,-1.010204033704847,-0.5246701181754686
0.07450000000000001,-0.9969309915815497,-0.5313744420864475
0.07474999999999998,-0.9737031678657803,-0.5380787659974262
0.07499999999999996,-0.937202302026714,-0.5481352518638943
0.07525000000000004,-0.8907466545951749,-0.5514874138193837
0.07550000000000001,-0.8343362255711632,-0.5548395757748731
0.07574999999999998,-0.7712892754855031,-0.5615438996858518
0.07599999999999996,-0.6982875438073703,-0.5648960616413412
0.07625000000000004,-0.6219675515984133,-0.5648960616413412
0.07650000000000001,-0.5456475593894564,-0.5648960616413412
0.07674999999999998,-0.4660093066496752,-0.5648960616413412
0.07699999999999996,-0.3896893144407182,-0.5615438996858518
0.07725000000000004,-0.3133693222317613,-0.5581917377303625
0.07750000000000001,-0.2436858510844527,-0.5548395757748731
0.07774999999999999,-0.1806389009987926,-0.5481352518638943
0.07799999999999996,-0.1242284719747809,-0.544783089908405
0.07825000000000004,-0.08109108507406614,-0.5380787659974262
0.07850000000000001,-0.05122674029664819,-0.5313744420864475
0.07874999999999999,-0.04459021923499976,-0.5246701181754686
0.07899999999999996,-0.02468065605005446,-0.5179657942644899
0.07925000000000004,-0.01472587445758181,-0.5079093083980217
0.07950000000000002,-0.01804413498840603,-0.5045571464425324
0.07974999999999999,-0.03463543764252711,-0.4945006605760641
0.07999999999999996,-0.06118152188912084,-0.4877963366650854
0.08025000000000004,-0.09768238772818721,-0.4810920127541066
0.08050000000000002,-0.1474562956905505,-0.4777398507986172
0.08074999999999999,-0.2038667247145621,-0.4710355268876384
0.08099999999999996,-0.2702319353310464,-0.4676833649321491
0.08125000000000004,-0.339915406478355,-0.4643312029766597
0.08150000000000002,-0.416235398687312,-0.4643312029766597
0.08174999999999999,-0.4925553908962689,-0.4643312029766597
