System Dynamics/Lab/lab8/Sumof2sinCR33.csv

#Digilent WaveForms Oscilloscope Acquisition
#Device Name: Discovery2
#Serial Number: SN:210321AFD7CC
#Date Time: 2020-12-01 13:48:52.951
#Sample rate: 4000Hz
#Samples: 8000
#Trigger: Source: Channel 1 Type: Edge Condition: Rising Level: 0 V Hyst.: Auto HoldOff: 0 s
#Channel 1: Range: 500 mV/div Offset: 0 V Attenuation: 10 X
#Channel 2: Range: 500 mV/div Offset: 0 V Attenuation: 10 X
#Wavegen Channel 1: Running
#Mode: Simple
#Type: sumof2sin
#Frequency: 1 Hz
#Period: 1 s
#Amplitude: 1 V
#Offset: 0 V
#Phase: 0 °

Time (s),Channel 1 (V),Channel 2 (V)
0,-0.2105032457762106,-0.2430885139143604
0.0002499999999999725,-0.1474562956905505,-0.1760452748045727
0.0004999999999999449,-0.07777282454324191,-0.1056498737392956
0.0007500000000000284,-0.001452832334284948,-0.02855014876303977
0.001000000000000001,0.07818542040549624,0.05190173816870544
0.001249999999999973,0.1578236731452774,0.1290014631449612
0.001499999999999946,0.2374619258850586,0.2061011881212171
0.001750000000000029,0.3104636575631914,0.2764965891864942
0.002000000000000002,0.3801471287104999,0.3435398282962819
0.002249999999999974,0.4465123393269843,0.4005265815396014
0.002499999999999947,0.5029227683509959,0.4508090108719421
0.00275000000000003,0.5493784157825349,0.4910349543378147
0.003000000000000003,0.5858792816216013,0.5178522499817297
0.003249999999999975,0.6091071053373708,0.5346130597591767
0.003499999999999948,0.6190618869298434,0.5379652217146661
0.003750000000000031,0.6190618869298434,0.5312608978036873
0.004000000000000004,0.6057888448065466,0.511147926070751
0.004249999999999976,0.5858792816216013,0.4809784684713466
0.004499999999999948,0.5460601552517107,0.4374003630499846
0.004750000000000032,0.5029227683509959,0.3837657717621545
0.005000000000000004,0.44319407879616,0.3234268565633456
0.005249999999999977,0.3801471287104999,0.2563836174535579
0.005499999999999949,0.3137819180940156,0.1826360544327914
0.005750000000000033,0.2374619258850586,0.108888491412025
0.006000000000000005,0.1578236731452774,0.02843660448027975
0.006249999999999978,0.08150368093632046,-0.05201528245146547
0.00649999999999995,0.001865428196539268,-0.1257628454722319
0.006750000000000034,-0.07113630348159349,-0.196158246537509
0.007000000000000006,-0.140819774628902,-0.2632014856472966
0.007249999999999979,-0.2005484641837379,-0.3235404008461055
0.007499999999999951,-0.2536406326769254,-0.3704706682229569
0.007750000000000035,-0.2967780195776402,-0.4073444497333402
0.008000000000000007,-0.3299606248858823,-0.4341617453772552
0.00824999999999998,-0.3531884486016519,-0.4509225551547021
0.008499999999999952,-0.3598249696633003,-0.4542747171101915
0.008750000000000036,-0.3565067091324761,-0.4442182312437234
0.009000000000000008,-0.3432336670091792,-0.4207530975552977
0.00924999999999998,-0.3166875827625855,-0.3905836399558932
0.009499999999999953,-0.2768684563926949,-0.3436533725790419
0.009750000000000036,-0.2270945484303316,-0.2933709432467011
0.01000000000000001,-0.17068411940632,-0.2330320280478922
0.01024999999999998,-0.1043189087898356,-0.1626366269826151
0.01049999999999995,-0.03131717711170289,-0.09224122591733808
0.01075000000000004,0.04500281509725408,-0.01514150094108224
0.01100000000000001,0.1246410678370353,0.06531038599066298
0.01124999999999998,0.2042793205768164,0.1424101109669188
0.01149999999999995,0.2805993127857734,0.2161576739876853
0.01175000000000004,0.3536010444639062,0.2865530750529623
0.01200000000000001,0.4232845156112147,0.35359631416275
0.01224999999999998,0.4863314656968748,0.4072309054505802
0.01249999999999996,0.5394236341900622,0.4575133347829209
0.01275000000000004,0.5858792816216013,0.4943871162933041
0.01300000000000001,0.6190618869298434,0.5178522499817297
0.01324999999999998,0.6389714501147887,0.5312608978036873
0.01349999999999996,0.6489262317072614,0.5346130597591767
0.01375000000000004,0.6456079711764372,0.5245565738927085
0.01400000000000001,0.6323349290531404,0.5010914402042829
0.01424999999999998,0.6057888448065466,0.4709219826048784
0.01449999999999996,0.5692879789674802,0.4239917152280271
0.01475000000000004,0.519514071005117,0.3703571239401969
0.01500000000000001,0.4631036419811053,0.310018208741388
0.01524999999999999,0.396738431364621,0.2396228076761109
0.01549999999999996,0.3270549602173125,0.1658752446553445
0.01575000000000004,0.2507349680083555,0.08877551967908867
0.01600000000000001,0.1744149757993985,0.008323632747343448
0.01624999999999999,0.09477672305961732,-0.06877609222891239
0.01649999999999996,0.01845673085066035,-0.1425236552496788
0.01675000000000004,-0.05454500082747241,-0.2129190563149559
0.01700000000000002,-0.1209102114439567,-0.2766101334692542
0.01724999999999999,-0.1806389009987926,-0.3335968867125737
0.01749999999999996,-0.2337310694919801,-0.3805271540894251
0.01775000000000004,-0.2768684563926949,-0.4140487736443189
0.01800000000000002,-0.3034145406392886,-0.4375139073327446
0.01824999999999999,-0.3266423643550581,-0.4509225551547021
0.01849999999999996,-0.3332788854167066,-0.4542747171101915
0.01875000000000004,-0.3266423643550581,-0.440866069288234
0.01900000000000002,-0.3067328011701128,-0.4174009355998083
0.01924999999999999,-0.2768684563926949,-0.3805271540894251
0.01949999999999996,-0.2370493300228043,-0.3369490486680631
0.01975000000000005,-0.1872754220604411,-0.2833144573802329
0.02000000000000002,-0.1275467325056052,-0.2196233802259346
0.02024999999999999,-0.06118152188912084,-0.1492279791606576
0.02049999999999996,0.01182020978901192,-0.07548041613989115
0.02075000000000005,0.08814020199796889,0.001619308836364681
0.02100000000000002,0.1677784547377501,0.07871903381262051
0.02124999999999999,0.2474167074775313,0.1558187587888764
0.02149999999999996,0.3237366996864882,0.2329184837651322
0.02175000000000005,0.396738431364621,0.2999617228749198
0.02200000000000002,0.4664219025119296,0.3636528000292182
0.02224999999999999,0.5294688525975896,0.4172873913170483
0.02249999999999996,0.5792427605599528,0.4642176586938997
0.02275000000000005,0.6223801474606677,0.4977392782487935
0.02300000000000002,0.6555627527689099,0.5245565738927085
0.02324999999999999,0.6754723159538552,0.5346130597591767
0.02349999999999997,0.6821088370155036,0.5346130597591767
0.02375000000000005,0.6754723159538552,0.5245565738927085
0.02400000000000002,0.658881013299734,0.4977392782487935
0.02424999999999999,0.6323349290531404,0.4608654967384103
0.02449999999999997,0.5925158026832498,0.4139352293615589
0.02475000000000005,0.5427418947208865,0.3603006380737288
0.02500000000000002,0.4796949446352264,0.2966095609194305
0.02524999999999999,0.4133297340187421,0.2262141598541534
0.02549999999999997,0.3436462628714335,0.152466596833387
0.02575000000000005,0.2673262706624766,0.07536687185713113
0.02600000000000002,0.1876880179226954,-0.005085015074614087
0.02625,0.1113680257137384,-0.08218474005086991
0.02649999999999997,0.03504803350478143,-0.1559323030716364
0.02675000000000005,-0.03795369817335133,-0.2229755421814241
0.02700000000000002,-0.1043189087898356,-0.2866666193357224
0.02725,-0.1607293378138473,-0.3436533725790419
0.02749999999999997,-0.2105032457762106,-0.3872314780004039
0.02775000000000005,-0.2503223721461011,-0.4207530975552977
0.02800000000000002,-0.2801867169235191,-0.4442182312437234
0.02825,-0.2967780195776402,-0.4542747171101915
0.02849999999999997,-0.3034145406392886,-0.4542747171101915
0.02875000000000005,-0.2967780195776402,-0.440866069288234
0.02900000000000003,-0.2768684563926949,-0.4140487736443189
0.02925,-0.2436858510844527,-0.3771749921339357
0.02949999999999997,-0.2005484641837379,-0.3302447247570843
0.02975000000000005,-0.1507745562213747,-0.2766101334692542
0.03000000000000003,-0.09104586666653879,-0.2095668943594665
0.03025,-0.02136239551923024,-0.1391714932941894
0.03049999999999997,0.05163933615890251,-0.065423930273423
0.03075000000000006,0.1312775888986837,0.01167579470283283
0.03100000000000003,0.2109158416384649,0.09212768163457805
0.03125,0.2905540943782461,0.1658752446553445
0.03149999999999997,0.3668740865872031,0.2429749696316003
0.03174999999999994,0.4398758182653358,0.310018208741388
0.03200000000000003,0.5062410288818201,0.3703571239401969
0.03225,0.5692879789674802,0.4273438771835165
0.03249999999999997,0.6190618869298434,0.4675698206493891
0.03274999999999995,0.658881013299734,0.5044436021597722
0.03300000000000003,0.688745358077152,0.5245565738927085
0.03325,0.7053366607312731,0.5346130597591767
0.03349999999999997,0.7086549212620973,0.5312608978036873
0.03374999999999995,0.7020184002004489,0.5178522499817297
0.03400000000000003,0.6821088370155036,0.4910349543378147
0.03425,0.6522444922380857,0.4541611728274315
0.03449999999999998,0.6091071053373708,0.4038787434950908
0.03474999999999995,0.5593331973750075,0.3468919902517713
0.03500000000000003,0.4996045078201717,0.2798487511419835
0.03525,0.4299210366728631,0.2128055120321959
0.03549999999999998,0.3569193049947304,0.1357057870559401
0.03574999999999995,0.2839175733165976,0.06195822403517359
0.03600000000000003,0.2042793205768164,-0.01849366289657162
0.03625,0.1279593283678595,-0.09559338787282745
0.03649999999999998,0.05163933615890251,-0.1659887889381045
0.03674999999999995,-0.02136239551923024,-0.2363841900033816
0.03700000000000003,-0.05786326135829662,-0.2732579715137648
0.03725000000000001,-0.08772760613571456,-0.2967231052021905
0.03749999999999998,-0.1441380351597262,-0.3470055345345313
0.03774999999999995,-0.1905936825912653,-0.3905836399558932
0.03800000000000003,-0.2270945484303316,-0.4207530975552977
0.03825000000000001,-0.2536406326769254,-0.4442182312437234
0.03849999999999998,-0.2702319353310464,-0.4509225551547021
0.03874999999999995,-0.2735501958618707,-0.4475703931992128
0.03900000000000003,-0.2602771537385738,-0.4308095834217658
0.03925000000000001,-0.2403675905536285,-0.4039922877778508
0.03949999999999998,-0.2071849852453863,-0.3637663443119782
0.03974999999999995,-0.1640475983446715,-0.3168360769351268
0.04000000000000004,-0.1109554298514841,-0.2564971617363179
0.04025000000000001,-0.04790847976582398,-0.1928060845820196
0.04049999999999998,0.02177499138148457,-0.1224106835167425
0.04074999999999995,0.09809498359044154,-0.0453109585404867
0.04100000000000004,0.1777332363302227,0.03178876643576914
0.04125000000000001,0.2573714890700039,0.108888491412025
0.04149999999999998,0.3336914812789609,0.1893403783437702
0.04174999999999995,0.4133297340187421,0.2597357794090472
0.04200000000000004,0.4863314656968748,0.326779018518835
0.04225000000000001,0.5493784157825349,0.3871179337176439
0.04249999999999998,0.6091071053373708,0.4374003630499846
0.04274999999999995,0.6555627527689099,0.4776263065158572
0.04300000000000004,0.6920636186079763,0.511147926070751
0.04325000000000001,0.7186097028545699,0.527908735848198
0.04349999999999998,0.7352010055086911,0.5346130597591767
0.04374999999999996,0.7385192660395152,0.5312608978036873
0.04400000000000004,0.7285644844470426,0.5145000880262404
0.04425000000000001,0.7053366607312731,0.484330630426836
0.04449999999999998,0.672154055423031,0.4441046869609634
0.04474999999999996,0.6290166685223161,0.3938222576286226
0.04500000000000004,0.5759245000291286,0.3334833424298137
0.04525000000000001,0.5128775499434686,0.2697922652755154
0.04549999999999998,0.44319407879616,0.196044702254749
0.04574999999999996,0.3701923471180273,0.1189449772784931
0.04600000000000004,0.2938723549090703,0.04184525230223729
0.04625000000000001,0.2142341021692891,-0.03525447267401854
0.04649999999999999,0.1379141099603321,-0.1123541976502744
0.04674999999999996,0.06159411775137516,-0.1827495987155515
0.04700000000000004,-0.00808935339593338,-0.2531449997808285
0.04725000000000001,-0.07113630348159349,-0.3134839149796374
0.04749999999999999,-0.1275467325056052,-0.3604141823564888
0.04774999999999996,-0.1740023799371442,-0.4006401258223614
0.04800000000000004,-0.2071849852453863,-0.4341617453772552
0.04825000000000002,-0.2337310694919801,-0.4509225551547021
0.04849999999999999,-0.2470041116152769,-0.4576268790656809
0.04874999999999996,-0.2470041116152769,-0.4509225551547021
0.04900000000000004,-0.2337310694919801,-0.4341617453772552
0.04925000000000002,-0.2105032457762106,-0.4039922877778508
0.04949999999999999,-0.1740023799371442,-0.3604141823564888
0.04974999999999996,-0.1275467325056052,-0.3134839149796374
0.05000000000000004,-0.07113630348159349,-0.2531449997808285
0.05025000000000002,-0.00808935339593338,-0.1827495987155515
0.05049999999999999,0.06491237828219937,-0.1123541976502744
0.05074999999999996,0.1379141099603321,-0.03525447267401854
0.05100000000000005,0.2175523627001133,0.04184525230223729
0.05125000000000002,0.2971906154398945,0.1189449772784931
0.05149999999999999,0.3768288681796757,0.196044702254749
0.05174999999999996,0.4498305998578084,0.2697922652755154
0.05200000000000005,0.5228323315359412,0.3334833424298137
0.05225000000000002,0.5891975421524255,0.3938222576286226
0.05249999999999999,0.642289710645613,0.4441046869609634
0.05274999999999996,0.688745358077152,0.4809784684713466
0.05300000000000005,0.7252462239162184,0.511147926070751
0.05325000000000002,0.7484740476319879,0.527908735848198
0.05349999999999999,0.7617470897552847,0.5312608978036873
0.05374999999999996,0.765065350286109,0.5245565738927085
0.05400000000000005,0.7517923081628121,0.5077957641152616
0.05425000000000002,0.7285644844470426,0.4742741445603678
0.05449999999999999,0.6920636186079763,0.4340482010944952
0.05474999999999997,0.6489262317072614,0.3837657717621545
0.05500000000000005,0.5925158026832498,0.3200746946078561
0.05525000000000002,0.5294688525975896,0.2563836174535579
0.05549999999999999,0.4631036419811053,0.1826360544327914
0.05574999999999997,0.3867836497721484,0.1055363294565356
0.05600000000000005,0.3104636575631914,0.02843660448027975
0.05625000000000002,0.2308254048234102,-0.04866312049597608
0.05649999999999999,0.1545054126144532,-0.1257628454722319
0.05674999999999997,0.07818542040549624,-0.196158246537509
0.05700000000000005,0.0085019492581877,-0.2632014856472966
0.05725000000000002,-0.05122674029664819,-0.3235404008461055
0.0575,-0.1076371693206599,-0.3704706682229569
0.05774999999999997,-0.1507745562213747,-0.4073444497333402
0.05800000000000005,-0.1839571615296168,-0.4375139073327446
0.05825000000000002,-0.2105032457762106,-0.4542747171101915
0.0585,-0.2204580273686832,-0.4609790410211703
0.05874999999999997,-0.217139766837859,-0.4509225551547021
0.05900000000000005,-0.2005484641837379,-0.4308095834217658
0.05925000000000002,-0.1773206404679684,-0.4006401258223614
0.0595,-0.1375015140980778,-0.35370985844551
0.05974999999999997,-0.09104586666653879,-0.3034274291131692
0.06000000000000005,-0.03463543764252711,-0.2397363519588709
0.06025000000000003,0.03172977297395721,-0.1726931128490833
0.0605,0.1014132441212657,-0.1022977117838062
0.06074999999999997,0.1777332363302227,-0.021845824852061
0.06100000000000005,0.2606897496008281,0.05525390012419482
0.06125000000000003,0.3370097418097851,0.1323536251004507
0.0615,0.4166479945495663,0.2061011881212171
0.06174999999999997,0.489649726227699,0.2764965891864942
0.06200000000000006,0.5593331973750075,0.3435398282962819
0.06225000000000003,0.6223801474606677,0.4005265815396014
0.0625,0.6754723159538552,0.4474568489164528
0.06274999999999997,0.7219279633853942,0.484330630426836
0.06299999999999994,0.7551105686936364,0.511147926070751
0.06325000000000003,0.7783383924094058,0.527908735848198
0.0635,0.7882931740018785,0.527908735848198
0.06374999999999997,0.7849749134710543,0.5178522499817297
0.06399999999999995,0.7717018713477574,0.4977392782487935
0.06425000000000003,0.7484740476319879,0.4642176586938997
0.0645,0.7119731817929216,0.4239917152280271
0.06474999999999997,0.6621992738305583,0.3670049619847076
0.06499999999999995,0.6057888448065466,0.3066660467858986
0.06525000000000003,0.5394236341900622,0.2396228076761109
0.0655,0.473058423573578,0.1658752446553445
0.06574999999999998,0.396738431364621,0.08877551967908867
0.06599999999999995,0.3171001786248398,0.01167579470283283
0.06625000000000003,0.2407801864158828,-0.065423930273423
0.0665,0.1644601942069259,-0.1391714932941894
0.06674999999999998,0.09145846252879311,-0.2095668943594665
0.06699999999999995,0.02177499138148457,-0.2766101334692542
0.06725000000000003,-0.03795369817335133,-0.3335968867125737
0.0675,-0.09104586666653879,-0.3805271540894251
0.06774999999999998,-0.1341832535672536,-0.4174009355998083
0.06799999999999995,-0.1640475983446715,-0.4442182312437234
0.06825000000000003,-0.1872754220604411,-0.4609790410211703
0.06850000000000001,-0.1939119431220895,-0.4609790410211703
0.06874999999999998,-0.1905936825912653,-0.4509225551547021
0.06899999999999995,-0.1740023799371442,-0.4274574214662765
0.06925000000000003,-0.1441380351597262,-0.3939358019113826
0.06950000000000001,-0.1043189087898356,-0.3470055345345313
0.06974999999999998,-0.05454500082747241,-0.2933709432467011
0.06999999999999995,0.001865428196539268,-0.2296798660924028
0.07025000000000003,0.07154889934384781,-0.1592844650271257
0.07050000000000001,0.1445506310219806,-0.08888906396184869
0.07074999999999998,0.2208706232309375,-0.01178933898559285
0.07099999999999995,0.3005088759707187,0.06866254794615236
0.07125000000000004,0.3768288681796757,0.1457622729224082
0.07150000000000001,0.4564671209194569,0.2195098359431746
0.07174999999999998,0.5294688525975896,0.2899052370084517
0.07199999999999995,0.5991523237448981,0.35359631416275
0.07225000000000004,0.658881013299734,0.4072309054505802
0.07250000000000001,0.7119731817929216,0.4541611728274315
0.07274999999999998,0.7551105686936364,0.4910349543378147
0.07299999999999995,0.7882931740018785,0.5145000880262404
0.07325000000000004,0.8082027371868238,0.527908735848198
0.07350000000000001,0.8181575187792964,0.527908735848198
0.07374999999999998,0.811520997717648,0.5178522499817297
0.07399999999999995,0.7982479555943511,0.4943871162933041
0.07425000000000004,0.7683836108169332,0.4575133347829209
0.07450000000000001,0.7285644844470426,0.4139352293615589
0.07474999999999998,0.6787905764846793,0.3569484761182394
0.07499999999999996,0.6223801474606677,0.2966095609194305
0.07525000000000004,0.5560149368441833,0.2295663218096428
0.07550000000000001,0.4830132051660506,0.152466596833387
0.07574999999999998,0.4100114734879178,0.07536687185713113
0.07599999999999996,0.3303732207481367,-0.005085015074614087
0.07625000000000004,0.2540532285391797,-0.08218474005086991
0.07650000000000001,0.1777332363302227,-0.1559323030716364
0.07674999999999998,0.1014132441212657,-0.2229755421814241
0.07699999999999996,0.03504803350478143,-0.2900187812912117
0.07725000000000004,-0.02468065605005446,-0.3470055345345313
0.07750000000000001,-0.07445456401241771,-0.3905836399558932
0.07774999999999999,-0.1175919509131325,-0.4274574214662765
0.07799999999999996,-0.1474562956905505,-0.4509225551547021
0.07825000000000004,-0.1640475983446715,-0.4643312029766597
0.07850000000000001,-0.17068411940632,-0.4609790410211703
0.07874999999999999,-0.1640475983446715,-0.4509225551547021
0.07899999999999996,-0.1474562956905505,-0.4241052595107871
0.07925000000000004,-0.1142736903823083,-0.3872314780004039
0.07950000000000002,-0.07445456401241771,-0.3436533725790419
0.07974999999999999,-0.02468065605005446,-0.2866666193357224
0.07999999999999996,0.03836629403560565,-0.2196233802259346
0.08025000000000004,0.10473150465209,-0.152580141116147
0.08050000000000002,0.1777332363302227,-0.07883257809538054
0.08074999999999999,0.2573714890700039,-0.001732853119124703
0.08099999999999996,0.3370097418097851,0.07536687185713113
0.08125000000000004,0.4133297340187421,0.152466596833387
0.08150000000000002,0.4929679867585233,0.2295663218096428
0.08174999999999999,0.5626514579058318,0.2966095609194305
0.08199999999999996,0.6290166685223161,0.3603006380737288
0.08225000000000005,0.6920636186079763,0.4139352293615589
0.08250000000000002,0.7418375265703395,0.4575133347829209
0.08274999999999999,0.78165665294023,0.4910349543378147
0.08299999999999996,0.811520997717648,0.5145000880262404
0.08325000000000005,0.8314305609025933,0.5245565738927085
