System Dynamics/Lab/lab8/sinof2waves2to200 1hz/Sumof2sinCR33.csv

#Digilent WaveForms Oscilloscope Acquisition
#Device Name: Discovery2
#Serial Number: SN:210321AFD7CC
#Date Time: 2020-12-01 11:54:42.639
#Sample rate: 8000Hz
#Samples: 8000
#Trigger: Source: Channel 1 Type: Edge Condition: Rising Level: 0 V Hyst.: Auto HoldOff: 0 s
#Channel 1: Range: 500 mV/div Offset: 0 V Attenuation: 10 X
#Channel 2: Range: 500 mV/div Offset: 0 V Attenuation: 10 X
#Wavegen Channel 1: Running
#Mode: Simple
#Type: sumof2sin
#Frequency: 1 Hz
#Period: 1 s
#Amplitude: 1 V
#Offset: 0 V
#Phase: 0 °

Time (s),Channel 1 (V),Channel 2 (V)
0,0.8778862083341323,0.4239917152280271
0.0001249999999999862,0.9077505531115503,0.4508090108719421
0.0002499999999999725,0.9210235952348471,0.4608654967384103
0.0003750000000000142,0.9442514189506167,0.4809784684713466
0.0005000000000000004,0.9542062005430892,0.484330630426836
0.0006249999999999867,0.9674792426663862,0.4977392782487935
0.0007499999999999729,0.9741157637280345,0.5010914402042829
0.0008750000000000147,0.980752284789683,0.5010914402042829
0.001000000000000001,0.980752284789683,0.5010914402042829
0.001124999999999987,0.980752284789683,0.4943871162933041
0.001249999999999973,0.9774340242588588,0.4876827923823254
0.001375000000000015,0.9641609821355619,0.4709219826048784
0.001500000000000001,0.9641609821355619,0.4675698206493891
0.001624999999999988,0.9409331584197924,0.440752525005474
0.001749999999999974,0.9376148978889682,0.4306960391390058
0.001875000000000016,0.9044322925807261,0.397174419584112
0.002000000000000002,0.8977957715190776,0.3871179337176439
0.002124999999999988,0.857976645149187,0.3435398282962819
0.002249999999999974,0.8447036030258902,0.3301311804743243
0.002375000000000016,0.8015662161251753,0.2865530750529623
0.002500000000000002,0.7849749134710543,0.266440103320026
0.002624999999999988,0.7385192660395152,0.2195098359431746
0.002749999999999975,0.7186097028545699,0.196044702254749
0.002875000000000016,0.6688357948922067,0.1457622729224082
0.003000000000000003,0.6456079711764372,0.1222971392339825
0.003124999999999989,0.5991523237448981,0.07536687185713113
0.003249999999999975,0.565969718436656,0.04519741425772667
0.003375000000000017,0.5228323315359412,-0.001732853119124703
0.003500000000000003,0.4863314656968748,-0.03860663462950793
0.003624999999999989,0.4465123393269843,-0.07883257809538054
0.003749999999999976,0.4066932129570937,-0.1157063596057638
0.003875000000000017,0.3701923471180273,-0.152580141116147
0.004000000000000004,0.3270549602173125,-0.1894539226265302
0.00412499999999999,0.2971906154398945,-0.2229755421814241
0.004249999999999976,0.2540532285391797,-0.2632014856472966
0.004375000000000018,0.227507144292586,-0.2866666193357224
0.004500000000000004,0.1876880179226954,-0.3235404008461055
0.00462499999999999,0.1677784547377501,-0.3436533725790419
0.004749999999999976,0.1279593283678595,-0.3805271540894251
0.004875000000000018,0.1080497651829142,-0.3939358019113826
0.005000000000000004,0.07486715987467202,-0.4274574214662765
0.005124999999999991,0.06491237828219937,-0.4341617453772552
0.005249999999999977,0.03504803350478143,-0.4609790410211703
0.005375000000000019,0.028411512443133,-0.4643312029766597
0.005500000000000005,0.005183688727363484,-0.484444174709596
0.005624999999999991,0.001865428196539268,-0.484444174709596
0.005749999999999977,-0.00808935339593338,-0.4945006605760641
0.005875000000000019,-0.0114076139267576,-0.4911484986205747
0.006000000000000005,-0.01472587445758181,-0.4911484986205747
0.006124999999999992,-0.01472587445758181,-0.4877963366650854
0.006249999999999978,-0.004771092865109164,-0.4743876888431278
0.00637500000000002,-0.001452832334284948,-0.4643312029766597
0.006500000000000006,0.01845673085066035,-0.4442182312437234
0.006624999999999992,0.02509325191230878,-0.4341617453772552
0.006749999999999978,0.05163933615890251,-0.4073444497333402
0.00687500000000002,0.05827585722055094,-0.3939358019113826
0.007000000000000006,0.08814020199796889,-0.3570620204009994
0.007124999999999992,0.10473150465209,-0.3403012106235525
0.007249999999999979,0.1412323704911563,-0.3034274291131692
0.00737500000000002,0.1644601942069259,-0.2799622954247435
0.007500000000000007,0.2009610600459922,-0.2397363519588709
0.007624999999999993,0.227507144292586,-0.2129190563149559
0.007749999999999979,0.2706445311933008,-0.1693409508935939
0.007875000000000021,0.3038271365015429,-0.1391714932941894
0.008000000000000007,0.3403280023406093,-0.09894554982831684
0.008124999999999993,0.3801471287104999,-0.06207176831793362
0.00824999999999998,0.4166479945495663,-0.021845824852061
0.008375000000000021,0.4597853814502811,0.0183801186138116
0.008500000000000008,0.4929679867585233,0.05190173816870544
0.008624999999999994,0.5394236341900622,0.09883200554555682
0.00874999999999998,0.5692879789674802,0.1290014631449612
0.008875000000000022,0.6190618869298434,0.1725795685663233
0.009000000000000008,0.642289710645613,0.1993968642102383
0.009124999999999994,0.6920636186079763,0.2463271315870897
0.00924999999999998,0.7152914423237458,0.2697922652755154
0.009375000000000022,0.765065350286109,0.3133703706968774
0.009500000000000008,0.7783383924094058,0.326779018518835
0.009624999999999995,0.8281123003717691,0.3703571239401969
0.009749999999999981,0.8380670819642417,0.3804136098066651
0.009875000000000023,0.8812044688649565,0.4239917152280271
0.01000000000000001,0.887840989926605,0.4273438771835165
0.010125,0.9276601162964956,0.4575133347829209
0.01024999999999998,0.9309783768273198,0.4608654967384103
0.01037500000000002,0.9608427216047377,0.484330630426836
0.01050000000000001,0.9641609821355619,0.484330630426836
0.010625,0.9774340242588588,0.4977392782487935
0.01074999999999998,0.9840705453205072,0.4977392782487935
0.01087500000000002,0.9907070663821557,0.5010914402042829
0.01100000000000001,0.9873888058513315,0.4977392782487935
0.011125,0.9840705453205072,0.4910349543378147
0.01124999999999998,0.980752284789683,0.484330630426836
0.01137500000000002,0.9707975031972104,0.4675698206493891
0.01150000000000001,0.9608427216047377,0.4575133347829209
0.011625,0.9442514189506167,0.4340482010944952
0.01174999999999998,0.9309783768273198,0.4172873913170483
0.01187500000000002,0.9077505531115503,0.3904700956731332
0.01200000000000001,0.887840989926605,0.3670049619847076
0.012125,0.8612949056800112,0.3368355043853031
0.01224999999999998,0.8347488214334176,0.3133703706968774
0.01237500000000002,0.8015662161251753,0.2798487511419835
0.01250000000000001,0.7717018713477574,0.2463271315870897
0.012625,0.7418375265703395,0.2094533500767065
0.01274999999999998,0.7020184002004489,0.1725795685663233
0.01287500000000003,0.6688357948922067,0.1390579490114294
0.01300000000000001,0.6290166685223161,0.09547984359006743
0.013125,0.5991523237448981,0.06531038599066298
0.01324999999999998,0.5493784157825349,0.0183801186138116
0.01337500000000003,0.5228323315359412,-0.01178933898559285
0.01350000000000001,0.4697401630427537,-0.065423930273423
0.013625,0.4465123393269843,-0.08888906396184869
0.01374999999999998,0.3867836497721484,-0.1391714932941894
0.01387500000000003,0.3668740865872031,-0.1592844650271257
0.01400000000000001,0.3104636575631914,-0.2162712182704453
0.014125,0.2971906154398945,-0.2296798660924028
0.01424999999999998,0.2374619258850586,-0.2866666193357224
0.01437500000000003,0.227507144292586,-0.2933709432467011
0.01450000000000001,0.1710967152685743,-0.3436533725790419
0.014625,0.1644601942069259,-0.3503576964900206
0.01474999999999999,0.1146862862445626,-0.4006401258223614
0.01487500000000003,0.1080497651829142,-0.4039922877778508
0.01500000000000001,0.06823063881302359,-0.440866069288234
0.015125,0.06159411775137516,-0.4442182312437234
0.01524999999999999,0.03172977297395721,-0.4710355268876384
0.01537500000000003,0.02509325191230878,-0.4743876888431278
0.01550000000000001,0.005183688727363484,-0.4911484986205747
0.015625,0.001865428196539268,-0.4911484986205747
0.01574999999999999,-0.00808935339593338,-0.501204984487043
0.01587499999999997,-0.00808935339593338,-0.4978528225315535
0.01600000000000001,-0.0114076139267576,-0.4945006605760641
0.016125,-0.00808935339593338,-0.4877963366650854
0.01624999999999999,-0.001452832334284948,-0.4743876888431278
0.01637499999999997,0.0085019492581877,-0.4643312029766597
0.01650000000000001,0.01845673085066035,-0.4475703931992128
0.016625,0.03504803350478143,-0.4308095834217658
0.01674999999999999,0.05495759668972672,-0.4106966116888295
0.01687499999999997,0.07486715987467202,-0.3872314780004039
0.01700000000000002,0.09809498359044154,-0.3604141823564888
0.017125,0.1246410678370353,-0.3302447247570843
0.01724999999999999,0.1478688915528048,-0.3034274291131692
0.01737499999999997,0.1843697573918712,-0.266553647602786
0.01750000000000002,0.2075975811076407,-0.2397363519588709
0.017625,0.2109158416384649,-0.2363841900033816
0.01774999999999999,0.2109158416384649,-0.2330320280478922
0.01787499999999997,0.2573714890700039,-0.1861017606710408
0.01800000000000002,0.2772810522549492,-0.1626366269826151
0.018125,0.3303732207481367,-0.1157063596057638
0.01824999999999999,0.350282783933082,-0.09559338787282745
0.01837499999999997,0.4100114734879178,-0.03525447267401854
0.01850000000000002,0.4232845156112147,-0.01849366289657162
0.018625,0.489649726227699,0.04519741425772667
0.01874999999999999,0.5029227683509959,0.05860606207968421
0.01887499999999998,0.5692879789674802,0.1222971392339825
0.01900000000000002,0.5792427605599528,0.1323536251004507
0.019125,0.6489262317072614,0.1993968642102383
0.01924999999999999,0.6555627527689099,0.2061011881212171
0.01937499999999998,0.7186097028545699,0.2697922652755154
0.01950000000000002,0.7285644844470426,0.2798487511419835
0.019625,0.7849749134710543,0.3301311804743243
0.01974999999999999,0.794929695063527,0.3401876663407925
0.01987499999999998,0.8447036030258902,0.3804136098066651
0.02000000000000002,0.857976645149187,0.3938222576286226
0.020125,0.8944775109882535,0.4273438771835165
0.02024999999999999,0.9077505531115503,0.4374003630499846
0.02037499999999998,0.9342966373581441,0.4642176586938997
0.02050000000000002,0.9442514189506167,0.4709219826048784
0.020625,0.9641609821355619,0.484330630426836
0.02074999999999999,0.9741157637280345,0.4910349543378147
0.02087499999999998,0.9840705453205072,0.4977392782487935
0.02100000000000002,0.9907070663821557,0.4977392782487935
0.021125,0.9940253269129798,0.4977392782487935
0.02124999999999999,0.9907070663821557,0.4943871162933041
0.02137499999999998,0.9907070663821557,0.4876827923823254
0.02150000000000002,0.980752284789683,0.4776263065158572
0.02162500000000001,0.9741157637280345,0.4642176586938997
0.02174999999999999,0.9575244610739135,0.4441046869609634
0.02187499999999998,0.9475696794814409,0.4306960391390058
0.02200000000000002,0.9243418557656714,0.4038787434950908
0.02212500000000001,0.9110688136423745,0.3871179337176439
0.02224999999999999,0.8778862083341323,0.35359631416275
0.02237499999999998,0.8612949056800112,0.3334833424298137
0.02250000000000002,0.8181575187792964,0.2932573989639411
0.02262500000000001,0.8048844766559996,0.2731444272310048
0.02274999999999999,0.7551105686936364,0.222861997898664
0.02287499999999998,0.7418375265703395,0.2061011881212171
0.02300000000000002,0.6821088370155036,0.1491144348778976
0.02312500000000001,0.672154055423031,0.1357057870559401
0.02324999999999999,0.6091071053373708,0.07201470990164174
0.02337499999999998,0.5991523237448981,0.05860606207968421
0.02350000000000002,0.5261505920667654,-0.008437177030103471
0.02362500000000001,0.5228323315359412,-0.01849366289657162
0.02374999999999999,0.4498305998578084,-0.08888906396184869
0.02387499999999998,0.4398758182653358,-0.09894554982831684
0.02400000000000002,0.3735106076488515,-0.1592844650271257
0.02412500000000001,0.3602375655255546,-0.1726931128490833
0.02424999999999999,0.3005088759707187,-0.2296798660924028
0.02437499999999998,0.2839175733165976,-0.2464406758698497
0.02450000000000002,0.2308254048234102,-0.2967231052021905
0.02462500000000001,0.2142341021692891,-0.310131753024148
0.02474999999999999,0.1710967152685743,-0.3503576964900206
0.02487499999999998,0.151187152083629,-0.3671185062674676
0.02500000000000002,0.1146862862445626,-0.4006401258223614
0.02512500000000001,0.09809498359044154,-0.4174009355998083
0.02524999999999999,0.07154889934384781,-0.440866069288234
0.02537499999999998,0.05495759668972672,-0.4542747171101915
0.02550000000000002,0.03504803350478143,-0.4743876888431278
0.02562500000000001,0.02177499138148457,-0.4810920127541066
0.02575,0.0085019492581877,-0.4911484986205747
0.02587499999999998,0.001865428196539268,-0.4945006605760641
0.02600000000000002,-0.004771092865109164,-0.4978528225315535
0.02612500000000001,-0.004771092865109164,-0.4945006605760641
0.02625,-0.004771092865109164,-0.4911484986205747
0.02637499999999998,0.001865428196539268,-0.4810920127541066
0.02650000000000002,0.005183688727363484,-0.4743876888431278
0.02662500000000001,0.01845673085066035,-0.4542747171101915
0.02675,0.028411512443133,-0.4442182312437234
0.02687499999999998,0.05163933615890251,-0.4174009355998083
0.02700000000000002,0.06159411775137516,-0.4039922877778508
0.02712500000000001,0.09477672305961732,-0.3704706682229569
0.02725,0.10473150465209,-0.3570620204009994
0.02737499999999998,0.1445506310219806,-0.3134839149796374
0.02750000000000002,0.1578236731452774,-0.3000752671576798
0.02762500000000001,0.2109158416384649,-0.2464406758698497
0.02775,0.2175523627001133,-0.2363841900033816
0.02787499999999998,0.2805993127857734,-0.1726931128490833
0.02800000000000002,0.2872358338474219,-0.1626366269826151
0.02812500000000001,0.3536010444639062,-0.1022977117838062
0.02825,0.3602375655255546,-0.08888906396184869
0.02837499999999998,0.426602776142039,-0.02519798680755039
0.02850000000000003,0.44319407879616,-0.01178933898559285
0.02862500000000001,0.5062410288818201,0.05190173816870544
0.02875,0.5228323315359412,0.07201470990164174
0.02887499999999998,0.5825610210907771,0.1256493011894719
0.02900000000000003,0.6024705842757224,0.1491144348778976
0.02912500000000001,0.6555627527689099,0.1993968642102383
0.02925,0.6787905764846793,0.222861997898664
0.02937499999999998,0.7252462239162184,0.2697922652755154
0.02950000000000003,0.7484740476319879,0.2899052370084517
0.02962500000000001,0.7916114345327027,0.326779018518835
0.02975,0.8148392582484723,0.3468919902517713
0.02987499999999998,0.8480218635567144,0.3770614478511757
0.03000000000000003,0.8712496872724839,0.397174419584112
0.03012500000000001,0.8977957715190776,0.4239917152280271
0.03025,0.9210235952348471,0.440752525005474
0.03037499999999999,0.9376148978889682,0.4575133347829209
0.03050000000000003,0.9575244610739135,0.4709219826048784
0.03062500000000001,0.9707975031972104,0.4809784684713466
0.03075,0.980752284789683,0.4876827923823254
0.03087499999999999,0.9907070663821557,0.4910349543378147
0.03100000000000003,0.9940253269129798,0.4943871162933041
0.03112500000000001,0.9940253269129798,0.4910349543378147
0.03125,0.9907070663821557,0.484330630426836
0.03137499999999999,0.9907070663821557,0.4776263065158572
0.03149999999999997,0.9774340242588588,0.4608654967384103
0.03162500000000001,0.9741157637280345,0.4541611728274315
0.03175,0.9508879400122651,0.4306960391390058
0.03187499999999999,0.9475696794814409,0.4206395532725377
0.03199999999999997,0.9110688136423745,0.3837657717621545
0.03212500000000001,0.9077505531115503,0.3770614478511757
0.03225,0.8612949056800112,0.3301311804743243
0.03237499999999999,0.857976645149187,0.3234268565633456
0.03249999999999997,0.8048844766559996,0.2697922652755154
0.03262500000000002,0.794929695063527,0.2597357794090472
0.03275,0.7418375265703395,0.2027490261657277
0.03287499999999999,0.7318827449778669,0.1893403783437702
0.03299999999999997,0.672154055423031,0.1323536251004507
0.03312500000000002,0.6555627527689099,0.1122406533675143
0.03325,0.5991523237448981,0.05525390012419482
0.03337499999999999,0.5792427605599528,0.03514092839125852
0.03349999999999997,0.5228323315359412,-0.021845824852061
0.03362500000000002,0.4996045078201717,-0.0453109585404867
0.03375,0.4465123393269843,-0.09894554982831684
0.03387499999999999,0.4166479945495663,-0.1257628454722319
0.03399999999999997,0.3701923471180273,-0.1693409508935939
0.03412500000000002,0.3403280023406093,-0.1995104084929983
0.03425,0.2971906154398945,-0.2397363519588709
0.03437499999999999,0.2640080101316523,-0.2699058095582754
0.03449999999999998,0.227507144292586,-0.3067795910686587
0.03462500000000002,0.197642799515168,-0.3335968867125737
0.03475,0.1677784547377501,-0.3637663443119782
0.03487499999999999,0.1379141099603321,-0.3872314780004039
0.03499999999999998,0.1146862862445626,-0.4073444497333402
0.03512500000000002,0.08482194146714467,-0.4341617453772552
0.03525,0.06823063881302359,-0.4509225551547021
0.03537499999999999,0.04500281509725408,-0.4710355268876384
0.03549999999999998,0.03504803350478143,-0.4810920127541066
0.03562500000000002,0.01513847031983613,-0.4911484986205747
0.03575,0.01182020978901192,-0.4945006605760641
0.03587499999999999,0.001865428196539268,-0.4978528225315535
0.03599999999999998,-0.001452832334284948,-0.4978528225315535
0.03612500000000002,-0.004771092865109164,-0.4978528225315535
0.03625,-0.004771092865109164,-0.4945006605760641
0.03637499999999999,0.0085019492581877,-0.4810920127541066
0.03649999999999998,0.0085019492581877,-0.4743876888431278
0.03662500000000002,0.028411512443133,-0.4509225551547021
0.03675,0.03172977297395721,-0.4442182312437234
0.03687499999999999,0.06491237828219937,-0.4106966116888295
0.03699999999999998,0.06823063881302359,-0.4039922877778508
0.03712500000000002,0.10473150465209,-0.3637663443119782
0.03725000000000001,0.1146862862445626,-0.3503576964900206
0.03737499999999999,0.1578236731452774,-0.3034274291131692
0.03749999999999998,0.1744149757993985,-0.2900187812912117
0.03762500000000002,0.2208706232309375,-0.2397363519588709
0.03775000000000001,0.2374619258850586,-0.2196233802259346
0.03787499999999999,0.2872358338474219,-0.1693409508935939
0.03799999999999998,0.3104636575631914,-0.1458758172051682
0.03812500000000002,0.3602375655255546,-0.09559338787282745
0.03825000000000001,0.3867836497721484,-0.06877609222891239
0.03837499999999999,0.4365575577345116,-0.021845824852061
0.03849999999999998,0.4664219025119296,0.01167579470283283
0.03862500000000002,0.5128775499434686,0.05525390012419482
0.03875000000000001,0.5493784157825349,0.08877551967908867
0.03887499999999999,0.5891975421524255,0.1290014631449612
0.03899999999999998,0.6256984079914919,0.1658752446553445
0.03912500000000002,0.6621992738305583,0.2027490261657277
0.03925000000000001,0.7020184002004489,0.2396228076761109
0.03937499999999999,0.7318827449778669,0.2697922652755154
0.03949999999999998,0.7717018713477574,0.3033138848304093
0.03962500000000002,0.7982479555943511,0.326779018518835
0.03975000000000001,0.8347488214334176,0.3636528000292182
0.03987499999999999,0.8546583846183629,0.3804136098066651
0.03999999999999998,0.8911592504574292,0.4139352293615589
0.04012500000000002,0.9077505531115503,0.4239917152280271
0.04025000000000001,0.9342966373581441,0.4508090108719421
0.04037499999999999,0.9442514189506167,0.4575133347829209
0.04049999999999998,0.9707975031972104,0.4776263065158572
0.04062500000000002,0.9741157637280345,0.4809784684713466
0.04075000000000001,0.9873888058513315,0.4910349543378147
0.04087499999999999,0.9907070663821557,0.4910349543378147
0.04099999999999998,0.9973435874438041,0.4910349543378147
0.04112500000000002,0.9973435874438041,0.4876827923823254
0.04125000000000001,0.9940253269129798,0.4809784684713466
0.041375,0.9907070663821557,0.4742741445603678
0.04149999999999998,0.9741157637280345,0.4575133347829209
0.04162500000000002,0.9707975031972104,0.4474568489164528
0.04175000000000001,0.9475696794814409,0.4206395532725377
0.041875,0.9409331584197924,0.4105830674060695
0.04199999999999998,0.9077505531115503,0.3770614478511757
0.04212500000000002,0.8977957715190776,0.3603006380737288
0.04225000000000001,0.8612949056800112,0.3234268565633456
0.042375,0.8447036030258902,0.3033138848304093
