System Dynamics/Lab/lab8/sinof2waves2to200 1hz/Sumof2sinRC33.csv

#Digilent WaveForms Oscilloscope Acquisition
#Device Name: Discovery2
#Serial Number: SN:210321AFD7CC
#Date Time: 2020-12-01 11:59:40.585
#Sample rate: 8000Hz
#Samples: 8000
#Trigger: Source: Channel 1 Type: Edge Condition: Rising Level: 0 V Hyst.: Auto HoldOff: 0 s
#Channel 1: Range: 500 mV/div Offset: 0 V Attenuation: 10 X
#Channel 2: Range: 500 mV/div Offset: 0 V Attenuation: 10 X
#Wavegen Channel 1: Running
#Mode: Simple
#Type: sumof2sin
#Frequency: 1 Hz
#Period: 1 s
#Amplitude: 1 V
#Offset: 0 V
#Phase: 0 °

Time (s),Channel 1 (V),Channel 2 (V)
0,0.08482194146714467,0.1122406533675143
0.0001249999999999862,0.1345958494295079,0.1155928153230037
0.0002499999999999725,0.1644601942069259,0.1122406533675143
0.0003750000000000142,0.2109158416384649,0.1122406533675143
0.0005000000000000004,0.2407801864158828,0.1155928153230037
0.0006249999999999867,0.2839175733165976,0.1155928153230037
0.0007499999999999729,0.3171001786248398,0.1155928153230037
0.0008750000000000147,0.3536010444639062,0.1189449772784931
0.001000000000000001,0.3867836497721484,0.1222971392339825
0.001124999999999987,0.4199662550803905,0.1222971392339825
0.001249999999999973,0.4531488603886327,0.1256493011894719
0.001375000000000015,0.4763766841044021,0.1290014631449612
0.001500000000000001,0.5062410288818201,0.1323536251004507
0.001624999999999988,0.5228323315359412,0.1357057870559401
0.001749999999999974,0.5493784157825349,0.1390579490114294
0.001875000000000016,0.5593331973750075,0.1390579490114294
0.002000000000000002,0.5825610210907771,0.1424101109669188
0.002124999999999988,0.5891975421524255,0.1457622729224082
0.002249999999999974,0.5991523237448981,0.1491144348778976
0.002375000000000016,0.6057888448065466,0.152466596833387
0.002500000000000002,0.6091071053373708,0.1558187587888764
0.002624999999999988,0.6091071053373708,0.1625230826998551
0.002749999999999975,0.6057888448065466,0.1658752446553445
0.002875000000000016,0.6024705842757224,0.1658752446553445
0.003000000000000003,0.5858792816216013,0.1692274066108339
0.003124999999999989,0.5858792816216013,0.1759317305218127
0.003249999999999975,0.5560149368441833,0.1759317305218127
0.003375000000000017,0.5526966763133592,0.179283892477302
0.003500000000000003,0.5161958104742927,0.179283892477302
0.003624999999999989,0.5062410288818201,0.1826360544327914
0.003749999999999976,0.4664219025119296,0.1859882163882808
0.003875000000000017,0.4531488603886327,0.1893403783437702
0.004000000000000004,0.4066932129570937,0.1893403783437702
0.00412499999999999,0.3901019103029725,0.1893403783437702
0.004249999999999976,0.3436462628714335,0.1926925402992596
0.004375000000000018,0.320418439155664,0.196044702254749
0.004500000000000004,0.273962791724125,0.196044702254749
0.00462499999999999,0.244098446946707,0.1926925402992596
0.004749999999999976,0.1943245389843438,0.1926925402992596
0.004875000000000018,0.1644601942069259,0.1926925402992596
0.005000000000000004,0.1180045467753868,0.1926925402992596
0.005124999999999991,0.08150368093632046,0.1926925402992596
0.005249999999999977,0.04168455456642986,0.1893403783437702
0.005375000000000019,0.001865428196539268,0.1893403783437702
0.005500000000000005,-0.03463543764252711,0.1893403783437702
0.005624999999999991,-0.07777282454324191,0.1859882163882808
0.005749999999999977,-0.1109554298514841,0.1826360544327914
0.005875000000000019,-0.1507745562213747,0.1826360544327914
0.006000000000000005,-0.1773206404679684,0.179283892477302
0.006124999999999992,-0.217139766837859,0.1759317305218127
0.006249999999999978,-0.2370493300228043,0.1725795685663233
0.00637500000000002,-0.2768684563926949,0.1692274066108339
0.006500000000000006,-0.2901414985159917,0.1658752446553445
0.006624999999999992,-0.3266423643550581,0.1625230826998551
0.006749999999999978,-0.3365971459475308,0.1591709207443657
0.00687500000000002,-0.3664614907249487,0.1558187587888764
0.007000000000000006,-0.3697797512557729,0.152466596833387
0.007124999999999992,-0.3930075749715424,0.1457622729224082
0.007249999999999979,-0.3930075749715424,0.1424101109669188
0.00737500000000002,-0.4062806170948393,0.1390579490114294
0.007500000000000007,-0.4062806170948393,0.1323536251004507
0.007624999999999993,-0.4062806170948393,0.1290014631449612
0.007749999999999979,-0.4062806170948393,0.1256493011894719
0.007875000000000021,-0.3963258355023667,0.1189449772784931
0.008000000000000007,-0.3930075749715424,0.1155928153230037
0.008124999999999993,-0.3730980117865972,0.1122406533675143
0.00824999999999998,-0.3664614907249487,0.108888491412025
0.008375000000000021,-0.339915406478355,0.1055363294565356
0.008500000000000008,-0.3266423643550581,0.1021841675010462
0.008624999999999994,-0.293459759046816,0.1021841675010462
0.00874999999999998,-0.2801867169235191,0.09883200554555682
0.008875000000000022,-0.2436858510844527,0.09547984359006743
0.009000000000000008,-0.2204580273686832,0.09212768163457805
0.009124999999999994,-0.1839571615296168,0.08877551967908867
0.00924999999999998,-0.1540928167521989,0.08877551967908867
0.009375000000000022,-0.1142736903823083,0.08542335772359928
0.009500000000000008,-0.08109108507406614,0.08542335772359928
0.009624999999999995,-0.04459021923499976,0.08542335772359928
0.009749999999999981,-0.004771092865109164,0.08207119576810989
0.009875000000000023,0.028411512443133,0.08207119576810989
0.01000000000000001,0.07486715987467202,0.08207119576810989
0.010125,0.10473150465209,0.08207119576810989
0.01024999999999998,0.1545054126144532,0.08207119576810989
0.01037500000000002,0.1810514968610469,0.08207119576810989
0.01050000000000001,0.2308254048234102,0.08542335772359928
0.010625,0.2573714890700039,0.08542335772359928
0.01074999999999998,0.3038271365015429,0.08877551967908867
0.01087500000000002,0.3237366996864882,0.08877551967908867
0.01100000000000001,0.3735106076488515,0.09212768163457805
0.011125,0.3867836497721484,0.09212768163457805
0.01124999999999998,0.4332392972036874,0.09547984359006743
0.01137500000000002,0.4465123393269843,0.09883200554555682
0.01150000000000001,0.4863314656968748,0.1021841675010462
0.011625,0.4929679867585233,0.1055363294565356
0.01174999999999998,0.5261505920667654,0.1055363294565356
0.01187500000000002,0.5294688525975896,0.1122406533675143
0.01200000000000001,0.5560149368441833,0.1122406533675143
0.012125,0.5593331973750075,0.1155928153230037
0.01224999999999998,0.5726062394983045,0.1189449772784931
0.01237500000000002,0.5759245000291286,0.1222971392339825
0.01250000000000001,0.5792427605599528,0.1290014631449612
0.012625,0.5759245000291286,0.1290014631449612
0.01274999999999998,0.5692879789674802,0.1323536251004507
0.01287500000000003,0.565969718436656,0.1390579490114294
0.01300000000000001,0.5526966763133592,0.1424101109669188
0.013125,0.5427418947208865,0.1424101109669188
0.01324999999999998,0.5228323315359412,0.1457622729224082
0.01337500000000003,0.5095592894126444,0.1491144348778976
0.01350000000000001,0.4830132051660506,0.152466596833387
0.013625,0.4631036419811053,0.152466596833387
0.01374999999999998,0.4299210366728631,0.1558187587888764
0.01387500000000003,0.4066932129570937,0.1591709207443657
0.01400000000000001,0.3735106076488515,0.1591709207443657
0.014125,0.3403280023406093,0.1591709207443657
0.01424999999999998,0.3071453970323672,0.1625230826998551
0.01437500000000003,0.2673262706624766,0.1625230826998551
0.01450000000000001,0.2374619258850586,0.1625230826998551
0.014625,0.1910062784535196,0.1625230826998551
0.01474999999999999,0.1611419336761016,0.1625230826998551
0.01487500000000003,0.1113680257137384,0.1625230826998551
0.01500000000000001,0.08482194146714467,0.1625230826998551
0.015125,0.028411512443133,0.1625230826998551
0.01524999999999999,0.005183688727363484,0.1625230826998551
0.01537500000000003,-0.05122674029664819,0.1591709207443657
0.01550000000000001,-0.07113630348159349,0.1558187587888764
0.015625,-0.1275467325056052,0.1558187587888764
0.01574999999999999,-0.140819774628902,0.1558187587888764
0.01587499999999997,-0.2005484641837379,0.152466596833387
0.01600000000000001,-0.2105032457762106,0.1491144348778976
0.016125,-0.263595414269398,0.1457622729224082
0.01624999999999999,-0.2702319353310464,0.1424101109669188
0.01637499999999997,-0.3233241038242339,0.1390579490114294
0.01650000000000001,-0.3266423643550581,0.1357057870559401
0.016625,-0.3631432301941245,0.1323536251004507
0.01674999999999999,-0.3730980117865972,0.1256493011894719
0.01687499999999997,-0.3996440960331909,0.1222971392339825
0.01700000000000002,-0.4062806170948393,0.1189449772784931
0.017125,-0.4228719197489604,0.1155928153230037
0.01724999999999999,-0.4261901802797846,0.1122406533675143
0.01737499999999997,-0.4361449618722573,0.108888491412025
0.01750000000000002,-0.4361449618722573,0.1021841675010462
0.017625,-0.4361449618722573,0.09883200554555682
0.01774999999999999,-0.432826701341433,0.09547984359006743
0.01787499999999997,-0.4228719197489604,0.09212768163457805
0.01800000000000002,-0.4129171381564877,0.08877551967908867
0.018125,-0.3996440960331909,0.08542335772359928
0.01824999999999999,-0.386371053909894,0.08207119576810989
0.01837499999999997,-0.3664614907249487,0.07536687185713113
0.01850000000000002,-0.3432336670091792,0.07201470990164174
0.018625,-0.3200058432934097,0.07201470990164174
0.01874999999999999,-0.2901414985159917,0.06866254794615236
0.01887499999999998,-0.2702319353310464,0.06531038599066298
0.01900000000000002,-0.2337310694919801,0.06195822403517359
0.019125,-0.2071849852453863,0.06195822403517359
0.01924999999999999,-0.1640475983446715,0.05860606207968421
0.01937499999999998,-0.140819774628902,0.05860606207968421
0.01950000000000002,-0.08772760613571456,0.05525390012419482
0.019625,-0.06781804295076926,0.05525390012419482
0.01974999999999999,-0.01472587445758181,0.05190173816870544
0.01987499999999998,0.005183688727363484,0.05525390012419482
0.02000000000000002,0.06491237828219937,0.05525390012419482
0.020125,0.08150368093632046,0.05190173816870544
0.02024999999999999,0.1445506310219806,0.05525390012419482
0.02037499999999998,0.1545054126144532,0.05525390012419482
0.02050000000000002,0.2241888837617617,0.05525390012419482
0.020625,0.2308254048234102,0.05525390012419482
0.02074999999999999,0.2938723549090703,0.05860606207968421
0.02087499999999998,0.3005088759707187,0.06195822403517359
0.02100000000000002,0.3602375655255546,0.06195822403517359
0.021125,0.3668740865872031,0.06531038599066298
0.02124999999999999,0.4133297340187421,0.06866254794615236
0.02137499999999998,0.4232845156112147,0.06866254794615236
0.02150000000000002,0.4631036419811053,0.07201470990164174
0.02162500000000001,0.473058423573578,0.07536687185713113
0.02174999999999999,0.4996045078201717,0.07871903381262051
0.02187499999999998,0.5095592894126444,0.08207119576810989
0.02200000000000002,0.5261505920667654,0.08542335772359928
0.02212500000000001,0.5327871131284139,0.08877551967908867
0.02224999999999999,0.5427418947208865,0.09212768163457805
0.02237499999999998,0.5460601552517107,0.09547984359006743
0.02250000000000002,0.5460601552517107,0.09883200554555682
0.02262500000000001,0.5427418947208865,0.1021841675010462
0.02274999999999999,0.5394236341900622,0.1055363294565356
0.02287499999999998,0.5261505920667654,0.1055363294565356
0.02300000000000002,0.5161958104742927,0.108888491412025
0.02312500000000001,0.5029227683509959,0.1122406533675143
0.02324999999999999,0.489649726227699,0.1155928153230037
0.02337499999999998,0.4631036419811053,0.1189449772784931
0.02350000000000002,0.4465123393269843,0.1222971392339825
0.02362500000000001,0.4133297340187421,0.1222971392339825
0.02374999999999999,0.396738431364621,0.1256493011894719
0.02387499999999998,0.3536010444639062,0.1256493011894719
0.02400000000000002,0.3370097418097851,0.1290014631449612
0.02412500000000001,0.2872358338474219,0.1290014631449612
0.02424999999999999,0.2706445311933008,0.1290014631449612
0.02437499999999998,0.2109158416384649,0.1290014631449612
0.02450000000000002,0.197642799515168,0.1323536251004507
0.02462500000000001,0.1345958494295079,0.1323536251004507
0.02474999999999999,0.121322807306211,0.1323536251004507
0.02487499999999998,0.05163933615890251,0.1323536251004507
0.02500000000000002,0.04500281509725408,0.1323536251004507
0.02512500000000001,-0.02799891658087868,0.1290014631449612
0.02524999999999999,-0.03463543764252711,0.1290014631449612
0.02537499999999998,-0.1043189087898356,0.1256493011894719
0.02550000000000002,-0.1142736903823083,0.1256493011894719
0.02562500000000001,-0.1740023799371442,0.1222971392339825
0.02575,-0.1872754220604411,0.1222971392339825
0.02587499999999998,-0.2436858510844527,0.1189449772784931
0.02600000000000002,-0.2569588932077496,0.1155928153230037
0.02612500000000001,-0.3067328011701128,0.1122406533675143
0.02625,-0.3200058432934097,0.108888491412025
0.02637499999999998,-0.3565067091324761,0.108888491412025
0.02650000000000002,-0.3730980117865972,0.1021841675010462
0.02662500000000001,-0.3996440960331909,0.09883200554555682
0.02675,-0.416235398687312,0.09547984359006743
0.02687499999999998,-0.4361449618722573,0.09212768163457805
0.02700000000000002,-0.4460997434647299,0.08877551967908867
0.02712500000000001,-0.4560545250572026,0.08207119576810989
0.02725,-0.462691046118851,0.07871903381262051
0.02737499999999998,-0.4693275671804994,0.07536687185713113
0.02750000000000002,-0.4693275671804994,0.07201470990164174
0.02762500000000001,-0.4693275671804994,0.06866254794615236
0.02775,-0.4593727855880268,0.06195822403517359
0.02787499999999998,-0.4560545250572026,0.05860606207968421
0.02800000000000002,-0.4394632224030815,0.05525390012419482
0.02812500000000001,-0.432826701341433,0.04854957621321606
0.02825,-0.4095988776256635,0.04519741425772667
0.02837499999999998,-0.3963258355023667,0.04519741425772667
0.02850000000000003,-0.3631432301941245,0.04184525230223729
0.02862500000000001,-0.3531884486016519,0.03514092839125852
0.02875,-0.310051061700937,0.03178876643576914
0.02887499999999998,-0.2967780195776402,0.03178876643576914
0.02900000000000003,-0.2470041116152769,0.02843660448027975
0.02912500000000001,-0.2370493300228043,0.02843660448027975
0.02925,-0.1773206404679684,0.02508444252479037
0.02937499999999998,-0.17068411940632,0.02508444252479037
0.02950000000000003,-0.1010006482590114,0.02173228056930098
0.02962500000000001,-0.09436412719736301,0.02173228056930098
0.02975,-0.02468065605005446,0.0183801186138116
0.02987499999999998,-0.01804413498840603,0.0183801186138116
0.03000000000000003,0.05163933615890251,0.02173228056930098
0.03012500000000001,0.06491237828219937,0.02173228056930098
0.03025,0.1246410678370353,0.02173228056930098
0.03037499999999999,0.1412323704911563,0.02508444252479037
0.03050000000000003,0.197642799515168,0.02508444252479037
0.03062500000000001,0.2208706232309375,0.02508444252479037
0.03075,0.2706445311933008,0.02843660448027975
0.03087499999999999,0.2905540943782461,0.03178876643576914
0.03100000000000003,0.3303732207481367,0.03178876643576914
0.03112500000000001,0.350282783933082,0.03514092839125852
0.03125,0.3867836497721484,0.03514092839125852
0.03137499999999999,0.4066932129570937,0.0384930903467479
0.03149999999999997,0.4332392972036874,0.04184525230223729
0.03162500000000001,0.4531488603886327,0.04519741425772667
0.03175,0.473058423573578,0.04854957621321606
0.03187499999999999,0.4863314656968748,0.05190173816870544
0.03199999999999997,0.4996045078201717,0.05525390012419482
0.03212500000000001,0.5062410288818201,0.05860606207968421
0.03225,0.5128775499434686,0.06531038599066298
0.03237499999999999,0.5128775499434686,0.06531038599066298
0.03249999999999997,0.5161958104742927,0.06866254794615236
0.03262500000000002,0.5095592894126444,0.07201470990164174
0.03275,0.5095592894126444,0.07536687185713113
0.03287499999999999,0.4929679867585233,0.07871903381262051
0.03299999999999997,0.4863314656968748,0.08207119576810989
0.03312500000000002,0.4631036419811053,0.08542335772359928
0.03325,0.4564671209194569,0.08877551967908867
0.03337499999999999,0.4199662550803905,0.08877551967908867
0.03349999999999997,0.4133297340187421,0.09212768163457805
0.03362500000000002,0.3668740865872031,0.09547984359006743
0.03375,0.3602375655255546,0.09547984359006743
0.03387499999999999,0.3071453970323672,0.09883200554555682
0.03399999999999997,0.3005088759707187,0.09883200554555682
0.03412500000000002,0.2407801864158828,0.1021841675010462
0.03425,0.2308254048234102,0.1021841675010462
0.03437499999999999,0.1677784547377501,0.1021841675010462
0.03449999999999998,0.1545054126144532,0.1021841675010462
0.03462500000000002,0.09145846252879311,0.1021841675010462
0.03475,0.07486715987467202,0.1021841675010462
0.03487499999999999,0.01513847031983613,0.1021841675010462
0.03499999999999998,-0.004771092865109164,0.1021841675010462
0.03512500000000002,-0.06118152188912084,0.09883200554555682
0.03525,-0.08772760613571456,0.09883200554555682
0.03537499999999999,-0.1375015140980778,0.09883200554555682
0.03549999999999998,-0.1640475983446715,0.09547984359006743
0.03562500000000002,-0.2105032457762106,0.09212768163457805
0.03575,-0.2403675905536285,0.09212768163457805
0.03587499999999999,-0.2768684563926949,0.08877551967908867
0.03599999999999998,-0.3067328011701128,0.08542335772359928
0.03612500000000002,-0.3365971459475308,0.08207119576810989
0.03625,-0.3664614907249487,0.07871903381262051
0.03637499999999999,-0.3896893144407182,0.07536687185713113
0.03649999999999998,-0.416235398687312,0.07201470990164174
0.03662500000000002,-0.4361449618722573,0.06531038599066298
0.03675,-0.4560545250572026,0.06195822403517359
0.03687499999999999,-0.4660093066496752,0.05860606207968421
0.03699999999999998,-0.4826006093037963,0.05525390012419482
0.03712500000000002,-0.4892371303654447,0.05190173816870544
0.03725000000000001,-0.4991919119579173,0.04519741425772667
0.03737499999999999,-0.4991919119579173,0.04519741425772667
0.03749999999999998,-0.4991919119579173,0.0384930903467479
0.03762500000000002,-0.4991919119579173,0.03514092839125852
0.03775000000000001,-0.4892371303654447,0.02843660448027975
0.03787499999999999,-0.4859188698346205,0.02508444252479037
0.03799999999999998,-0.462691046118851,0.02173228056930098
0.03812500000000002,-0.4593727855880268,0.0183801186138116
0.03825000000000001,-0.4295084408106088,0.01502795665832222
0.03837499999999999,-0.4228719197489604,0.01167579470283283
0.03849999999999998,-0.3830527933790698,0.004971470791854065
0.03862500000000002,-0.3764162723174214,0.004971470791854065
0.03875000000000001,-0.3299606248858823,0.001619308836364681
0.03887499999999999,-0.3166875827625855,-0.001732853119124703
0.03899999999999998,-0.2669136748002222,-0.001732853119124703
0.03912500000000002,-0.2536406326769254,-0.005085015074614087
0.03925000000000001,-0.2005484641837379,-0.008437177030103471
0.03937499999999999,-0.1806389009987926,-0.008437177030103471
0.03949999999999998,-0.1275467325056052,-0.008437177030103471
0.03962500000000002,-0.1043189087898356,-0.008437177030103471
0.03975000000000001,-0.05122674029664819,-0.01178933898559285
0.03987499999999999,-0.02468065605005446,-0.01178933898559285
0.03999999999999998,0.02177499138148457,-0.01178933898559285
0.04012500000000002,0.05495759668972672,-0.01178933898559285
0.04025000000000001,0.09809498359044154,-0.01178933898559285
0.04037499999999999,0.1312775888986837,-0.008437177030103471
0.04049999999999998,0.1710967152685743,-0.008437177030103471
0.04062500000000002,0.2075975811076407,-0.005085015074614087
0.04075000000000001,0.2407801864158828,-0.005085015074614087
0.04087499999999999,0.2772810522549492,-0.001732853119124703
0.04099999999999998,0.3038271365015429,-0.001732853119124703
0.04112500000000002,0.3370097418097851,0.001619308836364681
0.04125000000000001,0.3569193049947304,0.004971470791854065
0.041375,0.3867836497721484,0.008323632747343448
0.04149999999999998,0.4033749524262694,0.008323632747343448
0.04162500000000002,0.4299210366728631,0.01167579470283283
0.04175000000000001,0.4398758182653358,0.01502795665832222
0.041875,0.4597853814502811,0.0183801186138116
0.04199999999999998,0.4664219025119296,0.02173228056930098
