System Dynamics/Lab/lab8/sinof2sinwaves1to100/Sumof2sinRC33.csv

#Digilent WaveForms Oscilloscope Acquisition
#Device Name: Discovery2
#Serial Number: SN:210321AFD7CC
#Date Time: 2020-12-01 10:48:27.538
#Sample rate: 20479.2Hz
#Samples: 8192
#Trigger: Source: Channel 1 Type: Edge Condition: Rising Level: 0 V Hyst.: Auto HoldOff: 0 s
#Channel 1: Range: 500 mV/div Offset: 0 V Attenuation: 10 X
#Channel 2: Range: 500 mV/div Offset: 0 V Attenuation: 10 X
#Wavegen Channel 1: Enabled
#Mode: Simple
#Type: sumof2sin
#Frequency: 1 kHz
#Period: 1 ms
#Amplitude: 1 V
#Offset: 0 V
#Phase: 0 °

Time (s),Channel 1 (V),Channel 2 (V)
-3.807084745763301e-05,-0.1540928167521989,0.05860606207968421
1.07591525423667e-05,0.04168455456642986,0.05860606207968421
5.958915254236641e-05,0.05495759668972672,0.06195822403517359
0.0001084191525423661,0.1412323704911171,0.06195822403517359
0.0001572491525423658,0.2407801864158376,0.06195822403517359
0.0002060791525423655,0.1976427995151877,0.06195822403517359
0.0002549091525423652,0.3602375655254807,0.06195822403517359
0.0003037391525423649,0.2275071442926463,0.06195822403517359
0.0003525691525423646,0.3801471287104304,0.06195822403517359
0.0004013991525423644,0.2374619258851235,0.06195822403517359
0.0004502291525423641,0.3071453970323355,0.06195822403517359
0.0004990591525423638,0.2175523627001541,0.06195822403517359
0.0005478891525423635,0.1545054126144819,0.06195822403517359
0.0005967191525423909,0.1478688915527218,0.06195822403517359
0.0006455491525423906,-0.03463543764250447,0.06195822403517512
0.0006943791525423904,0.01513847031972447,0.06531038599066145
0.0007432091525423901,-0.2304128089611348,0.06195822403517359
0.0007920391525423898,-0.1839571615296908,0.06195822403517359
0.0008408691525423895,-0.3465519275399355,0.06195822403517359
0.0008896991525423892,-0.1972302036528805,0.06195822403517207
0.0009385291525423889,-0.1242284719747583,0.05860606207968421
0.0009873591525423886,-0.07445456401234075,0.05860606207968421
0.001036189152542388,0.09477672305961732,0.05860606207968421
0.001085019152542388,0.04168455456642986,0.05860606207968421
0.001133849152542388,0.2573714890700039,0.05860606207968421
0.001182679152542387,0.1578236731452774,0.05860606207968421
0.001231509152542387,0.3303732207481367,0.06195822403517359
0.001280339152542387,0.2606897496008281,0.06195822403517359
0.001329169152542387,0.320418439155664,0.06195822403517359
0.001377999152542386,0.3237366996864882,0.06195822403517359
0.001426829152542386,0.244098446946707,0.06195822403517359
0.001475659152542386,0.3137819180940156,0.06195822403517359
0.001524489152542385,0.1279593283678595,0.06195822403517359
0.001573319152542385,0.2175523627001133,0.06531038599066298
0.001622149152542385,-0.001452832334284948,0.06195822403517359
0.001670979152542384,0.03504803350478143,0.06195822403517359
0.001719809152542384,-0.1375015140980778,0.06195822403517359
0.001768639152542384,-0.2038667247145621,0.06195822403517359
0.001817469152542384,-0.2669136748002222,0.06195822403517359
0.001866299152542383,-0.3133693222317613,0.06195822403517359
0.001915129152542383,-0.1010006482590114,0.05860606207968421
0.001963959152542383,-0.1607293378138473,0.05860606207968421
0.002012789152542382,0.07486715987467202,0.06195822403517359
0.002061619152542382,0.01845673085066035,0.06195822403517359
0.002110449152542382,0.1876880179226954,0.05860606207968421
0.002159279152542382,0.1943245389843438,0.05860606207968421
0.002208109152542381,0.2407801864158828,0.05860606207968421
0.002256939152542381,0.3270549602173125,0.05860606207968421
0.002305769152542381,0.244098446946707,0.05860606207968421
0.00235459915254238,0.3834653892413241,0.06195822403517359
0.00240342915254238,0.2175523627001133,0.06195822403517359
0.00245225915254238,0.3370097418097851,0.06195822403517359
0.00250108915254238,0.1744149757993985,0.06195822403517359
0.002549919152542379,0.2009610600459922,0.06531038599066298
0.002598749152542379,0.1014132441212657,0.06531038599066298
0.002647579152542379,0.001865428196539268,0.06531038599066298
0.002696409152542378,-0.01472587445758181,0.06531038599066298
0.002745239152542378,-0.2237762878995074,0.06195822403517359
0.002794069152542378,-0.1806389009987926,0.06195822403517359
0.002842899152542377,-0.3730980117865972,0.05860606207968421
0.002891729152542377,-0.1540928167521989,0.06195822403517359
0.002940559152542377,-0.1640475983446715,0.06195822403517359
0.002989389152542377,-0.02468065605005446,0.05860606207968421
0.003038219152542376,0.05495759668972672,0.05860606207968421
0.003087049152542376,0.07818542040549624,0.05860606207968421
0.003135879152542376,0.2407801864158828,0.05860606207968421
0.003184709152542375,0.1611419336761016,0.05860606207968421
0.003233539152542375,0.350282783933082,0.05860606207968421
0.003282369152542375,0.227507144292586,0.05860606207968421
0.003331199152542375,0.3635558260563788,0.06195822403517359
0.003380029152542374,0.273962791724125,0.06195822403517359
0.003428859152542374,0.2905540943782461,0.06195822403517359
0.003477689152542374,0.273962791724125,0.06195822403517359
0.003526519152542373,0.151187152083629,0.06531038599066298
0.003575349152542373,0.2042793205768164,0.06531038599066298
0.003624179152542373,-0.0114076139267576,0.06531038599066298
0.003673009152542372,0.05827585722055094,0.06531038599066298
0.003721839152542372,-0.1740023799371442,0.06195822403517359
0.003770669152542372,-0.1607293378138473,0.06195822403517359
0.003819499152542372,-0.3166875827625855,0.06195822403517359
0.003868329152542371,-0.2702319353310464,0.05860606207968421
0.003917159152542371,-0.1308649930364294,0.06195822403517359
0.003965989152542371,-0.140819774628902,0.05860606207968421
0.00401481915254237,0.07818542040549624,0.05860606207968421
0.00406364915254237,0.005183688727363484,0.05860606207968421
0.00411247915254237,0.2241888837617617,0.06195822403517359
0.00416130915254237,0.1545054126144532,0.06195822403517359
0.004210139152542369,0.2905540943782461,0.06195822403517359
0.004258969152542369,0.2839175733165976,0.06195822403517359
0.004307799152542369,0.2872358338474219,0.06195822403517359
0.004356629152542368,0.3569193049947304,0.06195822403517359
0.004405459152542368,0.2308254048234102,0.06531038599066298
0.004454289152542368,0.3436462628714335,0.06195822403517359
0.004503119152542367,0.1478688915528048,0.06195822403517359
0.004551949152542367,0.2341436653542344,0.06531038599066298
0.004600779152542367,0.05163933615890251,0.06531038599066298
0.004649609152542367,0.04500281509725408,0.06195822403517359
0.004698439152542366,-0.06118152188907255,0.06531038599066145
0.004747269152542366,-0.1905936825912065,0.06195822403517512
0.004796099152542366,-0.2038667247145561,0.06195822403517359
0.004844929152542365,-0.3664614907248748,0.05860606207968574
0.004893759152542365,-0.1341832535673592,0.05860606207968421
0.004942589152542365,-0.1939119431220623,0.05860606207968421
0.004991419152542365,0.02177499138138647,0.05860606207968421
0.005040249152542364,0.01182020978901644,0.05860606207968421
0.005089079152542364,0.1279593283678067,0.06195822403517207
0.005137909152542364,0.2042793205767817,0.06195822403517359
0.005186739152542391,0.1910062784535875,0.06195822403517359
0.005235569152542391,0.3403280023405565,0.06195822403517359
0.005284399152542391,0.2241888837618372,0.06195822403517359
0.00533322915254239,0.3901019103029031,0.06195822403517359
0.00538205915254239,0.2374619258851024,0.06195822403517512
0.00543088915254239,0.3336914812789096,0.06531038599066298
0.005479719152542389,0.2208706232309255,0.06531038599066298
0.005528549152542389,0.1943245389843302,0.06531038599066298
0.005577379152542389,0.164460194206855,0.06531038599066298
0.005626209152542389,0.0085019492581877,0.06531038599066298
0.005675039152542388,0.04500281509725408,0.06531038599066298
0.005723869152542388,-0.1905936825912653,0.06195822403517359
0.005772699152542388,-0.1375015140980778,0.06195822403517359
0.005821529152542387,-0.3598249696633003,0.06195822403517359
0.005870359152542387,-0.217139766837859,0.06195822403517359
0.005919189152542387,-0.1740023799371442,0.06195822403517359
0.005968019152542386,-0.09436412719736301,0.06195822403517359
0.006016849152542386,0.05163933615890251,0.06195822403517359
0.006065679152542386,0.02177499138148457,0.06195822403517359
0.006114509152542386,0.2308254048234102,0.06195822403517359
0.006163339152542385,0.1379141099603321,0.05860606207968421
0.006212169152542385,0.3270549602173125,0.06195822403517359
0.006260999152542385,0.2407801864158828,0.06195822403517359
0.006309829152542384,0.3336914812789609,0.06195822403517359
0.006358659152542384,0.3104636575631914,0.06195822403517359
0.006407489152542384,0.2673262706624766,0.06195822403517359
0.006456319152542384,0.320418439155664,0.06531038599066298
0.006505149152542383,0.1545054126144532,0.06531038599066298
0.006553979152542383,0.244098446946707,0.06531038599066298
0.006602809152542383,0.02509325191230878,0.06531038599066298
0.006651639152542382,0.08150368093632046,0.06531038599066298
0.006700469152542382,-0.1109554298514841,0.06531038599066298
0.006749299152542382,-0.1441380351597262,0.06195822403517359
0.006798129152542381,-0.2536406326769254,0.06195822403517359
0.006846959152542381,-0.3299606248858823,0.06195822403517359
0.006895789152542381,-0.1441380351597262,0.06195822403517359
0.006944619152542381,-0.1905936825912653,0.06195822403517359
0.00699344915254238,0.04500281509725408,0.06195822403517359
0.00704227915254238,-0.01804413498840603,0.06195822403517359
0.00709110915254238,0.1777332363302227,0.06195822403517359
0.007139939152542379,0.1611419336761016,0.06195822403517359
0.007188769152542379,0.2407801864158828,0.06195822403517359
0.007237599152542379,0.3038271365015429,0.06195822403517359
0.007286429152542379,0.2540532285391797,0.06195822403517359
0.007335259152542378,0.3801471287104999,0.06531038599066298
0.007384089152542378,0.2308254048234102,0.06531038599066298
0.007432919152542378,0.3602375655255546,0.06531038599066298
0.007481749152542377,0.1843697573918712,0.06531038599066298
0.007530579152542377,0.244098446946707,0.06531038599066298
0.007579409152542377,0.1146862862445626,0.06531038599066298
0.007628239152542376,0.0483210756280783,0.06531038599066298
0.007677069152542376,0.01182020978901192,0.06531038599066298
0.007725899152542376,-0.1740023799371442,0.06531038599066298
0.007774729152542376,-0.140819774628902,0.06531038599066298
0.007823559152542375,-0.3764162723174214,0.06195822403517359
0.007872389152542375,-0.1773206404679684,0.06195822403517359
0.007921219152542375,-0.2138215063070348,0.06195822403517359
0.007970049152542374,-0.04127195870417554,0.06195822403517359
0.008018879152542374,0.0085019492581877,0.06195822403517359
0.008067709152542374,0.06491237828219937,0.06195822403517359
0.008116539152542374,0.2075975811076407,0.06195822403517359
0.008165369152542373,0.151187152083629,0.06195822403517359
0.008214199152542373,0.3370097418097851,0.06195822403517359
0.008263029152542373,0.2175523627001133,0.06195822403517359
0.008311859152542372,0.3735106076488515,0.06531038599066298
0.008360689152542372,0.2673262706624766,0.06531038599066298
0.008409519152542372,0.3171001786248398,0.06195822403517359
0.008458349152542372,0.273962791724125,0.06531038599066298
0.008507179152542371,0.1876880179226954,0.06531038599066298
0.008556009152542371,0.2208706232309375,0.06531038599066298
0.008604839152542371,0.02509325191230878,0.06531038599066298
0.00865366915254237,0.09145846252879311,0.06531038599066298
0.00870249915254237,-0.1441380351597262,0.06531038599066298
0.00875132915254237,-0.1076371693206599,0.06531038599066298
0.008800159152542369,-0.3034145406392886,0.06195822403517359
0.008848989152542369,-0.2801867169235191,0.06195822403517359
0.008897819152542369,-0.1806389009987926,0.06195822403517359
0.008946649152542369,-0.1607293378138473,0.06195822403517359
0.008995479152542368,0.03836629403560565,0.06195822403517359
0.009044309152542368,-0.02136239551923024,0.05860606207968421
0.009093139152542368,0.2009610600459922,0.06195822403517359
0.009141969152542367,0.1246410678370353,0.06195822403517359
0.009190799152542367,0.2905540943782461,0.06195822403517359
0.009239629152542367,0.2573714890700039,0.06195822403517359
0.009288459152542367,0.2971906154398764,0.06531038599066145
0.009337289152542366,0.3436462628714124,0.06195822403517512
0.009386119152542366,0.2507349680083977,0.06531038599066145
0.009434949152542366,0.3536010444638594,0.06531038599066298
0.009483779152542365,0.1677784547378346,0.06531038599066298
0.009532609152542365,0.2673262706624313,0.06531038599066298
0.009581439152542365,0.07154889934393685,0.06195822403517512
0.009630269152542364,0.09145846252878406,0.06531038599066145
0.009679099152542364,-0.04127195870411518,0.06531038599066298
0.009727929152542392,-0.1375015140980959,0.06531038599066298
0.009776759152542391,-0.1773206404680544,0.06531038599066145
0.009825589152542391,-0.3664614907248597,0.06195822403517359
0.009874419152542391,-0.1706841194063486,0.06195822403517359
0.00992324915254239,-0.2337310694918744,0.06195822403517359
0.00997207915254239,-0.001452832334300038,0.06195822403517359
0.01002090915254239,-0.0346354376424592,0.06195822403517359
0.01006973915254239,0.1146862862445853,0.06195822403517359
0.01011856915254239,0.1644601942069364,0.06195822403517359
0.01016739915254239,0.1876880179227542,0.06195822403517512
0.01021622915254239,0.3171001786248398,0.06531038599066298
0.01026505915254239,0.2241888837617617,0.06531038599066298
0.01031388915254239,0.3867836497721484,0.06531038599066298
0.01036271915254239,0.2374619258850586,0.06531038599066298
0.01041154915254239,0.3569193049947304,0.06531038599066298
0.01046037915254239,0.2241888837617617,0.06531038599066298
0.01050920915254239,0.2341436653542344,0.06531038599066298
0.01055803915254239,0.1777332363302227,0.06531038599066298
0.01060686915254239,0.05163933615890251,0.06531038599066298
0.01065569915254239,0.07154889934384781,0.06531038599066298
0.01070452915254239,-0.1507745562213747,0.06195822403517359
0.01075335915254239,-0.09436412719736301,0.06531038599066298
0.01080218915254239,-0.339915406478355,0.06195822403517359
0.01085101915254238,-0.2370493300228043,0.06195822403517359
0.01089984915254238,-0.2237762878995074,0.06195822403517359
0.01094867915254238,-0.1142736903823083,0.06195822403517359
0.01099750915254238,0.005183688727363484,0.06195822403517359
0.01104633915254238,0.005183688727363484,0.06195822403517359
0.01109516915254238,0.197642799515168,0.06195822403517359
0.01114399915254238,0.1146862862445626,0.06195822403517359
0.01119282915254238,0.3171001786248398,0.06195822403517359
0.01124165915254238,0.2175523627001133,0.06195822403517359
0.01129048915254238,0.3436462628714335,0.06195822403517359
0.01133931915254238,0.2971906154398945,0.06195822403517359
0.01138814915254238,0.2905540943782461,0.06195822403517359
0.01143697915254238,0.320418439155664,0.06531038599066298
0.01148580915254238,0.1810514968610469,0.06531038599066298
0.01153463915254238,0.2640080101316523,0.06531038599066298
0.01158346915254238,0.0483210756280783,0.06531038599066298
0.01163229915254238,0.121322807306211,0.06531038599066298
0.01168112915254238,-0.08772760613571456,0.06531038599066298
0.01172995915254238,-0.09436412719736301,0.06195822403517359
0.01177878915254238,-0.2270945484303316,0.06195822403517359
0.01182761915254238,-0.3299606248858823,0.06531038599066298
0.01187644915254238,-0.1905936825912653,0.06195822403517359
0.01192527915254238,-0.2237762878995074,0.05860606207968421
0.01197410915254238,0.01182020978901192,0.05860606207968421
0.01202293915254238,-0.05786326135829662,0.05860606207968421
0.01207176915254238,0.1578236731452774,0.06195822403517359
0.01212059915254238,0.121322807306211,0.06195822403517359
0.01216942915254238,0.2374619258850586,0.06195822403517359
0.01221825915254238,0.273962791724125,0.06195822403517359
0.01226708915254238,0.2573714890700039,0.06195822403517359
0.01231591915254238,0.3668740865872031,0.06195822403517359
0.01236474915254238,0.2374619258850586,0.06195822403517359
0.01241357915254238,0.3701923471180273,0.06531038599066298
0.01246240915254238,0.1910062784535196,0.06531038599066298
0.01251123915254237,0.273962791724125,0.06531038599066298
0.01256006915254237,0.1246410678370353,0.06531038599066298
0.01260889915254237,0.09477672305961732,0.06531038599066298
0.01265772915254237,0.028411512443133,0.06531038599066298
0.01270655915254237,-0.1275467325056052,0.06531038599066298
0.01275538915254237,-0.1109554298514841,0.06195822403517359
0.01280421915254237,-0.3498701880708276,0.06195822403517359
0.01285304915254237,-0.2105032457762106,0.06195822403517359
0.01290187915254237,-0.2602771537385738,0.05860606207968421
0.01295070915254237,-0.06449978241994506,0.06195822403517359
0.01299953915254237,-0.04127195870417554,0.06195822403517359
0.01304836915254237,0.0483210756280783,0.06195822403517359
0.01309719915254237,0.1677784547377501,0.06195822403517359
0.01314602915254237,0.1345958494295079,0.06195822403517359
0.01319485915254237,0.3171001786248398,0.06195822403517359
0.01324368915254237,0.2042793205768164,0.06195822403517359
0.01329251915254237,0.3768288681796757,0.06195822403517359
0.01334134915254237,0.2507349680083555,0.06531038599066298
0.01339017915254237,0.3370097418097851,0.06531038599066298
0.01343900915254237,0.2706445311933008,0.06531038599066298
0.01348783915254237,0.2208706232309375,0.06531038599066298
0.01353666915254237,0.2341436653542344,0.06531038599066298
0.01358549915254237,0.05827585722055094,0.06531038599066298
0.01363432915254237,0.121322807306211,0.06531038599066298
0.01368315915254237,-0.1142736903823083,0.06531038599066298
0.01373198915254237,-0.06118152188912084,0.06531038599066298
0.01378081915254237,-0.2801867169235191,0.06195822403517359
0.01382964915254237,-0.2835049774543433,0.06195822403517359
0.01387847915254237,-0.23041280896118,0.06195822403517359
0.01392730915254237,-0.183957161529638,0.06195822403517359
0.01397613915254237,-0.004771092865190646,0.06195822403517359
0.01402496915254237,-0.05122674029662706,0.06195822403517359
0.01407379915254237,0.1744149757992959,0.05860606207968574
0.01412262915254237,0.09145846252883083,0.05860606207968421
0.01417145915254236,0.2805993127856874,0.05860606207968421
0.01422028915254236,0.2275071442926101,0.06195822403517207
0.01426911915254236,0.3038271365015082,0.06195822403517359
0.01431794915254239,0.3270549602172838,0.06195822403517359
0.01436677915254239,0.2640080101316931,0.06195822403517512
0.01441560915254239,0.3536010444638292,0.06531038599066298
0.01446443915254239,0.1843697573919195,0.06531038599066298
0.01451326915254239,0.2905540943781525,0.06531038599066298
0.01456209915254239,0.0848219414671673,0.06531038599066298
0.01461092915254239,0.1345958494294355,0.06531038599066298
0.01465975915254239,-0.02468065605008313,0.06531038599066298
0.01470858915254239,-0.08772760613574475,0.06531038599066145
0.01475741915254239,-0.1540928167522804,0.06195822403517359
0.01480624915254239,-0.3332788854167066,0.06195822403517359
0.01485507915254239,-0.2105032457762106,0.06195822403517359
0.01490390915254239,-0.2702319353310464,0.05860606207968421
0.01495273915254239,-0.03131717711170289,0.06195822403517359
0.01500156915254239,-0.07777282454324191,0.06195822403517359
0.01505039915254239,0.1014132441212657,0.06195822403517359
0.01509922915254239,0.1246410678370353,0.05860606207968421
0.01514805915254239,0.1777332363302227,0.06195822403517359
0.01519688915254239,0.2872358338474219,0.06195822403517359
0.01524571915254239,0.2208706232309375,0.05860606207968421
0.01529454915254239,0.3768288681796757,0.06195822403517359
0.01534337915254239,0.2341436653542344,0.06195822403517359
0.01539220915254239,0.3701923471180273,0.06195822403517359
0.01544103915254239,0.2241888837617617,0.06531038599066298
0.01548986915254238,0.2640080101316523,0.06531038599066298
0.01553869915254238,0.1810514968610469,0.06531038599066298
0.01558752915254238,0.09477672305961732,0.06531038599066298
0.01563635915254238,0.09477672305961732,0.06531038599066298
0.01568518915254238,-0.1109554298514841,0.06531038599066298
