System Dynamics/Lab/lab3/Lab3dataExperiment2.csv

#Digilent WaveForms Oscilloscope Acquisition
#Device Name: Discovery2
#Serial Number: SN:210321AFD7CC
#Date Time: 2020-09-24 15:57:32.959
#Sample rate: 54615Hz
#Samples: 8192
#Trigger: Source: Channel 1 Type: Edge Condition: Rising Level: 900 mV Hyst.: Auto HoldOff: 0 s
#Channel 1: Range: 500 mV/div Offset: 0 V Attenuation: 10 X
#Channel 2: Range: 200 mV/div Offset: 0 V Attenuation: 10 X
#Wavegen Channel 1: Running
#Mode: Simple
#Type: Pulse
#Frequency: 1 Hz
#Period: 1 s
#Amplitude: 2.5 V
#Offset: 0 V
#Symmetry: 0.4 %
#Phase: 0 °

Time (s),Channel 1 (V),Channel 2 (V)
-0.0748107439884393,-0.004771092865109164,0.004971470791854065
-0.07479243398843931,-0.004771092865109164,0.001619308836366206
-0.0747741239884393,-0.004771092865109164,0.001619308836364681
-0.07475581398843931,-0.004771092865109164,0.001619308836364681
-0.0747375039884393,-0.004771092865109164,0.001619308836364681
-0.07471919398843931,-0.004771092865109164,0.001619308836364681
-0.0747008839884393,-0.001452832334286457,0.001619308836364681
-0.0746825739884393,-0.004771092865109164,0.001619308836364681
-0.0746642639884393,-0.001452832334286457,0.001619308836366206
-0.0746459539884393,-0.004771092865109164,0.004971470791854065
-0.07462764398843931,-0.001452832334286457,0.004971470791854065
-0.0746093339884393,-0.001452832334284948,0.004971470791854065
-0.07459102398843931,-0.001452832334284948,0.004971470791854065
-0.0745727139884393,-0.001452832334284948,0.004971470791854065
-0.07455440398843931,-0.001452832334284948,0.004971470791854065
-0.0745360939884393,-0.001452832334284948,0.001619308836364681
-0.07451778398843931,-0.004771092865109164,0.001619308836364681
-0.0744994739884393,-0.001452832334286457,0.001619308836364681
-0.07448116398843931,-0.004771092865109164,0.001619308836364681
-0.0744628539884393,-0.004771092865109164,0.001619308836364681
-0.0744445439884393,-0.004771092865109164,0.001619308836364681
-0.0744262339884393,-0.001452832334286457,0.001619308836366206
-0.0744079239884393,-0.004771092865109164,0.004971470791854065
-0.07438961398843931,-0.004771092865109164,0.001619308836366206
-0.0743713039884393,-0.004771092865109164,0.001619308836364681
-0.07435299398843931,-0.001452832334286457,0.001619308836364681
-0.0743346839884393,-0.001452832334284948,0.001619308836364681
-0.07431637398843931,-0.004771092865109164,0.001619308836364681
-0.0742980639884393,-0.001452832334284948,0.001619308836364681
-0.07427975398843931,-0.001452832334284948,0.001619308836364681
-0.0742614439884393,-0.004771092865109164,0.004971470791854065
-0.07424313398843931,-0.004771092865109164,0.004971470791854065
-0.0742248239884393,-0.004771092865107655,0.001619308836366206
-0.0742065139884393,-0.001452832334284948,0.004971470791854065
-0.0741882039884393,-0.004771092865109164,0.004971470791852541
-0.0741698939884393,-0.004771092865109164,0.001619308836364681
-0.07415158398843931,-0.001452832334286457,0.004971470791852541
-0.0741332739884393,-0.004771092865109164,0.004971470791854065
-0.07411496398843931,-0.004771092865109164,0.001619308836366206
-0.0740966539884393,-0.004771092865109164,0.001619308836364681
-0.07407834398843931,-0.004771092865109164,0.001619308836364681
-0.0740600339884393,-0.004771092865109164,0.001619308836364681
-0.07404172398843931,-0.004771092865109164,0.004971470791854065
-0.0740234139884393,-0.004771092865109164,0.004971470791852541
-0.07400510398843931,-0.004771092865109164,0.001619308836364681
-0.0739867939884393,-0.004771092865110673,0.001619308836364681
-0.0739684839884393,-0.00808935339593338,0.001619308836364681
-0.0739501739884393,-0.004771092865109164,0.004971470791854065
-0.0739318639884393,-0.004771092865109164,0.004971470791854065
-0.07391355398843931,-0.004771092865109164,0.001619308836366206
-0.0738952439884393,-0.004771092865109164,0.001619308836364681
-0.07387693398843931,-0.004771092865109164,0.001619308836364681
-0.0738586239884393,-0.004771092865109164,0.004971470791854065
-0.07384031398843931,-0.001452832334284948,0.001619308836364681
-0.0738220039884393,-0.001452832334284948,0.001619308836364681
-0.07380369398843931,-0.004771092865109164,0.001619308836364681
-0.0737853839884393,-0.004771092865109164,0.001619308836364681
-0.07376707398843931,-0.004771092865109164,0.001619308836364681
-0.0737487639884393,-0.004771092865109164,0.004971470791852541
-0.0737304539884393,-0.004771092865109164,0.001619308836364681
-0.07371214398843931,-0.004771092865109164,0.004971470791852541
-0.0736938339884393,-0.001452832334284948,0.001619308836364681
-0.07367552398843931,-0.004771092865107655,0.001619308836364681
-0.0736572139884393,-0.004771092865109164,0.001619308836364681
-0.07363890398843931,-0.004771092865109164,0.004971470791852541
-0.0736205939884393,-0.004771092865109164,0.001619308836364681
-0.07360228398843931,-0.001452832334284948,0.001619308836364681
-0.0735839739884393,-0.001452832334284948,0.001619308836364681
-0.07356566398843931,-0.004771092865109164,0.001619308836364681
-0.0735473539884393,-0.004771092865109164,0.001619308836364681
-0.0735290439884393,-0.004771092865109164,0.001619308836364681
-0.0735107339884393,-0.004771092865109164,0.001619308836364681
-0.0734924239884393,-0.004771092865109164,0.001619308836364681
-0.07347411398843931,-0.004771092865109164,0.001619308836364681
-0.0734558039884393,-0.004771092865109164,0.001619308836364681
-0.07343749398843931,-0.004771092865109164,0.001619308836364681
-0.0734191839884393,-0.004771092865109164,0.001619308836364681
-0.07340087398843931,-0.004771092865109164,0.001619308836364681
-0.0733825639884393,-0.004771092865109164,0.001619308836364681
-0.07336425398843931,-0.004771092865109164,0.001619308836364681
-0.0733459439884393,-0.004771092865109164,0.001619308836364681
-0.07332763398843931,-0.004771092865109164,0.001619308836364681
-0.0733093239884393,-0.004771092865109164,-0.001732853119121654
-0.0732910139884393,-0.004771092865109164,0.004971470791854065
-0.0732727039884393,-0.004771092865109164,0.001619308836364681
-0.0732543939884393,-0.004771092865109164,0.001619308836364681
-0.07323608398843931,-0.004771092865109164,-0.001732853119123178
-0.0732177739884393,-0.004771092865109164,0.001619308836364681
-0.07319946398843931,-0.004771092865109164,0.001619308836364681
-0.0731811539884393,-0.004771092865109164,0.001619308836364681
-0.07316284398843931,-0.004771092865109164,0.001619308836364681
-0.0731445339884393,-0.001452832334284948,0.001619308836364681
-0.07312622398843931,-0.001452832334284948,0.001619308836364681
-0.0731079139884393,-0.004771092865107655,0.001619308836364681
-0.07308960398843931,-0.001452832334284948,0.001619308836364681
-0.0730712939884393,-0.001452832334286457,0.001619308836364681
-0.0730529839884393,-0.004771092865109164,0.001619308836364681
-0.0730346739884393,-0.004771092865109164,0.001619308836364681
-0.0730163639884393,-0.004771092865109164,0.001619308836364681
-0.07299805398843931,-0.004771092865109164,0.001619308836364681
-0.0729797439884393,-0.004771092865109164,0.001619308836364681
-0.07296143398843931,-0.004771092865109164,0.001619308836364681
-0.0729431239884393,-0.004771092865109164,0.001619308836364681
-0.07292481398843931,-0.004771092865109164,-0.001732853119124703
-0.0729065039884393,-0.004771092865109164,0.001619308836364681
-0.07288819398843931,-0.00808935339593338,0.001619308836364681
-0.0728698839884393,-0.004771092865110673,0.001619308836364681
-0.07285157398843931,-0.00808935339593338,0.001619308836364681
-0.0728332639884393,-0.004771092865109164,0.001619308836364681
-0.0728149539884393,-0.004771092865109164,0.001619308836364681
-0.0727966439884393,-0.004771092865109164,0.001619308836364681
-0.0727783339884393,-0.004771092865109164,0.001619308836364681
-0.07276002398843931,-0.004771092865109164,0.001619308836364681
-0.0727417139884393,-0.004771092865109164,0.001619308836364681
-0.07272340398843931,-0.004771092865109164,0.001619308836364681
-0.0727050939884393,-0.004771092865109164,0.001619308836364681
-0.07268678398843931,-0.001452832334284948,0.001619308836364681
-0.0726684739884393,-0.004771092865109164,0.001619308836364681
-0.07265016398843931,-0.004771092865109164,0.001619308836364681
-0.0726318539884393,-0.004771092865109164,0.001619308836364681
-0.07261354398843931,-0.004771092865109164,0.001619308836364681
-0.0725952339884393,-0.004771092865109164,0.001619308836364681
-0.0725769239884393,-0.004771092865109164,0.001619308836364681
-0.07255861398843931,-0.001452832334286457,0.004971470791852541
-0.0725403039884393,-0.004771092865109164,0.001619308836364681
-0.07252199398843931,-0.004771092865109164,0.004971470791852541
-0.0725036839884393,-0.001452832334284948,0.001619308836364681
-0.07248537398843931,-0.004771092865107655,0.001619308836364681
-0.0724670639884393,-0.001452832334284948,0.001619308836364681
-0.07244875398843931,-0.001452832334284948,0.001619308836364681
-0.0724304439884393,-0.004771092865109164,0.004971470791854065
-0.07241213398843931,-0.001452832334284948,0.001619308836364681
-0.0723938239884393,-0.001452832334284948,0.001619308836364681
-0.07237551398843931,-0.001452832334284948,0.001619308836364681
-0.0723572039884393,-0.001452832334284948,0.001619308836364681
-0.0723388939884393,-0.001452832334284948,0.001619308836364681
-0.07232058398843931,-0.001452832334284948,0.001619308836364681
-0.0723022739884393,-0.001452832334284948,0.001619308836364681
-0.07228396398843931,-0.004771092865107655,0.001619308836364681
-0.0722656539884393,-0.004771092865109164,0.001619308836364681
-0.07224734398843931,-0.004771092865109164,0.001619308836364681
-0.0722290339884393,-0.004771092865109164,0.001619308836364681
-0.07221072398843931,-0.001452832334284948,-0.001732853119124703
-0.0721924139884393,-0.004771092865109164,0.001619308836364681
-0.07217410398843931,-0.004771092865109164,0.001619308836364681
-0.0721557939884393,-0.004771092865109164,0.001619308836364681
-0.0721374839884393,-0.004771092865109164,0.001619308836364681
-0.0721191739884393,-0.004771092865109164,0.001619308836366206
-0.0721008639884393,-0.004771092865109164,0.004971470791854065
-0.07208255398843931,-0.004771092865109164,0.001619308836366206
-0.0720642439884393,-0.004771092865109164,0.004971470791854065
-0.07204593398843931,-0.004771092865109164,0.001619308836366206
-0.0720276239884393,-0.004771092865109164,0.001619308836364681
-0.07200931398843931,-0.004771092865109164,0.004971470791852541
-0.0719910039884393,-0.004771092865109164,0.001619308836364681
-0.07197269398843931,-0.004771092865109164,0.001619308836364681
-0.0719543839884393,-0.004771092865109164,0.001619308836364681
-0.07193607398843931,-0.004771092865109164,0.001619308836364681
-0.0719177639884393,-0.004771092865110673,0.001619308836364681
-0.0718994539884393,-0.00808935339593338,0.001619308836364681
-0.0718811439884393,-0.004771092865110673,0.001619308836364681
-0.0718628339884393,-0.00808935339593338,0.001619308836364681
-0.07184452398843931,-0.00808935339593338,0.001619308836364681
-0.0718262139884393,-0.004771092865109164,0.001619308836364681
-0.07180790398843931,-0.004771092865109164,0.001619308836364681
-0.0717895939884393,-0.004771092865109164,0.001619308836364681
-0.07177128398843931,-0.004771092865109164,0.001619308836364681
-0.0717529739884393,-0.00808935339593338,0.001619308836364681
-0.07173466398843931,-0.004771092865109164,0.001619308836364681
-0.0717163539884393,-0.004771092865109164,0.001619308836364681
-0.07169804398843931,-0.004771092865109164,0.001619308836364681
-0.0716797339884393,-0.004771092865110673,0.001619308836364681
-0.0716614239884393,-0.00808935339593338,0.001619308836364681
-0.0716431139884393,-0.008089353395931871,0.001619308836364681
-0.0716248039884393,-0.004771092865109164,0.001619308836364681
-0.07160649398843931,-0.008089353395931871,0.001619308836364681
-0.0715881839884393,-0.00808935339593338,0.004971470791854065
-0.07156987398843931,-0.004771092865110673,0.001619308836366206
-0.0715515639884393,-0.004771092865109164,0.001619308836364681
-0.07153325398843931,-0.004771092865109164,0.001619308836364681
-0.0715149439884393,-0.004771092865109164,0.001619308836364681
-0.07149663398843931,-0.004771092865109164,0.001619308836364681
-0.0714783239884393,-0.004771092865109164,0.001619308836364681
-0.07146001398843931,-0.004771092865109164,0.001619308836364681
-0.0714417039884393,-0.004771092865109164,0.004971470791852541
-0.0714233939884393,-0.004771092865109164,0.001619308836364681
-0.0714050839884393,-0.004771092865109164,-0.001732853119123178
-0.0713867739884393,-0.004771092865109164,0.001619308836364681
-0.07136846398843931,-0.004771092865109164,0.001619308836364681
-0.0713501539884393,-0.004771092865109164,0.001619308836364681
-0.07133184398843931,-0.004771092865109164,0.001619308836364681
-0.0713135339884393,-0.004771092865109164,0.001619308836364681
-0.07129522398843931,-0.004771092865109164,0.001619308836364681
-0.0712769139884393,-0.00808935339593338,0.004971470791854065
-0.07125860398843931,-0.004771092865109164,0.004971470791854065
-0.0712402939884393,-0.004771092865110673,0.001619308836364681
-0.07122198398843931,-0.00808935339593338,0.001619308836364681
-0.0712036739884393,-0.004771092865109164,0.001619308836364681
-0.0711853639884393,-0.004771092865109164,0.001619308836364681
-0.07116705398843931,-0.004771092865109164,0.001619308836364681
-0.0711487439884393,-0.004771092865109164,0.001619308836364681
-0.07113043398843931,-0.004771092865109164,0.001619308836364681
-0.0711121239884393,-0.004771092865109164,0.001619308836364681
-0.07109381398843931,-0.008089353395931871,0.001619308836364681
-0.0710755039884393,-0.004771092865109164,0.001619308836364681
-0.07105719398843931,-0.004771092865109164,0.004971470791854065
-0.0710388839884393,-0.004771092865109164,-0.001732853119124703
-0.07102057398843931,-0.004771092865109164,0.001619308836364681
-0.0710022639884393,-0.004771092865109164,0.001619308836366206
-0.07098395398843931,-0.004771092865109164,0.004971470791854065
-0.0709656439884393,-0.004771092865109164,0.001619308836364681
-0.0709473339884393,-0.004771092865109164,0.001619308836364681
-0.07092902398843931,-0.004771092865109164,0.001619308836364681
-0.0709107139884393,-0.004771092865109164,0.001619308836364681
-0.07089240398843931,-0.004771092865109164,0.001619308836364681
-0.0708740939884393,-0.004771092865109164,0.001619308836364681
-0.07085578398843931,-0.004771092865109164,0.001619308836364681
-0.0708374739884393,-0.004771092865109164,0.001619308836364681
-0.07081916398843931,-0.004771092865109164,-0.001732853119124703
-0.0708008539884393,-0.004771092865109164,0.001619308836364681
-0.07078254398843931,-0.004771092865109164,0.001619308836364681
-0.0707642339884393,-0.004771092865109164,0.001619308836364681
-0.0707459239884393,-0.004771092865109164,0.001619308836364681
-0.0707276139884393,-0.008089353395931871,0.001619308836364681
-0.0707093039884393,-0.004771092865109164,0.001619308836364681
-0.07069099398843931,-0.004771092865109164,0.001619308836364681
-0.0706726839884393,-0.004771092865109164,0.001619308836364681
-0.07065437398843931,-0.008089353395931871,0.001619308836364681
-0.0706360639884393,-0.004771092865109164,0.001619308836364681
-0.07061775398843931,-0.004771092865109164,0.001619308836364681
-0.0705994439884393,-0.004771092865109164,0.001619308836364681
-0.07058113398843931,-0.004771092865109164,0.001619308836364681
-0.0705628239884393,-0.004771092865109164,-0.001732853119123178
-0.07054451398843931,-0.004771092865109164,0.001619308836364681
-0.0705262039884393,-0.004771092865109164,0.001619308836363157
-0.0705078939884393,-0.004771092865109164,-0.001732853119124703
-0.0704895839884393,-0.004771092865109164,0.001619308836364681
-0.0704712739884393,-0.004771092865109164,0.001619308836364681
-0.07045296398843931,-0.004771092865109164,0.001619308836364681
-0.0704346539884393,-0.004771092865109164,-0.001732853119124703
-0.07041634398843931,-0.004771092865109164,-0.001732853119124703
-0.0703980339884393,-0.004771092865109164,0.001619308836364681
-0.07037972398843931,-0.004771092865109164,0.001619308836364681
-0.0703614139884393,-0.004771092865109164,-0.001732853119124703
-0.07034310398843931,-0.004771092865109164,-0.001732853119124703
-0.0703247939884393,-0.008089353395931871,-0.001732853119124703
-0.07030648398843931,-0.004771092865109164,-0.001732853119124703
-0.0702881739884393,-0.004771092865110673,0.001619308836364681
-0.0702698639884393,-0.00808935339593338,0.001619308836364681
-0.0702515539884393,-0.008089353395931871,0.001619308836364681
-0.0702332439884393,-0.004771092865109164,0.001619308836364681
-0.07021493398843931,-0.004771092865109164,0.001619308836364681
-0.0701966239884393,-0.004771092865109164,0.001619308836364681
-0.07017831398843931,-0.008089353395931871,0.001619308836364681
-0.0701600039884393,-0.004771092865109164,0.001619308836364681
-0.07014169398843931,-0.00808935339593338,0.001619308836364681
-0.0701233839884393,-0.004771092865109164,0.001619308836364681
-0.07010507398843931,-0.00808935339593338,-0.001732853119124703
-0.0700867639884393,-0.004771092865109164,0.001619308836364681
-0.07006845398843931,-0.004771092865109164,0.001619308836364681
-0.0700501439884393,-0.004771092865109164,0.001619308836363157
-0.0700318339884393,-0.004771092865109164,-0.001732853119124703
-0.0700135239884393,-0.008089353395931871,0.001619308836363157
-0.0699952139884393,-0.004771092865109164,-0.001732853119124703
-0.06997690398843931,-0.004771092865109164,0.001619308836363157
-0.0699585939884393,-0.004771092865109164,-0.001732853119124703
-0.06994028398843931,-0.008089353395931871,0.001619308836363157
-0.0699219739884393,-0.004771092865109164,0.001619308836364681
-0.06990366398843931,-0.004771092865109164,0.001619308836364681
-0.0698853539884393,-0.00808935339593338,0.004971470791854065
-0.06986704398843931,-0.004771092865109164,0.001619308836364681
-0.0698487339884393,-0.008089353395931871,0.001619308836364681
-0.06983042398843931,-0.004771092865109164,0.001619308836364681
-0.0698121139884393,-0.004771092865109164,0.001619308836363157
-0.0697938039884393,-0.004771092865109164,-0.001732853119124703
-0.06977549398843931,-0.004771092865109164,0.001619308836363157
-0.0697571839884393,-0.004771092865109164,-0.001732853119124703
-0.06973887398843931,-0.008089353395931871,0.001619308836363157
-0.0697205639884393,-0.00808935339593338,0.001619308836364681
-0.06970225398843931,-0.00808935339593338,0.001619308836364681
-0.0696839439884393,-0.00808935339593338,-0.001732853119124703
-0.06966563398843931,-0.004771092865109164,0.001619308836364681
-0.0696473239884393,-0.004771092865109164,0.001619308836364681
-0.06962901398843931,-0.004771092865109164,0.001619308836364681
-0.0696107039884393,-0.004771092865109164,0.001619308836364681
-0.06959239398843931,-0.004771092865109164,0.001619308836364681
-0.0695740839884393,-0.004771092865109164,0.001619308836363157
-0.0695557739884393,-0.004771092865109164,-0.001732853119124703
-0.06953746398843931,-0.008089353395931871,0.001619308836363157
-0.0695191539884393,-0.004771092865109164,0.001619308836364681
-0.06950084398843931,-0.008089353395931871,0.001619308836364681
-0.0694825339884393,-0.004771092865109164,-0.001732853119124703
-0.06946422398843931,-0.004771092865109164,0.004971470791851017
-0.0694459139884393,-0.004771092865109164,0.001619308836364681
-0.06942760398843931,-0.00808935339593338,-0.001732853119124703
-0.0694092939884393,-0.004771092865109164,0.001619308836364681
-0.06939098398843931,-0.00808935339593338,0.001619308836364681
-0.0693726739884393,-0.004771092865110673,0.001619308836364681
-0.0693543639884393,-0.00808935339593338,0.001619308836364681
-0.0693360539884393,-0.00808935339593338,0.001619308836364681
-0.0693177439884393,-0.00808935339593338,0.001619308836364681
-0.06929943398843931,-0.004771092865110673,0.001619308836364681
-0.0692811239884393,-0.004771092865109164,-0.001732853119124703
-0.06926281398843931,-0.004771092865109164,-0.001732853119124703
-0.0692445039884393,-0.004771092865109164,0.001619308836364681
-0.06922619398843931,-0.008089353395931871,-0.001732853119123178
