System Dynamics/Lab/lab3/Lab3dataExperiment3.csv

#Digilent WaveForms Oscilloscope Acquisition,,,,,
#Device Name: Discovery2,,,,,
#Serial Number: SN:210321AFD7CC,,,,,
#Date Time: 2020-09-24 15:58:33.471,,,,,
#Sample rate: 54615Hz,,,,,
#Samples: 8192,,,,,
#Trigger: Source: Channel 1 Type: Edge Condition: Rising Level: 900 mV Hyst.: Auto HoldOff: 0 s,,,,,
#Channel 1: Range: 500 mV/div Offset: 0 V Attenuation: 10 X,,,,,
#Channel 2: Range: 200 mV/div Offset: 0 V Attenuation: 10 X,,,,,
#Wavegen Channel 1: Running,,,,,
#Mode: Simple,,,,,
#Type: Pulse,,,,,
#Frequency: 1 Hz,,,,,
#Period: 1 s,,,,,
#Amplitude: 2.5 V,,,,,
#Offset: 0 V,,,,,
#Symmetry: 0.4 %,,,,,
#Phase: 0 °,,,,,
,,,,,
Time (s),Channel 1 (V),Channel 2 (V),,,
-0.074800882,-0.008089353,0.004971471,0.003620001,-0.748008822,10
-0.074782572,-0.004771093,0.001619309,0.001179108,-0.747302244,9.993
-0.074764262,-0.004771093,0.001619309,0.001179108,-0.746595922,9.986
-0.074745952,-0.008089353,0.001619309,0.001179108,-0.745889857,9.979
-0.074727642,-0.004771093,0.001619309,0.001179108,-0.745184048,9.972
-0.074709332,-0.008089353,0.001619309,0.001179108,-0.744478495,9.965
-0.074691022,-0.004771093,0.001619309,0.001179108,-0.743773199,9.958
-0.074672712,-0.008089353,0.001619309,0.001179108,-0.743068159,9.951
-0.074654402,-0.008089353,0.001619309,0.001179108,-0.742363375,9.944
-0.074636092,-0.008089353,-0.001732853,-0.001261786,-0.741658848,9.937
-0.074617782,-0.008089353,0.001619309,0.001179108,-0.740954577,9.93
-0.074599472,-0.004771093,0.001619309,0.001179108,-0.740250562,9.923
-0.074581162,-0.004771093,0.001619309,0.001179108,-0.739546804,9.916
-0.074562852,-0.008089353,0.001619309,0.001179108,-0.738843302,9.909
-0.074544542,-0.008089353,0.001619309,0.001179108,-0.738140057,9.902
-0.074526232,-0.008089353,0.001619309,0.001179108,-0.737437067,9.895
-0.074507922,-0.008089353,0.001619309,0.001179108,-0.736734334,9.888
-0.074489612,-0.008089353,0.001619309,0.001179108,-0.736031858,9.881
-0.074471302,-0.008089353,0.001619309,0.001179108,-0.735329638,9.874
-0.074452992,-0.008089353,-0.001732853,-0.001261786,-0.734627674,9.867
-0.074434682,-0.008089353,0.001619309,0.001179108,-0.733925966,9.86
-0.074416372,-0.008089353,-0.001732853,-0.001261786,-0.733224515,9.853
-0.074398062,-0.008089353,0.001619309,0.001179108,-0.73252332,9.846
-0.074379752,-0.008089353,0.001619309,0.001179108,-0.731822382,9.839
-0.074361442,-0.004771093,0.001619309,0.001179108,-0.731121699,9.832
-0.074343132,-0.004771093,0.001619309,0.001179108,-0.730421274,9.825
-0.074324822,-0.008089353,0.001619309,0.001179108,-0.729721104,9.818
-0.074306512,-0.004771093,0.001619309,0.001179108,-0.729021191,9.811
-0.074288202,-0.008089353,0.001619309,0.001179108,-0.728321534,9.804
-0.074269892,-0.004771093,0.001619309,0.001179108,-0.727622134,9.797
-0.074251582,-0.008089353,0.001619309,0.001179108,-0.72692299,9.79
-0.074233272,-0.004771093,0.001619309,0.001179108,-0.726224102,9.783
-0.074214962,-0.004771093,0.001619309,0.001179108,-0.72552547,9.776
-0.074196652,-0.004771093,0.004971471,0.003620001,-0.724827095,9.769
-0.074178342,-0.004771093,0.001619309,0.001179108,-0.724128976,9.762
-0.074160032,-0.004771093,0.001619309,0.001179108,-0.723431114,9.755
-0.074141722,-0.004771093,0.001619309,0.001179108,-0.722733508,9.748
-0.074123412,-0.004771093,0.004971471,0.003620001,-0.722036158,9.741
-0.074105102,-0.008089353,0.001619309,0.001179108,-0.721339065,9.734
-0.074086792,-0.008089353,0.004971471,0.003620001,-0.720642228,9.727
-0.074068482,-0.004771093,0.001619309,0.001179108,-0.719945647,9.72
-0.074050172,-0.004771093,0.001619309,0.001179108,-0.719249322,9.713
-0.074031862,-0.004771093,0.001619309,0.001179108,-0.718553254,9.706
-0.074013552,-0.004771093,0.004971471,0.003620001,-0.717857443,9.699
-0.073995242,-0.008089353,0.004971471,0.003620001,-0.717161887,9.692
-0.073976932,-0.008089353,0.001619309,0.001179108,-0.716466588,9.685
-0.073958622,-0.004771093,0.001619309,0.001179108,-0.715771545,9.678
-0.073940312,-0.004771093,0.001619309,0.001179108,-0.715076759,9.671
-0.073922002,-0.008089353,-0.001732853,-0.001261786,-0.714382229,9.664
-0.073903692,-0.004771093,0.001619309,0.001179108,-0.713687955,9.657
-0.073885382,-0.004771093,0.001619309,0.001179108,-0.712993938,9.65
-0.073867072,-0.004771093,0.001619309,0.001179108,-0.712300177,9.643
-0.073848762,-0.004771093,0.001619309,0.001179108,-0.711606672,9.636
-0.073830452,-0.008089353,0.001619309,0.001179108,-0.710913424,9.629
-0.073812142,-0.008089353,0.001619309,0.001179108,-0.710220432,9.622
-0.073793832,-0.004771093,0.001619309,0.001179108,-0.709527696,9.615
-0.073775522,-0.004771093,0.001619309,0.001179108,-0.708835217,9.608
-0.073757212,-0.004771093,0.001619309,0.001179108,-0.708142994,9.601
-0.073738902,-0.004771093,0.001619309,0.001179108,-0.707451027,9.594
-0.073720592,-0.004771093,0.001619309,0.001179108,-0.706759317,9.587
-0.073702282,-0.004771093,0.001619309,0.001179108,-0.706067863,9.58
-0.073683972,-0.004771093,0.001619309,0.001179108,-0.705376666,9.573
-0.073665662,-0.004771093,0.004971471,0.003620001,-0.704685724,9.566
-0.073647352,-0.004771093,0.001619309,0.001179108,-0.703995039,9.559
-0.073629042,-0.004771093,0.001619309,0.001179108,-0.703304611,9.552
-0.073610732,-0.004771093,0.001619309,0.001179108,-0.702614439,9.545
-0.073592422,-0.008089353,0.004971471,0.003620001,-0.701924523,9.538
-0.073574112,-0.004771093,0.001619309,0.001179108,-0.701234863,9.531
-0.073555802,-0.004771093,0.004971471,0.003620001,-0.70054546,9.524
-0.073537492,-0.004771093,0.001619309,0.001179108,-0.699856313,9.517
-0.073519182,-0.008089353,0.001619309,0.001179108,-0.699167423,9.51
-0.073500872,-0.004771093,0.004971471,0.003620001,-0.698478788,9.503
-0.073482562,-0.008089353,0.001619309,0.001179108,-0.69779041,9.496
-0.073464252,-0.004771093,0.004971471,0.003620001,-0.697102289,9.489
-0.073445942,-0.004771093,0.004971471,0.003620001,-0.696414424,9.482
-0.073427632,-0.004771093,0.004971471,0.003620001,-0.695726815,9.475
-0.073409322,-0.004771093,0.001619309,0.001179108,-0.695039462,9.468
-0.073391012,-0.001452832,0.001619309,0.001179108,-0.694352366,9.461
-0.073372702,-0.004771093,0.004971471,0.003620001,-0.693665526,9.454
-0.073354392,-0.004771093,0.001619309,0.001179108,-0.692978943,9.447
-0.073336082,-0.004771093,0.004971471,0.003620001,-0.692292616,9.44
-0.073317772,-0.004771093,0.001619309,0.001179108,-0.691606545,9.433
-0.073299462,-0.004771093,0.001619309,0.001179108,-0.69092073,9.426
-0.073281152,-0.004771093,0.001619309,0.001179108,-0.690235172,9.419
-0.073262842,-0.004771093,0.001619309,0.001179108,-0.689549871,9.412
-0.073244532,-0.004771093,0.001619309,0.001179108,-0.688864825,9.405
-0.073226222,-0.004771093,0.001619309,0.001179108,-0.688180036,9.398
-0.073207912,-0.004771093,0.004971471,0.003620001,-0.687495503,9.391
-0.073189602,-0.008089353,0.004971471,0.003620001,-0.686811227,9.384
-0.073171292,-0.008089353,0.004971471,0.003620001,-0.686127207,9.377
-0.073152982,-0.004771093,0.004971471,0.003620001,-0.685443443,9.37
-0.073134672,-0.004771093,0.004971471,0.003620001,-0.684759936,9.363
-0.073116362,-0.004771093,0.004971471,0.003620001,-0.684076685,9.356
-0.073098052,-0.004771093,0.004971471,0.003620001,-0.68339369,9.349
-0.073079742,-0.004771093,0.001619309,0.001179108,-0.682710951,9.342
-0.073061432,-0.004771093,0.004971471,0.003620001,-0.682028469,9.335
-0.073043122,-0.004771093,0.004971471,0.003620001,-0.681346244,9.328
-0.073024812,-0.008089353,0.004971471,0.003620001,-0.680664274,9.321
-0.073006502,-0.004771093,0.004971471,0.003620001,-0.679982561,9.314
-0.072988192,-0.004771093,0.004971471,0.003620001,-0.679301105,9.307
-0.072969882,-0.004771093,0.004971471,0.003620001,-0.678619904,9.3
-0.072951572,-0.004771093,0.004971471,0.003620001,-0.67793896,9.293
-0.072933262,-0.004771093,0.004971471,0.003620001,-0.677258273,9.286
-0.072914952,-0.004771093,0.004971471,0.003620001,-0.676577841,9.279
-0.072896642,-0.004771093,0.004971471,0.003620001,-0.675897666,9.272
-0.072878332,-0.004771093,0.001619309,0.001179108,-0.675217748,9.265
-0.072860022,-0.004771093,0.001619309,0.001179108,-0.674538085,9.258
-0.072841712,-0.008089353,0.001619309,0.001179108,-0.673858679,9.251
-0.072823402,-0.004771093,0.001619309,0.001179108,-0.67317953,9.244
-0.072805092,-0.004771093,0.001619309,0.001179108,-0.672500636,9.237
-0.072786782,-0.008089353,0.001619309,0.001179108,-0.671822,9.23
-0.072768472,-0.004771093,0.004971471,0.003620001,-0.671143619,9.223
-0.072750162,-0.008089353,0.004971471,0.003620001,-0.670465495,9.216
-0.072731852,-0.008089353,0.004971471,0.003620001,-0.669787627,9.209
-0.072713542,-0.004771093,0.001619309,0.001179108,-0.669110015,9.202
-0.072695232,-0.004771093,0.001619309,0.001179108,-0.66843266,9.195
-0.072676922,-0.004771093,0.004971471,0.003620001,-0.667755561,9.188
-0.072658612,-0.004771093,0.004971471,0.003620001,-0.667078718,9.181
-0.072640302,-0.004771093,0.001619309,0.001179108,-0.666402132,9.174
-0.072621992,-0.004771093,0.001619309,0.001179108,-0.665725802,9.167
-0.072603682,-0.004771093,0.001619309,0.001179108,-0.665049729,9.16
-0.072585372,-0.004771093,0.001619309,0.001179108,-0.664373912,9.153
-0.072567062,-0.008089353,0.001619309,0.001179108,-0.663698351,9.146
-0.072548752,-0.004771093,0.001619309,0.001179108,-0.663023046,9.139
-0.072530442,-0.004771093,0.001619309,0.001179108,-0.662347998,9.132
-0.072512132,-0.004771093,0.001619309,0.001179108,-0.661673206,9.125
-0.072493822,-0.004771093,0.004971471,0.003620001,-0.660998671,9.118
-0.072475512,-0.004771093,0.004971471,0.003620001,-0.660324391,9.111
-0.072457202,-0.004771093,0.001619309,0.001179108,-0.659650369,9.104
-0.072438892,-0.004771093,0.004971471,0.003620001,-0.658976602,9.097
-0.072420582,-0.004771093,0.001619309,0.001179108,-0.658303092,9.09
-0.072402272,-0.004771093,0.001619309,0.001179108,-0.657629838,9.083
-0.072383962,-0.008089353,0.001619309,0.001179108,-0.656956841,9.076
-0.072365652,-0.008089353,0.004971471,0.003620001,-0.6562841,9.069
-0.072347342,-0.004771093,0.004971471,0.003620001,-0.655611615,9.062
-0.072329032,-0.004771093,0.001619309,0.001179108,-0.654939386,9.055
-0.072310722,-0.004771093,0.004971471,0.003620001,-0.654267414,9.048
-0.072292412,-0.004771093,0.001619309,0.001179108,-0.653595699,9.041
-0.072274102,-0.008089353,0.004971471,0.003620001,-0.652924239,9.034
-0.072255792,-0.004771093,0.004971471,0.003620001,-0.652253036,9.027
-0.072237482,-0.004771093,0.004971471,0.003620001,-0.651582089,9.02
-0.072219172,-0.004771093,0.004971471,0.003620001,-0.650911399,9.013
-0.072200862,-0.004771093,0.004971471,0.003620001,-0.650240965,9.006
-0.072182552,-0.008089353,0.004971471,0.003620001,-0.649570787,8.999
-0.072164242,-0.008089353,0.004971471,0.003620001,-0.648900866,8.992
-0.072145932,-0.004771093,0.001619309,0.001179108,-0.648231201,8.985
-0.072127622,-0.004771093,0.001619309,0.001179108,-0.647561792,8.978
-0.072109312,-0.001452832,0.004971471,0.003620001,-0.64689264,8.971
-0.072091002,-0.004771093,0.004971471,0.003620001,-0.646223744,8.964
-0.072072692,-0.004771093,0.004971471,0.003620001,-0.645555104,8.957
-0.072054382,-0.001452832,0.004971471,0.003620001,-0.64488672,8.95
-0.072036072,-0.001452832,0.001619309,0.001179108,-0.644218593,8.943
-0.072017762,-0.001452832,0.004971471,0.003620001,-0.643550723,8.936
-0.071999452,-0.004771093,0.004971471,0.003620001,-0.642883108,8.929
-0.071981142,-0.004771093,0.004971471,0.003620001,-0.642215751,8.922
-0.071962832,-0.004771093,0.004971471,0.003620001,-0.641548649,8.915
-0.071944522,-0.004771093,0.001619309,0.001179108,-0.640881804,8.908
-0.071926212,-0.008089353,0.001619309,0.001179108,-0.640215215,8.901
-0.071907902,-0.004771093,0.001619309,0.001179108,-0.639548882,8.894
-0.071889592,-0.004771093,0.001619309,0.001179108,-0.638882806,8.887
-0.071871282,-0.004771093,0.004971471,0.003620001,-0.638216986,8.88
-0.071852972,-0.004771093,0.001619309,0.001179108,-0.637551422,8.873
-0.071834662,-0.004771093,0.004971471,0.003620001,-0.636886115,8.866
-0.071816352,-0.004771093,0.001619309,0.001179108,-0.636221064,8.859
-0.071798042,-0.004771093,0.004971471,0.003620001,-0.635556269,8.852
-0.071779732,-0.004771093,0.004971471,0.003620001,-0.634891731,8.845
-0.071761422,-0.004771093,0.004971471,0.003620001,-0.634227449,8.838
-0.071743112,-0.008089353,0.004971471,0.003620001,-0.633563424,8.831
-0.071724802,-0.004771093,0.001619309,0.001179108,-0.632899654,8.824
-0.071706492,-0.004771093,0.001619309,0.001179108,-0.632236142,8.817
-0.071688182,-0.004771093,0.001619309,0.001179108,-0.631572885,8.81
-0.071669872,-0.004771093,0.004971471,0.003620001,-0.630909885,8.803
-0.071651562,-0.004771093,0.001619309,0.001179108,-0.630247141,8.796
-0.071633252,-0.004771093,0.001619309,0.001179108,-0.629584653,8.789
-0.071614942,-0.004771093,0.001619309,0.001179108,-0.628922422,8.782
-0.071596632,-0.004771093,0.004971471,0.003620001,-0.628260447,8.775
-0.071578322,-0.004771093,0.004971471,0.003620001,-0.627598729,8.768
-0.071560012,-0.004771093,0.004971471,0.003620001,-0.626937267,8.761
-0.071541702,-0.004771093,0.001619309,0.001179108,-0.626276061,8.754
-0.071523392,-0.008089353,0.004971471,0.003620001,-0.625615111,8.747
-0.071505082,-0.004771093,0.001619309,0.001179108,-0.624954418,8.74
-0.071486772,-0.001452832,0.004971471,0.003620001,-0.624293981,8.733
-0.071468462,-0.001452832,0.004971471,0.003620001,-0.623633801,8.726
-0.071450152,-0.004771093,0.001619309,0.001179108,-0.622973877,8.719
-0.071431842,-0.004771093,0.001619309,0.001179108,-0.622314209,8.712
-0.071413532,-0.004771093,0.004971471,0.003620001,-0.621654798,8.705
-0.071395222,-0.004771093,0.004971471,0.003620001,-0.620995643,8.698
-0.071376912,-0.004771093,0.001619309,0.001179108,-0.620336744,8.691
-0.071358602,-0.004771093,0.004971471,0.003620001,-0.619678101,8.684
-0.071340292,-0.004771093,0.001619309,0.001179108,-0.619019715,8.677
-0.071321982,-0.004771093,0.004971471,0.003620001,-0.618361585,8.67
-0.071303672,-0.004771093,0.004971471,0.003620001,-0.617703712,8.663
-0.071285362,-0.004771093,0.004971471,0.003620001,-0.617046095,8.656
-0.071267052,-0.004771093,0.004971471,0.003620001,-0.616388734,8.649
-0.071248742,-0.001452832,0.001619309,0.001179108,-0.61573163,8.642
-0.071230432,-0.004771093,0.004971471,0.003620001,-0.615074782,8.635
-0.071212122,-0.004771093,0.004971471,0.003620001,-0.61441819,8.628
-0.071193812,-0.004771093,0.001619309,0.001179108,-0.613761855,8.621
-0.071175502,-0.004771093,0.001619309,0.001179108,-0.613105776,8.614
-0.071157192,-0.001452832,0.001619309,0.001179108,-0.612449953,8.607
-0.071138882,-0.004771093,0.001619309,0.001179108,-0.611794387,8.6
-0.071120572,-0.004771093,0.001619309,0.001179108,-0.611139077,8.593
-0.071102262,-0.004771093,0.001619309,0.001179108,-0.610484023,8.586
-0.071083952,-0.004771093,0.001619309,0.001179108,-0.609829226,8.579
-0.071065642,-0.004771093,0.001619309,0.001179108,-0.609174685,8.572
-0.071047332,-0.004771093,0.001619309,0.001179108,-0.6085204,8.565
-0.071029022,-0.004771093,0.001619309,0.001179108,-0.607866372,8.558
-0.071010712,-0.004771093,0.001619309,0.001179108,-0.6072126,8.551
-0.070992402,-0.004771093,0.004971471,0.003620001,-0.606559084,8.544
-0.070974092,-0.004771093,0.001619309,0.001179108,-0.605905825,8.537
-0.070955782,-0.004771093,0.001619309,0.001179108,-0.605252822,8.53
-0.070937472,-0.004771093,0.004971471,0.003620001,-0.604600075,8.523
-0.070919162,-0.004771093,0.001619309,0.001179108,-0.603947585,8.516
-0.070900852,-0.004771093,0.001619309,0.001179108,-0.603295351,8.509
-0.070882542,-0.004771093,0.001619309,0.001179108,-0.602643374,8.502
-0.070864232,-0.004771093,0.001619309,0.001179108,-0.601991652,8.495
-0.070845922,-0.004771093,0.004971471,0.003620001,-0.601340187,8.488
-0.070827612,-0.004771093,0.004971471,0.003620001,-0.600688979,8.481
-0.070809302,-0.004771093,0.004971471,0.003620001,-0.600038027,8.474
-0.070790992,-0.004771093,0.001619309,0.001179108,-0.599387331,8.467
-0.070772682,-0.004771093,0.004971471,0.003620001,-0.598736891,8.46
-0.070754372,-0.004771093,0.004971471,0.003620001,-0.598086708,8.453
-0.070736062,-0.004771093,0.004971471,0.003620001,-0.597436781,8.446
-0.070717752,-0.004771093,0.001619309,0.001179108,-0.596787111,8.439
-0.070699442,-0.001452832,0.001619309,0.001179108,-0.596137696,8.432
-0.070681132,-0.004771093,0.001619309,0.001179108,-0.595488539,8.425
-0.070662822,-0.004771093,0.004971471,0.003620001,-0.594839637,8.418
-0.070644512,-0.004771093,0.004971471,0.003620001,-0.594190992,8.411
-0.070626202,-0.004771093,0.004971471,0.003620001,-0.593542603,8.404
-0.070607892,-0.004771093,0.001619309,0.001179108,-0.592894471,8.397
-0.070589582,-0.001452832,0.001619309,0.001179108,-0.592246594,8.39
-0.070571272,-0.004771093,-0.001732853,-0.001261786,-0.591598975,8.383
-0.070552962,-0.004771093,0.001619309,0.001179108,-0.590951611,8.376
-0.070534652,-0.004771093,0.001619309,0.001179108,-0.590304504,8.369
-0.070516342,-0.004771093,0.001619309,0.001179108,-0.589657653,8.362
-0.070498032,-0.004771093,0.001619309,0.001179108,-0.589011059,8.355
-0.070479722,-0.004771093,0.004971471,0.003620001,-0.588364721,8.348
-0.070461412,-0.004771093,0.001619309,0.001179108,-0.587718639,8.341
-0.070443102,-0.004771093,0.001619309,0.001179108,-0.587072814,8.334
-0.070424792,-0.001452832,0.001619309,0.001179108,-0.586427244,8.327
-0.070406482,-0.004771093,0.001619309,0.001179108,-0.585781932,8.32
-0.070388172,-0.004771093,0.001619309,0.001179108,-0.585136875,8.313
-0.070369862,-0.004771093,0.004971471,0.003620001,-0.584492075,8.306
-0.070351552,-0.004771093,0.001619309,0.001179108,-0.583847532,8.299
-0.070333242,-0.004771093,0.001619309,0.001179108,-0.583203244,8.292
-0.070314932,-0.001452832,0.001619309,0.001179108,-0.582559213,8.285
-0.070296622,-0.004771093,0.001619309,0.001179108,-0.581915438,8.278
-0.070278312,-0.001452832,0.001619309,0.001179108,-0.58127192,8.271
-0.070260002,-0.004771093,0.004971471,0.003620001,-0.580628658,8.264
-0.070241692,-0.001452832,0.001619309,0.001179108,-0.579985652,8.257
-0.070223382,-0.004771093,0.004971471,0.003620001,-0.579342903,8.25
-0.070205072,-0.004771093,0.004971471,0.003620001,-0.57870041,8.243
-0.070186762,-0.004771093,0.001619309,0.001179108,-0.578058173,8.236
-0.070168452,-0.004771093,0.001619309,0.001179108,-0.577416193,8.229
-0.070150142,-0.004771093,0.004971471,0.003620001,-0.576774469,8.222
-0.070131832,-0.004771093,0.001619309,0.001179108,-0.576133001,8.215
-0.070113522,-0.004771093,0.004971471,0.003620001,-0.57549179,8.208
-0.070095212,-0.008089353,0.001619309,0.001179108,-0.574850835,8.201
-0.070076902,-0.004771093,0.001619309,0.001179108,-0.574210136,8.194
-0.070058592,-0.004771093,0.001619309,0.001179108,-0.573569694,8.187
-0.070040282,-0.004771093,0.004971471,0.003620001,-0.572929508,8.18
-0.070021972,-0.004771093,0.001619309,0.001179108,-0.572289579,8.173
-0.070003662,-0.004771093,0.004971471,0.003620001,-0.571649905,8.166
-0.069985352,-0.004771093,0.001619309,0.001179108,-0.571010488,8.159
-0.069967042,-0.004771093,0.001619309,0.001179108,-0.570371328,8.152
-0.069948732,-0.004771093,0.001619309,0.001179108,-0.569732424,8.145
-0.069930422,-0.004771093,0.001619309,0.001179108,-0.569093776,8.138
-0.069912112,-0.001452832,0.004971471,0.003620001,-0.568455384,8.131
-0.069893802,-0.004771093,0.001619309,0.001179108,-0.567817249,8.124
-0.069875492,-0.004771093,0.004971471,0.003620001,-0.56717937,8.117
-0.069857182,-0.004771093,0.004971471,0.003620001,-0.566541747,8.11
-0.069838872,-0.004771093,0.001619309,0.001179108,-0.565904381,8.103
-0.069820562,-0.004771093,0.001619309,0.001179108,-0.565267271,8.096
-0.069802252,-0.004771093,0.001619309,0.001179108,-0.564630418,8.089
-0.069783942,-0.008089353,0.001619309,0.001179108,-0.563993821,8.082
-0.069765632,-0.004771093,0.004971471,0.003620001,-0.56335748,8.075
-0.069747322,-0.004771093,0.001619309,0.001179108,-0.562721395,8.068
-0.069729012,-0.004771093,0.001619309,0.001179108,-0.562085567,8.061
-0.069710702,-0.004771093,0.004971471,0.003620001,-0.561449995,8.054
-0.069692392,-0.004771093,0.001619309,0.001179108,-0.56081468,8.047
