System Dynamics/Lab/lab4derrick/Ex4.csv

#Digilent WaveForms Oscilloscope Acquisition
#Device Name: Discovery2
#Serial Number: SN:210321AF1885
#Date Time: 2020-10-08 16:10:25.848
#Sample rate: 10000Hz
#Samples: 8192
#Trigger: Source: Channel 1 Type: Edge Condition: Rising Level: 0 V Hyst.: Auto HoldOff: 0 s
#Channel 1: Range: 500 mV/div Offset: 0 V Attenuation: 10 X
#Channel 2: Range: 500 mV/div Offset: 0 V Attenuation: 10 X
#Wavegen Channel 1: Running
#Mode: Simple
#Type: Noise
#Frequency: 1 kHz
#Period: 1 ms
#Amplitude: 5 V
#Offset: 0 V

Time (s),Channel 1 (V),Channel 2 (V)
-0.05863750000000001,-0.7397091601339846,4.796423203627407
-0.05853749999999996,-0.7027336521391303,4.799770265960967
-0.05843749999999998,-0.6691195539620194,4.803117328294523
-0.05833749999999999,-0.6321440459671805,4.803117328294523
-0.0582375,-0.6119755870609048,2.828350551495485
-0.05813750000000001,-0.6018913576077669,0.6494129723494282
-0.05803749999999996,-0.5884457183369134,0.5255716660077693
-0.05793749999999998,-0.5817228987014912,0.4720186686708706
-0.05783749999999999,-0.5716386692483534,0.4452421700024091
-0.0577375,-0.5682772594306407,0.435200983001736
-0.05763750000000001,-0.5615544397952155,0.4318539206681783
-0.05753749999999996,-0.551470210342076,0.4285068583346192
-0.05743749999999997,-0.5481088005243649,0.4251597960010629
-0.05733749999999999,-0.5413859808889397,0.4251597960010629
-0.0572375,-0.538024571071227,0.4619774816701976
-0.05713750000000001,-0.5313017514358018,0.5021422296728898
-0.05703749999999996,-0.5245789318003751,0.5021422296728913
-0.05693749999999997,-0.5212175219826639,0.5054892920064475
-0.05683749999999999,-0.5144947023472387,0.5054892920064475
-0.0567375,-0.5077718827118135,0.5054892920064475
-0.05663750000000001,-0.5010490630763882,0.5054892920064475
-0.05653749999999996,-0.4943262434409599,0.5054892920064475
-0.05643749999999997,-0.4876034238055377,0.5054892920064475
-0.05633749999999998,-0.4808806041701124,0.5054892920064475
-0.0562375,-0.4741577845346872,0.8401955253622166
-0.05613750000000001,-0.4640735550815493,1.21171944438712
-0.05603749999999996,-0.4539893256284068,1.231801818388471
-0.05593749999999997,-0.4439050961752736,1.24184300538914
-0.05583749999999998,-0.4338208667221357,1.245190067722697
-0.0557375,-0.4237366372689978,1.248537130056255
-0.05563750000000001,-0.4102909979981473,1.248537130056255
-0.05553749999999996,-0.4002067685450048,1.248537130056257
-0.05543749999999997,-0.3901225390918716,1.251884192389813
-0.05533749999999998,-0.3800383096387337,1.251884192389813
-0.05523749999999999,-0.3699540801855958,1.034325140708563
-0.05513750000000001,-0.3632312605501706,0.7966837150259666
-0.05503750000000002,-0.3565084409147484,0.7832954656917419
-0.05493749999999997,-0.3497856212793201,0.7766013410246204
-0.05483749999999998,-0.3430628016438948,0.7732542786910628
-0.05473749999999999,-0.3363399820084696,0.7732542786910628
-0.05463750000000001,-0.3296171623730443,0.7699072163575051
-0.05453750000000002,-0.3228943427376221,0.7699072163575051
-0.05443749999999997,-0.3161715231021938,0.7699072163575051
-0.05433749999999998,-0.3094487034667686,0.7699072163575051
-0.05423749999999999,-0.2926416543782054,2.450132507803466
-0.05413750000000001,-0.2623889660187919,4.311099165261542
-0.05403750000000002,-0.2388590972948142,4.414858097601783
-0.05393749999999997,-0.2119678187531025,4.461716970271638
-0.05383749999999998,-0.1817151303936889,4.485146406606542
-0.05373749999999999,-0.1548238518519879,4.491840531273658
-0.0536375,-0.1245711634925743,4.498534655940773
-0.05353750000000002,-0.09767988495088549,4.501881718274329
-0.05343749999999997,-0.07078860640917227,4.501881718274331
-0.05333749999999998,-0.04053591804975865,4.501881718274331
-0.05323749999999999,-0.03717450823204603,0.8100719643601973
-0.0531375,-0.05398155732060915,-3.269997020246628
-0.05303750000000002,-0.06406578677374244,-3.497597258928448
-0.05293749999999997,-0.08423424568002277,-3.604703253602397
-0.05283749999999998,-0.1044027045862985,-3.651562126272205
-0.05273749999999999,-0.1245711634925743,-3.674991562607109
-0.0526375,-0.1481010322165626,-3.681685687274224
-0.05253750000000001,-0.1682694911228292,-3.688379811941336
-0.05243749999999997,-0.1917993598468267,-3.691726874274897
-0.05233749999999998,-0.2119678187531025,-3.691726874274897
-0.05223749999999999,-0.2354976874770909,-3.926021237623936
-0.0521375,-0.2590275562010792,-4.190439161974993
-0.05203750000000001,-0.2825574249250569,-4.203827411309217
-0.05193749999999997,-0.3094487034667686,-4.21052153597634
-0.05183749999999998,-0.3329785721907569,-4.213868598309897
-0.05173749999999999,-0.3565084409147453,-4.217215660643455
-0.0516375,-0.3833997194564463,-4.217215660643455
-0.05153750000000001,-0.406929588180424,-4.217215660643455
-0.05143749999999997,-0.4304594569044231,-4.217215660643455
-0.05133749999999998,-0.4539893256284114,-4.217215660643455
-0.05123749999999999,-0.4741577845346872,-3.74527987161182
-0.0511375,-0.4909648336232503,-3.213096960576147
-0.05103750000000001,-0.5077718827118058,-3.182973399574142
-0.05093749999999997,-0.5279403416180892,-3.169585150239898
-0.05083749999999998,-0.5413859808889397,-3.162891025572782
-0.05073749999999999,-0.5581930299775029,-3.159543963239224
-0.0506375,-0.575000079066066,-3.159543963239224
-0.05053750000000001,-0.5884457183369104,-3.159543963239224
-0.05043749999999997,-0.6052527674254796,-3.159543963239224
-0.05033749999999998,-0.6220598165140427,-3.159543963239224
-0.05023749999999999,-0.6287826361494679,-2.001460395828263
-0.0501375,-0.6321440459671805,-0.712841397408552
-0.05003750000000001,-0.6355054557848916,-0.6392060260703164
-0.04993749999999997,-0.6355054557848931,-0.6057354027347059
-0.04983749999999998,-0.6355054557848931,-0.5890000910669175
-0.04973749999999999,-0.6355054557848931,-0.5823059663998021
-0.0496375,-0.6355054557848931,-0.5789589040662444
-0.04953750000000001,-0.6355054557848931,-0.5789589040662444
-0.04943749999999997,-0.6355054557848931,-0.5789589040662444
-0.04933749999999998,-0.6355054557848931,-0.5789589040662444
-0.04923749999999999,-0.6254212263317553,0.943954457702505
-0.0491375,-0.6052527674254796,2.637567998482697
-0.04903750000000001,-0.5884457183369165,2.731285743822312
-0.04893749999999997,-0.5682772594306407,2.774797554158562
-0.04883749999999998,-0.5481088005243649,2.794879928159908
-0.04873749999999999,-0.5279403416180892,2.804921115160581
-0.0486375,-0.5077718827118135,2.808268177494139
-0.04853750000000001,-0.4876034238055377,2.811615239827697
-0.04843749999999997,-0.4674349648992619,2.811615239827697
-0.04833749999999998,-0.4439050961752736,2.811615239827697
-0.04823749999999999,-0.4338208667221357,1.452707932403274
-0.0481375,-0.4338208667221357,-0.05681718003124458
-0.04803750000000001,-0.4270980470867105,-0.1404937383701869
-0.04793749999999997,-0.4203752274512852,-0.1773114240393291
-0.04783749999999998,-0.4203752274512852,-0.1940467357071099
-0.04773749999999999,-0.4170138176335725,-0.204087922707783
-0.0476375,-0.4170138176335725,-0.2074349850413407
-0.04753750000000001,-0.4170138176335725,-0.2107820473748984
-0.04743749999999997,-0.4136524078158599,-0.2107820473748984
-0.04733749999999998,-0.4136524078158599,-0.2107820473748984
-0.04723749999999999,-0.4237366372689978,-1.803983718148359
-0.0471375,-0.4405436863575609,-3.561191443266147
-0.04703750000000001,-0.457350735446124,-3.65825625093932
-0.04693749999999997,-0.477519194352409,-3.705115123609137
-0.04683749999999998,-0.4976876532586755,-3.725197497610474
-0.04673749999999999,-0.5144947023472387,-3.73189162227759
-0.0466375,-0.5346631612535144,-3.738585746944705
-0.04653750000000001,-0.5548316201597903,-3.738585746944705
-0.04643749999999996,-0.5750000790660752,-3.741932809278262
-0.04633749999999998,-0.5951685379723417,-3.741932809278262
-0.04623749999999999,-0.5918071281546291,-0.3145409797151868
-0.0461375,-0.5682772594306407,3.534580703876158
-0.04603750000000001,-0.5514702103420775,3.74879269322385
-0.04593749999999996,-0.5279403416180786,3.845857500897043
-0.04583749999999998,-0.5044104728941008,3.889369311233273
-0.04573749999999999,-0.4775191943523998,3.909451685234619
-0.0456375,-0.4506279158106988,3.919492872235292
-0.04553750000000001,-0.4237366372689978,3.92283993456885
-0.04543749999999996,-0.396845358727283,3.926186996902409
-0.04533749999999998,-0.3665926703678832,3.929534059235965
-0.04523749999999999,-0.3397013918261822,4.116969549915196
-0.0451375,-0.3128101132844812,4.324487414595773
-0.04503750000000001,-0.2825574249250676,4.337875663930004
-0.04493749999999996,-0.2556661463833528,4.341222726263563
-0.04483749999999997,-0.225413458023953,4.344569788597119
-0.04473749999999999,-0.198522179482252,4.347916850930677
-0.0446375,-0.1682694911228384,4.347916850930677
-0.04453750000000001,-0.1413782125811374,4.347916850930677
-0.04443749999999996,-0.1111255242217131,4.347916850930677
-0.04433749999999997,-0.08759565549773539,4.347916850930677
-0.04423749999999999,-0.06742719659145964,3.109503787514331
-0.0441375,-0.05398155732060915,1.727167043755005
-0.04403750000000001,-0.04053591804975865,1.650184610083178
-0.04393749999999996,-0.03045168859661619,1.616713986747593
-0.04383749999999997,-0.02036745914348291,1.599978675079813
-0.04373749999999998,-0.01028322969034503,1.593284550412697
-0.0436375,-0.0001990002372071614,1.589937488079139
-0.04353750000000001,0.01324663903364334,1.586590425745582
-0.04343749999999996,0.0233308684867858,1.589937488079138
-0.04333749999999997,0.03341509793991908,1.586590425745582
-0.04323749999999998,0.02669227830449383,-0.4584646600581676
-0.0431375,0.009885229215930711,-2.727772922210282
-0.04303750000000001,-0.0001990002372071614,-2.854961290885474
-0.04293749999999996,-0.01700604932577792,-2.911861350555967
-0.04283749999999997,-0.0338130984143334,-2.938637849224417
-0.04273749999999998,-0.05398155732060915,-2.94867903622509
-0.04263749999999999,-0.07078860640917227,-2.955373160892205
-0.04253750000000001,-0.08759565549773539,-2.958720223225763
-0.04243750000000002,-0.107764114404002,-2.958720223225763
-0.04233749999999997,-0.1245711634925743,-2.96206728555932
-0.04223749999999998,-0.1279325733102869,-0.8735003894193212
-0.04213749999999999,-0.1212097536748616,1.435972620735486
-0.04203750000000001,-0.1144869340394364,1.566508051744236
-0.04193750000000002,-0.1077641144040142,1.623408111414691
-0.04183749999999997,-0.09767988495087326,1.650184610083178
-0.04173749999999998,-0.08759565549773539,1.663572859417409
-0.04163749999999999,-0.07751142604459751,1.670266984084524
-0.0415375,-0.06742719659145964,1.670266984084524
-0.04143750000000002,-0.05734296713832636,1.67361404641808
-0.04133749999999997,-0.04389732786747128,1.673614046418082
-0.04123749999999998,-0.03717450823204603,0.9941603927058704
-0.04113749999999999,-0.03717450823204603,0.2276831183211592
-0.0410375,-0.0338130984143334,0.1841713079849092
-0.04093750000000002,-0.03045168859662231,0.1640889339835722
-0.04083749999999997,-0.03045168859662078,0.1540477469828899
-0.04073749999999998,-0.02709027877890816,0.1507006846493323
-0.04063749999999999,-0.02709027877890816,0.1473536223157746
-0.0405375,-0.02709027877890816,0.1473536223157746
-0.04043750000000002,-0.02372886896119706,0.1473536223157746
-0.04033749999999997,-0.02372886896119553,0.1473536223157746
-0.04023749999999998,-0.01028322969034503,2.071914464111447
-0.04013749999999999,0.01324663903364334,4.2274226069226
-0.0400375,0.03341509793991908,4.351263913264234
-0.03993750000000001,0.06030637648160785,4.404816910601133
-0.03983749999999997,0.08719765502332107,4.431593409269619
-0.03973749999999998,0.1107275237473094,4.441634596270292
-0.03963749999999999,0.1376188022890104,4.448328720937408
-0.0395375,0.1645100808307114,4.448328720937408
-0.03943750000000001,0.1914013593724002,4.451675783270963
-0.03933749999999997,0.2182926379141134,4.451675783270965
-0.03923749999999998,0.2317382771849639,2.075261526445004
-0.03913749999999999,0.2283768673672513,-0.5756118417326868
-0.0390375,0.2283768673672513,-0.7228825844092251
-0.03893750000000001,0.2250154575495402,-0.7898238310803485
-0.03883749999999997,0.2182926379141134,-0.8232944544159558
-0.03873749999999998,0.2149312280964008,-0.8366827037501866
-0.03863749999999999,0.2082084084609755,-0.843376828417302
-0.0385375,0.2014855888255503,-0.8467238907508597
-0.03843750000000001,0.1947627691901281,-0.8467238907508597
-0.03833749999999997,0.1880399495546998,-0.8500709530844174
-0.03823749999999998,0.194762769190125,1.54642567774289
-0.03813749999999999,0.2182926379141134,4.210687295254812
-0.0380375,0.2384610968203892,4.361305100264907
-0.03793750000000001,0.2619909655443668,4.428246346936031
-0.03783749999999997,0.2888822440860785,4.461716970271638
-0.03773749999999998,0.3124121128100669,4.475105219605869
-0.03763749999999999,0.3393033913517679,4.481799344272984
-0.0375375,0.3628332600757563,4.485146406606542
-0.03743750000000001,0.389724538617445,4.485146406606542
-0.03733749999999997,0.4132544073414456,4.485146406606542
-0.03723749999999998,0.4233386367945835,1.797455352759716
-0.03713749999999999,0.4132544073414456,-1.178083061773071
-0.0370375,0.409892997523733,-1.345436178450956
-0.03693750000000001,0.4031701778883078,-1.419071549789225
-0.03683749999999997,0.3897245386174573,-1.455889235458359
-0.03673749999999998,0.3796403091643194,-1.472624547126148
-0.03663749999999999,0.3695560797111815,-1.479318671793263
-0.0365375,0.356110440440331,-1.482665734126821
-0.03643750000000001,0.3460262109871932,-1.486012796460379
-0.03633749999999997,0.3325805717163426,-1.486012796460379
-0.03623749999999998,0.3191349324454922,-2.285960694180667
-0.03613749999999999,0.2989664735392164,-3.16623808790634
-0.0360375,0.2787980146329407,-3.216444022909705
-0.03593750000000001,0.2586295557266649,-3.239873459244609
-0.03583749999999997,0.2350996870026658,-3.249914646245283
-0.03573749999999998,0.2115698182786881,-3.25326170857884
-0.03563749999999999,0.1914013593724124,-3.256608770912397
-0.0355375,0.1712329004661367,-3.259955833245955
-0.03543750000000001,0.1477030317421483,-3.259955833245955
-0.03533749999999997,0.1241731630181523,-3.259955833245877
-0.03523749999999998,0.1073661139295968,-3.089255654234513
-0.03513749999999999,0.08719765502332107,-2.895126038888167
-0.0350375,0.07039060593475795,-2.885084851887494
-0.03493750000000001,0.0502221470284822,-2.881737789553936
-0.03483749999999997,0.03005368812219881,-2.881737789553934
-0.03473749999999998,0.01324663903364334,-2.878390727220378
-0.03463749999999999,-0.003560410054919786,-2.878390727220378
-0.0345375,-0.02372886896119553,-2.878390727220378
-0.03443750000000001,-0.04053591804975865,-2.878390727220378
-0.03433749999999997,-0.05734296713832483,-2.878390727219681
-0.03423749999999998,-0.06406578677374702,-1.345436178450956
-0.03413749999999999,-0.06070437695603439,0.3682597363305822
-0.0340375,-0.06406578677374702,0.4653245440037552
-0.03393750000000001,-0.06406578677374702,0.5054892920064475
-0.03383749999999996,-0.06070437695603287,0.5289187283413543
-0.03373749999999998,-0.05734296713832177,0.5356128530084667
-0.03363749999999999,-0.05398155732060915,0.5389599153420244
-0.0335375,-0.05062014750289653,0.5423069776755821
-0.03343750000000001,-0.04389732786747128,0.5423069776755821
-0.03333749999999996,-0.04053591804975559,0.5456540400093361
-0.03323749999999998,-0.0338130984143334,0.9774250810380819
-0.03313749999999999,-0.02709027877890816,1.45940205707039
-0.0330375,-0.01700604932577028,1.486178555738851
-0.03293750000000001,-0.01028322969034503,1.50291386740664
-0.03283749999999996,-0.0001990002372025757,1.506260929740199
-0.03273749999999997,0.009885229215930711,1.509607992073755
-0.03263749999999999,0.01996945866906858,1.509607992073755
-0.0325375,0.03005368812220646,1.509607992073755
-0.03243750000000001,0.04013791757534433,1.512955054407313
-0.03233749999999996,0.04686073721077111,1.51295505440673
-0.03223749999999997,0.0502221470284822,0.2310301806547169
-0.03213749999999999,0.04349932739305695,-1.191471311107302
-0.0320375,0.03677650775763171,-1.271800807112686
-0.03193750000000001,0.03005368812220646,-1.305271430448263
-0.03183749999999996,0.02333086848677815,-1.322006742116055
-0.03173749999999997,0.01660804885135596,-1.328700866783167
-0.03163749999999999,0.006523819398218087,-1.332047929116725
-0.0315375,-0.003560410054919786,-1.335394991450283
-0.03143750000000001,-0.01028322969034503,-1.335394991450283
-0.03133749999999996,-0.02036745914348444,-1.335394991450018
-0.03123749999999997,-0.02372886896119553,-0.7530061454112443
-0.03113749999999998,-0.02372886896119553,-0.1103701773681676
-0.0310375,-0.02709027877890816,-0.07355249169903304
-0.03093750000000001,-0.02709027877890816,-0.05681718003124458
-0.03083749999999996,-0.02709027877890816,-0.04677599303056999
-0.03073749999999997,-0.02709027877890816,-0.04342893069701381
-0.03063749999999998,-0.03045168859662078,-0.04342893069701381
-0.0305375,-0.02709027877890816,-0.04342893069701381
-0.03043750000000001,-0.02709027877890816,-0.04342893069701381
-0.03033749999999996,-0.03045168859661619,-0.0434289306963304
-0.03023749999999997,-0.02036745914348291,1.45940205707039
-0.03013749999999998,-0.0001990002372071614,3.149668535517023
-0.03003749999999999,0.01660804885135596,3.246733343190197
-0.02993750000000001,0.03341509793991908,3.286898091192889
-0.02983750000000002,0.05358355684618565,3.306980465194226
-0.02973749999999997,0.07375201575247058,3.317021652194908
-0.02963749999999998,0.09392047465874633,3.320368714528465
-0.02953749999999999,0.1140889335650221,3.323715776862023
-0.02943750000000001,0.1342573924712978,3.323715776862023
-0.02933750000000002,0.1544258513775644,3.327062839195579
-0.02923749999999997,0.1712329004661367,3.323715776862023
-0.02913749999999998,0.1914013593724124,3.320368714528465
-0.02903749999999999,0.2115698182786881,3.320368714528465
-0.0289375,0.2317382771849639,3.323715776862023
-0.02883750000000002,0.2519067360912305,3.320368714528467
-0.02873749999999997,0.2687137851798028,3.320368714528465
-0.02863749999999998,0.2888822440860785,3.320368714528465
-0.02853749999999999,0.3090507029923543,3.320368714528465
-0.0284375,0.3258577520809174,3.320368714528465
-0.02833750000000002,0.346026210987184,3.320368714528465
-0.02823749999999997,0.3460262109871932,0.3414832376621206
-0.02813749999999998,0.3258577520809174,-2.988843784227782
-0.02803749999999999,0.3124121128100669,-3.172932212573455
-0.0279375,0.2922436539037911,-3.256608770912397
-0.02783750000000002,0.2720751949975246,-3.293426456581515
-0.02773749999999997,0.248545326273527,-3.313508830582878
-0.02763749999999998,0.2283768673672513,-3.320202955249993
-0.02753749999999999,0.2048469986432629,-3.326897079917109
-0.0274375,0.1813171299192746,-3.326897079917109
-0.02733750000000001,0.1611486710130079,-3.330244142250665
-0.02723749999999997,0.1477030317421483,-1.429112736789898
-0.02713749999999998,0.1510644415598609,0.6828835956850051
-0.02703749999999999,0.1510644415598609,0.8000307773595243
-0.0269375,0.1544258513775735,0.8535837746964474
-0.02683750000000001,0.1577872611952847,0.8803602733648966
-0.02673749999999997,0.1611486710129988,0.890401460365582
-0.02663749999999998,0.1645100808307114,0.8970955850326974
-0.02653749999999999,0.167871490648424,0.8970955850326974
-0.0264375,0.1745943102838493,0.900442647366255
-0.02633750000000001,0.1779557201015604,0.900442647366255
-0.02623749999999997,0.1846785397369872,1.492872680405966
-0.02613749999999998,0.1981241790078377,2.145549835449716
-0.02603749999999999,0.2082084084609755,2.18236752111885
-0.0259375,0.2216540477318261,2.199102832786639
-0.02583750000000001,0.2350996870026704,2.209144019787308
-0.02573749999999997,0.2451839164558144,2.21249108212087
-0.02563749999999998,0.2552681459089523,2.21249108212087
-0.02553749999999999,0.2687137851798028,2.21249108212087
-0.0254375,0.2821594244506533,2.215838144454428
-0.02533750000000001,0.2922436539037865,2.212491082120871
-0.02523749999999997,0.2922436539037911,0.03020644064125539
-0.02513749999999998,0.275436604815228,-2.376331377186724
