System Dynamics/Lab/lab7/Experiment60.csv

#Digilent WaveForms Oscilloscope Acquisition
#Device Name: Discovery2
#Serial Number: SN:210321AFD7CC
#Date Time: 2020-10-29 16:19:31.336
#Sample rate: 800Hz
#Samples: 7172
#Trigger: Source: Channel 1 Type: Edge Condition: Rising Level: 0 V Hyst.: Auto HoldOff: 0 s
#Channel 1: Range: 500 mV/div Offset: 0 V Attenuation: 10 X
#Channel 2: Range: 500 mV/div Offset: 0 V Attenuation: 10 X
#Wavegen Channel 1: Running
#Mode: Simple
#Type: Sine
#Frequency: 9.54929659 Hz
#Period: 104.719755 ms
#Amplitude: 2 V
#Offset: 0 V
#Symmetry: 50 %
#Phase: 0 °

Time (s),Channel 1 (V),Channel 2 (V)
0,0.3270549602173125,0.8363076357532212
0.001249999999999751,0.8281123003717691,1.965986214753144
0.002500000000000391,0.9110688136424107,1.986099186486085
0.003750000000000142,0.9907070663821557,1.996155672352548
0.004999999999999893,1.063708798060289,1.989451348441569
0.006249999999999645,1.130074008676742,1.976042700619618
0.007500000000000284,1.189802698231609,1.949225404975697
0.008750000000000036,1.242894866724796,1.912351623465314
0.009999999999999787,1.289350514156335,1.865421356088462
0.01125000000000043,1.329169640526241,1.805082440889623
0.01250000000000018,1.362352245834468,1.738039201779866
0.01374999999999993,1.385580069550238,1.66093947680361
0.01499999999999968,1.402171372204351,1.573783265960925
0.01625000000000032,1.412126153796831,1.476570569251646
0.01750000000000007,1.412126153796831,1.372653548631523
0.01874999999999982,1.405489632735183,1.258680042144884
0.01999999999999957,1.388898330081069,1.138002211747321
0.02125000000000021,1.365670506365292,1.010620057438669
0.02249999999999996,1.33248790105705,0.8798857411745833
0.02374999999999972,1.292668774687159,0.7424471009995185
0.02500000000000036,1.246213127255596,0.6016562988688988
0.02625000000000011,1.193120958762433,0.4575133347829209
0.02749999999999986,1.133392269207597,0.310018208741388
0.02874999999999961,1.067027058591143,0.1625230826999222
0.03000000000000025,0.9973435874438041,0.008323632747343448
0.03125,0.9177053347040229,-0.1391714932941894
0.03249999999999975,0.8347488214334176,-0.2900187812912117
0.03375000000000039,0.7484740476319441,-0.4408660692882996
0.03500000000000014,0.6522444922380857,-0.5850090333742776
0.03624999999999989,0.5593331973750075,-0.7291519974603211
0.03749999999999964,0.4597853814503263,-0.8665906376353233
0.03875000000000028,0.3536010444639062,-1.000677115854961
0.04000000000000004,0.2507349680083555,-1.128059270163558
0.04124999999999979,0.1445506310219806,-1.248737100561176
0.04250000000000043,0.03836629403555736,-1.366062769003351
0.04375000000000018,-0.06781804295076926,-1.469979789623475
0.04499999999999993,-0.1740023799371442,-1.570544648288156
0.04624999999999968,-0.2768684563926481,-1.661053021086329
0.04750000000000032,-0.383052793379115,-1.741504908018147
0.04875000000000007,-0.4826006093037963,-1.811900309083392
0.04999999999999982,-0.5821484252285227,-1.872239224282201
0.05124999999999957,-0.6783779806223813,-1.922521653614519
0.05250000000000021,-0.7712892754855031,-1.962747597080414
0.05374999999999996,-0.8575640492869328,-1.992917054679819
0.05499999999999972,-0.9438388230883623,-2.013030026412755
0.05625000000000036,-1.020158815297353,-2.019734350323731
0.05750000000000011,-1.093160546975452,-2.013030026412755
0.05874999999999986,-1.159525757591936,-1.996269216635308
0.05999999999999961,-1.219254447146745,-1.969451920991405
0.06125000000000025,-1.27234661563996,-1.92922597752552
0.0625,-1.318802263071499,-1.882295710148669
0.06374999999999975,-1.355303128910565,-1.82195679494986
0.06500000000000039,-1.385167473687994,-1.751561393884546
0.06625000000000014,-1.408395297403753,-1.671109506952838
0.06749999999999989,-1.424986600057874,-1.583953296110114
0.06874999999999964,-1.431623121119519,-1.483388437445478
0.07000000000000028,-1.431623121119522,-1.379471416825262
0.07125000000000004,-1.42166833952705,-1.265497910338623
0.07249999999999979,-1.408395297403753,-1.144820079941005
0.07375000000000043,-1.385167473687968,-1.017437925632349
0.07500000000000018,-1.351984868379741,-0.8867036093683222
0.07624999999999993,-1.31216574200985,-0.7492649691932574
0.07749999999999968,-1.26239183404751,-0.6051220051072794
0.07875000000000032,-1.209299665554271,-0.4609790410211033
0.08000000000000007,-1.146252715468639,-0.3134839149796374
0.08124999999999982,-1.079887504852155,-0.1626366269826151
0.08249999999999957,-1.003567512643233,-0.01178933898566145
0.08375000000000021,-0.9272475204342413,0.1390579490114294
0.08499999999999996,-0.8442910071636358,0.2899052370084517
0.08624999999999972,-0.754697972831382,0.4340482010944952
0.08750000000000036,-0.6617866779682616,0.5815433271360921
0.08875000000000011,-0.5688753831052259,0.7223341292665822
0.08999999999999986,-0.4693275671804994,0.8597727694416469
0.09124999999999961,-0.3664614907249955,0.9938592476611614
0.09250000000000025,-0.2602771537385738,1.117889240014329
0.09375,-0.1574110772830231,1.238567070411947
0.09499999999999975,-0.05122674029664819,1.355892738854076
0.09625000000000039,0.05495759668977652,1.459809759474292
0.09750000000000014,0.1644601942069259,1.560374618138928
0.09874999999999989,0.2706445311933008,1.647530828981652
0.09999999999999964,0.3735106076488047,1.727982715913361
0.1012500000000003,0.4763766841044021,1.798378116978675
0.1025,0.5759245000291286,1.858717032177483
0.1037499999999998,0.6688357948922067,1.905647299554335
0.1050000000000004,0.7584288292244997,1.945873243020219
0.1062500000000002,0.8447036030258902,1.972690538664122
0.1074999999999999,0.9276601162964956,1.989451348441569
0.1087499999999997,1.00729836903624,1.992803510397057
0.1100000000000003,1.076981840183616,1.98945134844156
0.1112500000000001,1.14334705080007,1.969338376708633
0.1124999999999998,1.203075740354905,1.942521081064718
0.1137499999999996,1.256167908848069,1.902295137598863
0.1150000000000002,1.302623556279632,1.855364870221994
0.11625,1.339124422118698,1.795025955023185
0.1174999999999997,1.368988766896116,1.721278392002419
0.1187500000000004,1.392216590611892,1.640826505070634
0.1200000000000001,1.405489632735183,1.553670294227949
0.1212499999999999,1.412126153796831,1.453105435563268
0.1224999999999996,1.408807893266008,1.345836252987656
0.1237500000000002,1.398853111673534,1.228510584545479
0.125,1.382261809019413,1.107832754147861
0.1262499999999998,1.35571572477282,0.9804505998392647
0.1275000000000004,1.325851379995382,0.8497162835751148
0.1287500000000001,1.282713993094687,0.7089254814446246
0.1299999999999999,1.236258345663148,0.5681346793140706
0.1312499999999996,1.183166177169985,0.4239917152280926
0.1325000000000003,1.123437487615124,0.2764965891864942
0.13375,1.053754016467816,0.1290014631449612
0.1349999999999998,0.980752284789683,-0.02519798680755039
0.1362500000000004,0.9011140320498626,-0.1726931128491519
0.1375000000000002,0.8148392582484723,-0.3235404008461055
0.1387499999999999,0.7252462239162184,-0.4743876888431278
0.1399999999999997,0.6323349290531827,-0.6185306529291059
0.1412500000000003,0.5361053736591928,-0.759321455059788
0.1425000000000001,0.4365575577345116,-0.8967600952347903
0.1437499999999998,0.3336914812789609,-1.030846573454366
0.1449999999999996,0.2275071442926342,-1.158228727762904
0.1462500000000002,0.121322807306211,-1.275554396205091
0.1475,0.01513847031983613,-1.38952790269173
0.1487499999999997,-0.08772760613571456,-1.493444923311901
0.1500000000000004,-0.1939119431221378,-1.590657620021132
0.1512500000000001,-0.3000962801084644,-1.677813830863817
0.1524999999999999,-0.4029623565640151,-1.758265717795562
0.1537499999999996,-0.5058284330195191,-1.828661118860807
0.1550000000000002,-0.6053762489442923,-1.885647872104159
0.15625,-0.7016058043381945,-1.935930301436499
0.1574999999999998,-0.7911988386704484,-1.972804082946882
0.1587500000000004,-0.8774736124719158,-1.999621378590805
0.1600000000000001,-0.9604301257424834,-2.016382188368245
0.1612499999999999,-1.03675011795144,-2.019734350323734
0.1624999999999996,-1.106433589098717,-2.00967786445727
0.1637500000000003,-1.172798799715233,-1.989564892724329
0.165,-1.229209228739245,-1.959395435124925
0.1662499999999998,-1.278983136701608,-1.919169491659052
0.1675000000000004,-1.325438784133164,-1.868887062326684
0.1687500000000002,-1.361939649972213,-1.808548147127903
0.1699999999999999,-1.391803994749631,-1.734800584107136
0.1712499999999997,-1.411713557934568,-1.65099653521994
0.1725000000000003,-1.428304860588701,-1.563840324377132
0.1737500000000001,-1.434941381650346,-1.463275465712496
0.1749999999999998,-1.431623121119522,-1.356006283136836
0.1762499999999996,-1.421668339527054,-1.238680614694761
0.1775000000000002,-1.401758776342104,-1.11800278429709
0.17875,-1.375212692095511,-0.9872684680330036
0.1799999999999997,-1.342030086787268,-0.8565341517689177
0.1812500000000004,-1.298892699886532,-0.715743349638298
0.1825000000000001,-1.252437052455015,-0.5716003855523201
0.1837499999999999,-1.196026623431003,-0.4274574214662765
0.1849999999999996,-1.132979673345371,-0.2766101334693227
0.1862500000000002,-1.063296202198034,-0.1291150074277213
0.1875,-0.9902944705199014,0.02173228056930098
0.1887499999999998,-0.9106562177801202,0.1725795685663233
0.1900000000000004,-0.8243814439786498,0.3200746946079232
0.1912500000000001,-0.7347884096464368,0.4675698206493891
0.1924999999999999,-0.6418771147833586,0.6117127847354326
0.1937499999999996,-0.5456475593895002,0.7525035868659226
0.1950000000000003,-0.4460997434647299,0.8899422270410514
0.19625,-0.339915406478355,1.024028705260627
0.1974999999999998,-0.2370493300228043,1.148058697613734
0.1987500000000004,-0.1308649930363811,1.265384366055914
0.2000000000000002,-0.02468065605005446,1.379357872542502
0.2012499999999999,0.08150368093632046,1.483274893162672
0.2024999999999997,0.1876880179226471,1.58048758987182
0.2037500000000003,0.2938723549091171,1.667643800714623
0.2050000000000001,0.396738431364621,1.744743525690844
0.2062499999999998,0.4962862472893474,1.811786764800632
0.2074999999999996,0.592515802683206,1.868773518043926
0.2087500000000002,0.688745358077152,1.915703785420803
0.21,0.7783383924094058,1.952577566931186
0.2112499999999997,0.8646131662108355,1.976042700619612
0.2125000000000004,0.9475696794814756,1.99280351039706
0.2137500000000001,1.023889671690398,1.996155672352548
0.2149999999999999,1.093573142837706,1.98609918648608
0.2162499999999996,1.159938353454161,1.965986214753153
0.2175000000000002,1.216348782478202,1.935816757153739
0.21875,1.266122690440566,1.892238651732377
0.2199999999999998,1.309260077341281,1.841956222400037
0.2212500000000004,1.345760943180359,1.778265145245705
0.2225000000000001,1.37230702742694,1.704517582224972
0.2237499999999999,1.392216590611886,1.620713533337737
0.2249999999999996,1.405489632735177,1.530205160539565
0.2262500000000003,1.408807893266007,1.429640301874842
0.2275,1.408807893266007,1.322371119299182
0.2287499999999998,1.39553485114271,1.205045450857053
0.2300000000000004,1.378943548488577,1.081015458503888
0.2312500000000002,1.352397464241995,0.9536333041953496
0.2324999999999999,1.315896598402929,0.8195468259757743
0.2337499999999997,1.276077472033057,0.6787560238452842
0.2350000000000003,1.226303564070649,0.537965221714599
0.2362500000000001,1.169893135046663,0.3904700956731332
0.2374999999999998,1.106846184961003,0.2429749696316003
0.2387499999999996,1.037162713813726,0.09212768163464663
0.2400000000000002,0.9608427216047377,-0.05871960636244423
0.24125,0.8812044688649565,-0.2095668943594665
0.2424999999999997,0.794929695063527,-0.3604141823564888
0.2437500000000004,0.7020184002004066,-0.5079093083980858
0.2450000000000001,0.6091071053373708,-0.6487001105285759
0.2462499999999999,0.5128775499434686,-0.78949091265913
0.2474999999999996,0.4133297340187874,-0.9269295528341323
0.2487500000000002,0.3104636575631914,-1.054311707142791
0.25,0.2042793205768164,-1.181693861451388
0.2512499999999998,0.09809498359044154,-1.302371691849006
0.2525000000000004,-0.008089353395981668,-1.412993036380203
0.2537500000000001,-0.1142736903823083,-1.516910057000326
0.2549999999999999,-0.2204580273686832,-1.610770591754029
0.2562499999999996,-0.3266423643550098,-1.697926802596713
0.2575000000000003,-0.4295084408106088,-1.775026527573009
0.25875,-0.5290562567353353,-1.842069766682797
0.2599999999999998,-0.6252858121292376,-1.895704357970627
0.2612500000000004,-0.7215153675231806,-1.942634625347495
0.2625000000000002,-0.8111084018553937,-1.979508406857861
0.2637499999999999,-0.8973831756568234,-2.002973540546287
0.2649999999999997,-0.9770214283965682,-2.016382188368238
0.2662500000000003,-1.053341420605593,-2.01638218836824
0.2675000000000001,-1.12302489175287,-2.006325702501776
0.2687499999999998,-1.18607184183853,-1.982860568813351
0.2699999999999996,-1.242482270862516,-1.95269111121396
0.2712500000000002,-1.292256178824905,-1.909113005792584
0.2725,-1.33539356572562,-1.855478414504754
0.2737499999999997,-1.371894431564686,-1.791787337350456
0.2750000000000004,-1.398440515811289,-1.718039774329651
0.2762500000000001,-1.418350078996225,-1.634235725442455
0.2774999999999999,-1.428304860588698,-1.540375190688752
0.2787499999999996,-1.434941381650343,-1.439810332024116
0.2800000000000002,-1.428304860588698,-1.329188987492921
0.28125,-1.415031818465401,-1.211863319050792
0.2824999999999998,-1.395122255280456,-1.087833326697685
0.2837500000000004,-1.368576171033846,-0.9604511723890261
0.2850000000000001,-1.332075305194796,-0.8230125322140238
0.2862499999999999,-1.288937918294081,-0.6855738920389591
0.2874999999999996,-1.23916401033174,-0.5414309279529812
0.2887500000000003,-1.182753581307706,-0.3939358019113826
0.29,-1.119706631222046,-0.2464406758698497
0.2912499999999998,-1.050023160074737,-0.09559338787282745
0.2925000000000004,-0.9703849073349199,0.05525390012426342
0.2937500000000002,-0.8907466545951749,0.2061011881212171
0.2949999999999999,-0.8044718807937452,0.35359631416275
0.2962499999999997,-0.7148788464615322,0.5010914402042158
0.2975000000000003,-0.6186492910675454,0.6452344042903905
0.2987500000000001,-0.5224197356736869,0.7860252064208805
0.2999999999999998,-0.4195536592181362,0.9234638465959453
0.3012499999999996,-0.3166875827626323,1.050846000904484
0.3025000000000002,-0.2138215063070348,1.174875993257649
0.30375,-0.1076371693206599,1.292201661699778
0.3049999999999997,-0.001452832334284948,1.402823006230927
0.3062500000000004,0.1047315046521382,1.506740026851139
0.3075000000000001,0.2109158416384649,1.597248399649311
0.3087499999999999,0.3137819180940156,1.684404610492035
0.3099999999999996,0.4199662550803422,1.761504335468256
0.3112500000000002,0.519514071005117,1.82519541262259
0.3125,0.6157436263990193,1.882182165865909
0.3137499999999998,0.7119731817929216,1.925760271287271
0.3150000000000004,0.8015662161252131,1.959281890842176
0.3162500000000001,0.8845227293957808,1.98274702453059
0.3174999999999999,0.9641609821355619,1.996155672352548
0.3187499999999996,1.040480974344484,1.996155672352548
0.3200000000000003,1.110164445491828,1.98274702453059
0.32125,1.173211395577487,1.959281890842165
0.3224999999999998,1.226303564070675,1.925760271287271
0.3237500000000004,1.276077472033058,1.882182165865883
0.3250000000000002,1.319214858933753,1.82519541262259
0.3262499999999999,1.352397464241995,1.761504335468291
0.3274999999999997,1.378943548488577,1.687756772447558
0.3287500000000003,1.398853111673539,1.60060056160476
0.3300000000000001,1.408807893266007,1.510092188806587
0.3312499999999998,1.412126153796831,1.406175168186417
0.3324999999999996,1.408807893266008,1.295553823655317
0.3337500000000002,1.39553485114271,1.178228155213138
0.335,1.37230702742694,1.054198162860031
0.3362499999999997,1.345760943180347,0.9234638465959453
0.3375000000000004,1.305941816810437,0.7860252064208164
0.3387500000000001,1.262804429909742,0.6452344042903264
0.3399999999999999,1.213030521947378,0.5044436021597722
0.3412499999999996,1.153301832392569,0.3569484761183065
0.3425000000000002,1.090254882306882,0.2094533500767065
0.34375,1.020571411159574,0.05860606207968421
0.3449999999999998,0.9442514189506167,-0.09224122591733808
0.3462500000000004,0.861294905679972,-0.2430885139144275
0.3475000000000001,0.7750201318785817,-0.3905836399558932
0.3487499999999999,0.6854270975463278,-0.5380787659974262
0.3499999999999996,0.5891975421524692,-0.6788695681279162
0.3512500000000003,0.4929679867585233,-0.8196603702585344
0.3525,0.3901019103029725,-0.9570990104335991
0.3537499999999998,0.2872358338474219,-1.084481164742196
0.3550000000000004,0.1810514968609986,-1.211863319050846
0.3562500000000002,0.07486715987467202,-1.329188987492921
0.3574999999999999,-0.03463543764252711,-1.43981033202407
0.3587499999999997,-0.1408197746288538,-1.540375190688706
0.3600000000000003,-0.243685851084501,-1.630883563487005
0.3612500000000001,-0.3498701880708276,-1.718039774329689
0.3624999999999998,-0.4527362645263783,-1.791787337350456
0.3637499999999996,-0.5522840804510595,-1.855478414504725
0.3650000000000002,-0.6485136358450071,-1.905760843837095
0.36625,-0.7414249307080851,-1.949338949258457
0.3674999999999997,-0.831017965040339,-1.982860568813351
0.3687500000000004,-0.9139744783109806,-2.006325702501781
0.3700000000000001,-0.9936127310507256,-2.016382188368245
0.3712499999999999,-1.069932723259682,-2.016382188368245
0.3724999999999996,-1.139616194406959,-2.002973540546293
0.3737500000000002,-1.199344883961827,-1.979508406857861
0.375,-1.255755312985839,-1.942634625347478
0.3762499999999998,-1.305529220948202,-1.899056519926116
0.3775000000000004,-1.345348347318108,-1.842069766682766
0.3787500000000001,-1.378530952626335,-1.775026527573009
0.3799999999999999,-1.401758776342104,-1.697926802596753
0.3812499999999996,-1.418350078996218,-1.610770591754069
0.3825000000000003,-1.428304860588698,-1.516910057000326
0.38375,-1.431623121119522,-1.412993036380155
0.3849999999999998,-1.424986600057874,-1.302371691849006
0.3862500000000004,-1.411713557934568,-1.185046023406819
0.3875000000000002,-1.391803994749631,-1.057663869098281
0.3887499999999999,-1.361939649972213,-0.9302817147896841
0.3899999999999997,-1.325438784133164,-0.7928430746146818
0.3912500000000003,-1.282301397232408,-0.6520522724839998
0.3925000000000001,-1.229209228739245,-0.5079093083980217
0.3937499999999998,-1.169480539184409,-0.3604141823564888
0.3949999999999996,-1.103115328567955,-0.2095668943595351
0.3962500000000002,-1.030113596889792,-0.06207176831793362
0.3975,-0.953793604680835,0.09212768163457805
0.3987499999999997,-0.8708370914102296,0.2429749696316003
0.4000000000000004,-0.7845623176087592,0.3871179337177109
0.4012500000000001,-0.6949692832765462,0.5346130597591767
0.4024999999999999,-0.5987397278826438,0.6754038618897308
0.4037499999999996,-0.4991919119579626,0.8161946640202209
0.4050000000000002,-0.3996440960331909,0.9502811422398603
0.40625,-0.2967780195776402,1.077663296548457
0.4074999999999998,-0.1905936825912653,1.201693288901564
0.4087500000000004,-0.08772760613566477,1.319018957343741
0.4100000000000001,0.02177499138148457,1.426288139919353
0.4112499999999999,0.1279593283678595,1.530205160539524
0.4124999999999996,0.2341436653541861,1.620713533337696
0.4137500000000003,0.3403280023406093,1.704517582224972
0.415,0.44319407879616,1.778265145245738
0.4162499999999998,0.5427418947208865,1.841956222400037
0.4175000000000004,0.6389714501148295,1.892238651732397
0.4187500000000002,0.7285644844470426,1.935816757153739
0.4199999999999999,0.8181575187792964,1.965986214753144
0.4212499999999997,0.9011140320498641,1.986099186486071
0.4225000000000003,0.9807522847897162,1.992803510397057
0.4237500000000001,1.053754016467816,1.989451348441569
0.4249999999999998,1.123437487615124,1.976042700619612
0.4262499999999996,1.183166177169933,1.952577566931197
0.4275000000000002,1.239576606193972,1.915703785420803
0.42875,1.286032253625511,1.872125679999441
0.4299999999999997,1.325851379995401,1.815138926756121
0.4312500000000004,1.359033985303656,1.748095687646299
0.4325000000000001,1.385580069550238,1.670995962670078
0.4337499999999999,1.402171372204359,1.583839751827354
