System Dynamics/Lab/lab7/Experiment3.csv

#Digilent WaveForms Oscilloscope Acquisition
#Device Name: Discovery2
#Serial Number: SN:210321AFD7CC
#Date Time: 2020-10-29 16:08:09.257
#Sample rate: 800Hz
#Samples: 7778
#Trigger: Source: Channel 1 Type: Edge Condition: Rising Level: 0 V Hyst.: Auto HoldOff: 0 s
#Channel 1: Range: 500 mV/div Offset: 0 V Attenuation: 10 X
#Channel 2: Range: 500 mV/div Offset: 0 V Attenuation: 10 X
#Wavegen Channel 1: Running
#Mode: Simple
#Type: Sine
#Frequency: 477.4648 mHz
#Period: 2.09439523 s
#Amplitude: 2 V
#Offset: 0 V
#Symmetry: 50 %
#Phase: 0 °

Time (s),Channel 1 (V),Channel 2 (V)
0,1.339124422118698,1.406175168186417
0.001249999999999751,1.432035716981777,1.500035702940119
0.002500000000000391,1.438672238043426,1.5067400268511
0.003750000000000142,1.441990498574249,1.510092188806587
0.004999999999999893,1.448627019635897,1.516796512717566
0.006249999999999645,1.45194528016672,1.520148674673054
0.007500000000000284,1.455263540697546,1.523500836628545
0.008750000000000036,1.461900061759194,1.526852998584034
0.009999999999999787,1.465218322290019,1.533557322495013
0.01125000000000043,1.471854843351669,1.536909484450506
0.01250000000000018,1.475173103882491,1.543613808361481
0.01374999999999993,1.48180962494414,1.546965970316971
0.01499999999999968,1.488446146005785,1.553670294227946
0.01625000000000032,1.491764406536615,1.557022456183442
0.01750000000000007,1.498400927598261,1.563726780094418
0.01874999999999982,1.501719188129085,1.567078942049907
0.01999999999999957,1.50835570919073,1.570431104005395
0.02125000000000021,1.511673969721558,1.577135427916375
0.02249999999999996,1.514992230252382,1.580487589871864
0.02374999999999972,1.52162875131403,1.583839751827354
0.02500000000000036,1.524947011844858,1.590544075738334
0.02625000000000011,1.531583532906503,1.593896237693822
0.02749999999999986,1.534901793437327,1.597248399649311
0.02874999999999961,1.541538314498972,1.603952723560287
0.03000000000000025,1.548174835560624,1.60730488551578
0.03125,1.551493096091448,1.614009209426758
0.03249999999999975,1.558129617153097,1.617361371382248
0.03375000000000039,1.561447877683924,1.624065695293228
0.03500000000000014,1.568084398745569,1.627417857248716
0.03624999999999989,1.571402659276393,1.630770019204205
0.03749999999999964,1.574720919807216,1.634122181159693
0.03875000000000028,1.581357440868866,1.637474343115184
0.04000000000000004,1.58467570139969,1.640826505070673
0.04124999999999979,1.587993961930515,1.647530828981652
0.04250000000000043,1.591312222461342,1.650882990937143
0.04375000000000018,1.597948743522987,1.654235152892631
0.04499999999999993,1.601267004053812,1.66093947680361
0.04624999999999968,1.607903525115457,1.664291638759098
0.04750000000000032,1.611221785646286,1.667643800714592
0.04875000000000007,1.614540046177108,1.674348124625567
0.04999999999999982,1.621176567238757,1.677700286581057
0.05124999999999957,1.624494827769579,1.684404610492032
0.05250000000000021,1.63113134883123,1.687756772447525
0.05374999999999996,1.634449609362054,1.691108934403014
0.05499999999999972,1.637767869892878,1.694461096358504
0.05625000000000036,1.641086130423705,1.697813258313994
0.05750000000000011,1.64772265148535,1.701165420269482
0.05874999999999986,1.651040912016175,1.704517582224972
0.05999999999999961,1.654359172546997,1.70786974418046
0.06125000000000025,1.657677433077823,1.71122190613595
0.0625,1.664313954139471,1.717926230046929
0.06374999999999975,1.667632214670296,1.721278392002419
0.06500000000000039,1.670950475201123,1.72463055395791
0.06625000000000014,1.677586996262769,1.727982715913397
0.06749999999999989,1.680905256793593,1.731334877868887
0.06874999999999964,1.684223517324415,1.738039201779862
0.07000000000000028,1.687541777855241,1.741391363735355
0.07125000000000004,1.694178298916889,1.744743525690844
0.07249999999999979,1.697496559447714,1.748095687646334
0.07375000000000043,1.700814819978539,1.751447849601825
0.07500000000000018,1.704133080509362,1.754800011557313
0.07624999999999993,1.707451341040186,1.758152173512802
0.07749999999999968,1.714087862101832,1.76150433546829
0.07875000000000032,1.717406122632661,1.764856497423784
0.08000000000000007,1.720724383163483,1.771560821334759
0.08124999999999982,1.724042643694307,1.774912983290249
0.08249999999999957,1.72736090422513,1.778265145245737
0.08375000000000021,1.73399742528678,1.781617307201228
0.08499999999999996,1.737315685817604,1.784969469156717
0.08624999999999972,1.740633946348428,1.788321631112206
0.08750000000000036,1.743952206879254,1.791673793067697
0.08875000000000011,1.747270467410077,1.795025955023185
0.08999999999999986,1.750588727940901,1.798378116978675
0.09124999999999961,1.753906988471724,1.798378116978675
0.09250000000000025,1.75722524900255,1.801730278934164
0.09375,1.760543509533374,1.805082440889653
0.09499999999999975,1.763861770064198,1.808434602845143
0.09625000000000039,1.770498291125848,1.811786764800634
0.09750000000000014,1.773816551656671,1.815138926756121
0.09874999999999989,1.777134812187495,1.818491088711611
0.09999999999999964,1.780453072718317,1.821843250667099
0.1012500000000003,1.783771333249143,1.82519541262259
0.1025,1.787089593779967,1.828547574578079
0.1037499999999998,1.790407854310792,1.831899736533568
0.1050000000000004,1.790407854310794,1.835251898489059
0.1062500000000002,1.793726114841616,1.838604060444547
0.1074999999999999,1.79704437537244,1.838604060444547
0.1087499999999997,1.800362635903263,1.841956222400035
0.1100000000000003,1.80368089643409,1.845308384355527
0.1112500000000001,1.806999156964913,1.848660546311015
0.1124999999999998,1.810317417495737,1.852012708266505
0.1137499999999996,1.81363567802656,1.855364870221992
0.1150000000000002,1.816953938557385,1.858717032177483
0.11625,1.82027219908821,1.862069194132973
0.1174999999999997,1.826908720149858,1.865421356088462
0.1187500000000004,1.830226980680683,1.868773518043953
0.1200000000000001,1.830226980680683,1.872125679999441
0.1212499999999999,1.833545241211507,1.87547784195493
0.1224999999999996,1.836863501742329,1.87547784195493
0.1237500000000002,1.840181762273155,1.87883000391042
0.125,1.843500022803979,1.87883000391042
0.1262499999999998,1.843500022803979,1.882182165865909
0.1275000000000004,1.846818283334805,1.8855343278214
0.1287500000000001,1.850136543865628,1.888886489776888
0.1299999999999999,1.853454804396452,1.888886489776888
0.1312499999999996,1.856773064927274,1.892238651732376
0.1325000000000003,1.8600913254581,1.895590813687867
0.13375,1.863409585988924,1.898942975643356
0.1349999999999998,1.866727846519749,1.902295137598845
0.1362500000000004,1.870046107050575,1.902295137598847
0.1375000000000002,1.873364367581397,1.905647299554335
0.1387499999999999,1.873364367581397,1.905647299554335
0.1399999999999997,1.87668262811222,1.908999461509822
0.1412500000000003,1.880000888643046,1.912351623465314
0.1425000000000001,1.880000888643046,1.912351623465314
0.1437499999999998,1.88331914917387,1.915703785420803
0.1449999999999996,1.886637409704693,1.919055947376291
0.1462500000000002,1.889955670235518,1.919055947376292
0.1475,1.893273930766342,1.922408109331782
0.1487499999999997,1.893273930766342,1.922408109331782
0.1500000000000004,1.896592191297168,1.925760271287273
0.1512500000000001,1.899910451827991,1.92911243324276
0.1524999999999999,1.903228712358815,1.93246459519825
0.1537499999999996,1.903228712358815,1.93246459519825
0.1550000000000002,1.906546972889639,1.935816757153739
0.15625,1.909865233420463,1.935816757153739
0.1574999999999998,1.909865233420463,1.935816757153739
0.1587500000000004,1.913183493951288,1.93916891910923
0.1600000000000001,1.913183493951288,1.942521081064718
0.1612499999999999,1.916501754482112,1.942521081064718
0.1624999999999996,1.919820015012935,1.945873243020206
0.1637500000000003,1.92313827554376,1.945873243020207
0.165,1.92313827554376,1.949225404975697
0.1662499999999998,1.926456536074585,1.952577566931186
0.1675000000000004,1.929774796605409,1.955929728886675
0.1687500000000002,1.929774796605409,1.955929728886675
0.1699999999999999,1.933093057136233,1.959281890842165
0.1712499999999997,1.933093057136233,1.959281890842165
0.1725000000000003,1.936411317667057,1.959281890842167
0.1737500000000001,1.936411317667057,1.962634052797654
0.1749999999999998,1.939729578197881,1.962634052797654
0.1762499999999996,1.939729578197881,1.962634052797654
0.1775000000000002,1.943047838728706,1.965986214753144
0.17875,1.94636609925953,1.965986214753144
0.1799999999999997,1.94636609925953,1.965986214753144
0.1812500000000004,1.949684359790354,1.969338376708635
0.1825000000000001,1.949684359790354,1.972690538664122
0.1837499999999999,1.953002620321179,1.972690538664122
0.1849999999999996,1.956320880852001,1.97604270061961
0.1862500000000002,1.956320880852003,1.976042700619612
0.1875,1.956320880852003,1.976042700619612
0.1887499999999998,1.959639141382827,1.979394862575101
0.1900000000000004,1.959639141382828,1.979394862575101
0.1912500000000001,1.962957401913651,1.979394862575101
0.1924999999999999,1.962957401913651,1.979394862575101
0.1937499999999996,1.962957401913651,1.982747024530589
0.1950000000000003,1.966275662444475,1.98274702453059
0.19625,1.966275662444475,1.98274702453059
0.1974999999999998,1.969593922975299,1.98609918648608
0.1987500000000004,1.969593922975301,1.98609918648608
0.2000000000000002,1.972912183506124,1.98609918648608
0.2012499999999999,1.972912183506124,1.989451348441569
0.2024999999999997,1.976230444036946,1.989451348441569
0.2037500000000003,1.976230444036948,1.989451348441569
0.2050000000000001,1.976230444036948,1.989451348441569
0.2062499999999998,1.979548704567772,1.992803510397059
0.2074999999999996,1.979548704567772,1.992803510397059
0.2087500000000002,1.979548704567772,1.992803510397059
0.21,1.979548704567772,1.992803510397059
0.2112499999999997,1.982866965098596,1.996155672352548
0.2125000000000004,1.982866965098598,1.996155672352548
0.2137500000000001,1.98618522562942,1.996155672352548
0.2149999999999999,1.98618522562942,1.996155672352548
0.2162499999999996,1.989503486160243,1.999507834308036
0.2175000000000002,1.989503486160245,1.999507834308038
0.21875,1.989503486160245,1.999507834308038
0.2199999999999998,1.989503486160245,1.999507834308038
0.2212500000000004,1.992821746691069,1.999507834308039
0.2225000000000001,1.992821746691069,2.002859996263527
0.2237499999999999,1.992821746691069,1.999507834308038
0.2249999999999996,1.992821746691069,1.999507834308038
0.2262500000000003,1.992821746691069,1.999507834308038
0.2275,1.992821746691069,1.999507834308038
0.2287499999999998,1.992821746691069,2.002859996263527
0.2300000000000004,1.996140007221893,2.002859996263527
0.2312500000000002,1.996140007221893,2.002859996263527
0.2324999999999999,1.996140007221893,2.002859996263527
0.2337499999999997,1.999458267752716,2.006212158219015
0.2350000000000003,1.999458267752717,2.006212158219015
0.2362500000000001,1.999458267752717,2.002859996263527
0.2374999999999998,1.999458267752717,2.002859996263527
0.2387499999999996,1.999458267752717,2.002859996263527
0.2400000000000002,1.999458267752717,2.002859996263527
0.24125,1.999458267752717,2.002859996263527
0.2424999999999997,1.999458267752717,2.002859996263527
0.2437500000000004,1.999458267752717,2.002859996263527
0.2450000000000001,1.999458267752717,2.002859996263527
0.2462499999999999,2.002776528283542,2.002859996263527
0.2474999999999996,2.002776528283542,2.002859996263527
0.2487500000000002,2.002776528283542,2.002859996263527
0.25,2.002776528283542,2.006212158219016
0.2512499999999998,2.002776528283542,2.006212158219016
0.2525000000000004,2.002776528283542,2.002859996263527
0.2537500000000001,2.002776528283542,2.002859996263527
0.2549999999999999,2.002776528283542,2.002859996263527
0.2562499999999996,2.002776528283542,2.002859996263527
0.2575000000000003,2.002776528283542,2.002859996263527
0.25875,2.002776528283542,2.002859996263527
0.2599999999999998,2.002776528283542,1.999507834308038
0.2612500000000004,2.002776528283542,1.999507834308038
0.2625000000000002,2.002776528283542,1.999507834308038
0.2637499999999999,2.002776528283542,1.999507834308038
0.2649999999999997,2.002776528283542,1.999507834308038
0.2662500000000003,2.002776528283543,1.999507834308038
0.2675000000000001,2.006094788814366,1.999507834308038
0.2687499999999998,2.002776528283542,1.999507834308038
0.2699999999999996,2.002776528283542,1.999507834308038
0.2712500000000002,2.002776528283542,1.996155672352548
0.2725,2.002776528283542,1.996155672352548
0.2737499999999997,2.002776528283542,1.996155672352548
0.2750000000000004,1.999458267752717,1.996155672352547
0.2762500000000001,1.999458267752717,1.992803510397059
0.2774999999999999,1.999458267752717,1.992803510397059
0.2787499999999996,1.999458267752717,1.989451348441571
0.2800000000000002,1.999458267752717,1.989451348441569
0.28125,1.999458267752717,1.989451348441569
0.2824999999999998,1.999458267752717,1.989451348441569
0.2837500000000004,1.999458267752717,1.989451348441569
0.2850000000000001,1.999458267752717,1.989451348441569
0.2862499999999999,1.999458267752717,1.98609918648608
0.2874999999999996,1.996140007221895,1.98609918648608
0.2887500000000003,1.996140007221893,1.98609918648608
0.29,1.996140007221893,1.98274702453059
0.2912499999999998,1.992821746691069,1.98274702453059
0.2925000000000004,1.992821746691069,1.979394862575101
0.2937500000000002,1.992821746691069,1.979394862575101
0.2949999999999999,1.992821746691069,1.979394862575101
0.2962499999999997,1.992821746691069,1.979394862575101
0.2975000000000003,1.989503486160245,1.976042700619612
0.2987500000000001,1.989503486160245,1.976042700619612
0.2999999999999998,1.989503486160245,1.976042700619612
0.3012499999999996,1.989503486160245,1.976042700619612
0.3025000000000002,1.98618522562942,1.972690538664122
0.30375,1.98618522562942,1.969338376708633
0.3049999999999997,1.98618522562942,1.969338376708633
0.3062500000000004,1.982866965098596,1.965986214753144
0.3075000000000001,1.982866965098596,1.965986214753144
0.3087499999999999,1.979548704567772,1.962634052797654
0.3099999999999996,1.979548704567772,1.962634052797654
0.3112500000000002,1.976230444036948,1.962634052797654
0.3125,1.976230444036948,1.959281890842165
0.3137499999999998,1.976230444036948,1.959281890842165
0.3150000000000004,1.976230444036948,1.955929728886675
0.3162500000000001,1.976230444036948,1.955929728886675
0.3174999999999999,1.972912183506124,1.955929728886675
0.3187499999999996,1.972912183506124,1.952577566931188
0.3200000000000003,1.972912183506124,1.949225404975697
0.32125,1.969593922975299,1.949225404975697
0.3224999999999998,1.969593922975299,1.945873243020207
0.3237500000000004,1.966275662444474,1.945873243020206
0.3250000000000002,1.962957401913651,1.942521081064718
0.3262499999999999,1.962957401913651,1.939168919109229
0.3274999999999997,1.959639141382828,1.939168919109229
0.3287500000000003,1.959639141382827,1.935816757153739
0.3300000000000001,1.959639141382827,1.935816757153739
0.3312499999999998,1.956320880852003,1.93246459519825
0.3324999999999996,1.956320880852003,1.93246459519825
0.3337500000000002,1.956320880852003,1.92911243324276
0.335,1.953002620321179,1.92911243324276
0.3362499999999997,1.949684359790354,1.925760271287271
0.3375000000000004,1.949684359790352,1.922408109331782
0.3387500000000001,1.94636609925953,1.922408109331782
0.3399999999999999,1.94636609925953,1.919055947376292
0.3412499999999996,1.943047838728707,1.915703785420805
0.3425000000000002,1.939729578197881,1.912351623465314
0.34375,1.939729578197881,1.912351623465314
0.3449999999999998,1.936411317667057,1.908999461509824
0.3462500000000004,1.936411317667056,1.905647299554335
0.3475000000000001,1.933093057136233,1.905647299554335
0.3487499999999999,1.933093057136233,1.902295137598845
0.3499999999999996,1.92977479660541,1.902295137598845
0.3512500000000003,1.929774796605409,1.898942975643356
0.3525,1.926456536074585,1.895590813687867
0.3537499999999998,1.926456536074585,1.895590813687867
0.3550000000000004,1.923138275543759,1.892238651732376
0.3562500000000002,1.919820015012936,1.888886489776888
0.3574999999999999,1.916501754482112,1.885534327821399
0.3587499999999997,1.91318349395129,1.882182165865911
0.3600000000000003,1.913183493951286,1.878830003910418
0.3612500000000001,1.909865233420463,1.87547784195493
0.3624999999999998,1.906546972889639,1.87547784195493
0.3637499999999996,1.906546972889639,1.872125679999443
0.3650000000000002,1.903228712358815,1.868773518043952
0.36625,1.899910451827991,1.865421356088462
0.3674999999999997,1.899910451827991,1.865421356088462
0.3687500000000004,1.896592191297165,1.862069194132971
0.3700000000000001,1.893273930766342,1.858717032177483
0.3712499999999999,1.893273930766342,1.855364870221994
0.3724999999999996,1.88995567023552,1.852012708266506
0.3737500000000002,1.886637409704694,1.848660546311015
0.375,1.88331914917387,1.845308384355526
0.3762499999999998,1.880000888643046,1.841956222400037
0.3775000000000004,1.87668262811222,1.838604060444547
0.3787500000000001,1.873364367581397,1.838604060444547
0.3799999999999999,1.873364367581397,1.835251898489058
0.3812499999999996,1.870046107050575,1.83189973653357
0.3825000000000003,1.866727846519749,1.828547574578079
0.38375,1.863409585988924,1.82519541262259
0.3849999999999998,1.863409585988924,1.8218432506671
0.3862500000000004,1.860091325458099,1.818491088711609
0.3875000000000002,1.856773064927276,1.815138926756121
0.3887499999999999,1.853454804396452,1.811786764800632
0.3899999999999997,1.850136543865629,1.808434602845144
0.3912500000000003,1.846818283334802,1.805082440889652
0.3925000000000001,1.843500022803979,1.801730278934164
0.3937499999999998,1.840181762273155,1.798378116978675
0.3949999999999996,1.836863501742332,1.795025955023187
0.3962500000000002,1.833545241211507,1.791673793067696
0.3975,1.830226980680683,1.791673793067696
0.3987499999999997,1.830226980680683,1.788321631112206
0.4000000000000004,1.826908720149856,1.784969469156715
0.4012500000000001,1.823590459619034,1.781617307201228
0.4024999999999999,1.82027219908821,1.778265145245738
0.4037499999999996,1.816953938557387,1.77491298329025
0.4050000000000002,1.813635678026561,1.771560821334759
0.40625,1.810317417495737,1.76820865937927
0.4074999999999998,1.806999156964913,1.764856497423781
0.4087500000000004,1.803680896434087,1.7581521735128
0.4100000000000001,1.800362635903265,1.754800011557313
0.4112499999999999,1.79704437537244,1.751447849601823
0.4124999999999996,1.793726114841618,1.748095687646335
0.4137500000000003,1.790407854310792,1.744743525690844
0.415,1.787089593779967,1.741391363735355
0.4162499999999998,1.783771333249143,1.738039201779866
0.4175000000000004,1.780453072718317,1.734687039824375
0.4187500000000002,1.777134812187495,1.731334877868887
0.4199999999999999,1.773816551656671,1.727982715913397
0.4212499999999997,1.770498291125848,1.721278392002422
0.4225000000000003,1.767180030595021,1.717926230046928
0.4237500000000001,1.763861770064198,1.71457406809144
0.4249999999999998,1.760543509533374,1.71122190613595
0.4262499999999996,1.757225249002551,1.704517582224975
0.4275000000000002,1.753906988471726,1.701165420269482
0.42875,1.747270467410077,1.697813258313993
0.4299999999999997,1.743952206879253,1.694461096358504
0.4312500000000004,1.740633946348427,1.691108934403013
0.4325000000000001,1.737315685817604,1.687756772447525
0.4337499999999999,1.73399742528678,1.684404610492035
0.4349999999999996,1.730679164755957,1.67770028658106
0.4362500000000002,1.727360904225132,1.674348124625567
0.4375,1.724042643694307,1.670995962670078
0.4387499999999998,1.720724383163483,1.667643800714588
0.4400000000000004,1.714087862101833,1.660939476803607
0.4412500000000001,1.710769601571011,1.654235152892631
0.4424999999999999,1.707451341040186,1.650882990937142
0.4437499999999996,1.700814819978541,1.644178667026166
0.4450000000000003,1.697496559447714,1.640826505070673
0.44625,1.694178298916889,1.637474343115184
0.4474999999999998,1.690860038386065,1.634122181159695
0.4487500000000004,1.687541777855238,1.630770019204204
0.4500000000000002,1.680905256793593,1.627417857248716
