System Dynamics/Lab/lab7/Experiment300.csv

#Digilent WaveForms Oscilloscope Acquisition
#Device Name: Discovery2
#Serial Number: SN:210321AFD7CC
#Date Time: 2020-10-29 17:52:22.524
#Sample rate: 400Hz
#Samples: 3783
#Trigger: Source: Channel 1 Type: Edge Condition: Rising Level: 0 V Hyst.: Auto HoldOff: 0 s
#Channel 1: Range: 500 mV/div Offset: 0 V Attenuation: 10 X
#Channel 2: Range: 500 mV/div Offset: 0 V Attenuation: 10 X
#Wavegen Channel 1: Running
#Mode: Simple
#Type: Sine
#Frequency: 47.7464829 Hz
#Period: 20.943951 ms
#Amplitude: 2 V
#Offset: 0 V
#Symmetry: 50 %
#Phase: 0 °

Time (s),Channel 1 (V),Channel 2 (V)
0,0.3038271365015429,1.43969678774131
0.002499999999999503,0.3735106076488515,0.1658752446553445
0.005000000000000782,0.2374619258849364,-1.205158995140146
0.007500000000000284,-0.03131717711170289,-1.935930301436499
0.009999999999999787,-0.2868232379851675,-1.634235725442455
0.01249999999999929,-0.3963258355023169,-0.4609790410217038
0.01500000000000057,-0.3000962801084644,0.9536333041953496
0.01750000000000007,-0.04790847976582398,1.848660546311015
0.01999999999999957,0.227507144292586,1.748095687646334
0.02250000000000085,0.3735106076488243,0.7022211575329965
0.02500000000000036,0.3137819180940156,-0.7257998355048317
0.02749999999999986,0.07818542040549624,-1.77167436561752
0.02999999999999936,-0.2038667247144338,-1.872239224282155
0.03250000000000064,-0.3830527933790592,-0.9738598202104028
0.03500000000000014,-0.3598249696633003,0.440752525005474
0.03749999999999964,-0.1507745562213747,1.614009209426758
0.03999999999999915,0.1312775888985554,1.912351623465178
0.04250000000000043,0.3403280023406093,1.181580317168628
0.04499999999999993,0.3602375655255546,-0.1894539226265302
0.04749999999999943,0.1777332363302227,-1.466627627667985
0.05000000000000071,-0.1043189087899398,-1.962747597080163
0.05250000000000021,-0.3332788854167066,-1.409640874424666
0.05499999999999972,-0.3930075749715424,-0.1056498737392956
0.05749999999999922,-0.2470041116153433,1.2486235562778
0.0600000000000005,0.02509325191230878,1.925760271287271
0.0625,0.2772810522549492,1.563726780094418
0.0649999999999995,0.3768288681796757,0.3569484761182394
0.06750000000000078,0.2673262706623574,-1.047607383232198
0.07000000000000028,0.005183688727363484,-1.895704357970627
0.07249999999999979,-0.2602771537385738,-1.731448422151647
0.07499999999999929,-0.3963258355023048,-0.6453479485735802
0.07750000000000057,-0.3233241038242339,0.7826730444653911
0.08000000000000007,-0.08440934560489036,1.781617307201228
0.08249999999999957,0.1943245389843438,1.8218432506671
0.08500000000000085,0.3635558260563637,0.8765335792184475
0.08750000000000036,0.3303732207481367,-0.544783089908405
0.08999999999999986,0.1146862862445626,-1.677813830863817
0.09249999999999936,-0.1673658588753675,-1.919169491658943
0.09500000000000064,-0.3664614907249533,-1.138115756029395
0.09750000000000014,-0.3764162723174214,0.2496792935425791
0.09999999999999964,-0.1872754220604411,1.49668354098463
0.1024999999999991,0.09477672305948903,1.932464595198052
0.1050000000000004,0.320418439155664,1.325723281254671
0.1074999999999999,0.3701923471180273,0.001619308836364681
0.1099999999999994,0.2142341021692891,-1.329188987492921
0.1125000000000007,-0.06449978242005672,-1.956043273169245
0.1150000000000002,-0.310051061700937,-1.537023028733263
0.1174999999999997,-0.3996440960331909,-0.3000752671576798
0.1199999999999992,-0.2768684563927507,1.091071944369782
0.1225000000000005,-0.01472587445758181,1.892238651732377
0.125,0.2540532285391797,1.670995962670078
0.1274999999999995,0.3768288681796757,0.5480217075811342
0.1300000000000008,0.2938723549089571,-0.8766471235022915
0.1325000000000003,0.04500281509725408,-1.838717604727307
0.1349999999999998,-0.2304128089611559,-1.815252471038882
0.1374999999999993,-0.3896893144406458,-0.8263646941699628
0.1400000000000006,-0.3432336670091792,0.5983041369134749
0.1425000000000001,-0.1209102114439567,1.697813258313993
0.1449999999999996,0.1611419336761016,1.87883000391042
0.1475000000000009,0.3536010444639032,1.047493838948415
0.1500000000000004,0.3469645234022578,-0.35370985844551
0.1524999999999999,0.151187152083629,-1.570544648288156
0.1549999999999994,-0.1341832535671238,-1.952691111213772
0.1575000000000006,-0.3498701880708442,-1.288963044026435
0.1600000000000001,-0.386371053909894,0.05860606207968421
0.1624999999999996,-0.2204580273686832,1.369301386676033
0.1649999999999991,0.05495759668960151,1.935816757153482
0.1675000000000004,0.2971906154398945,1.459809759474247
0.1699999999999999,0.3735106076488515,0.196044702254749
0.1724999999999994,0.244098446946707,-1.181693861451388
0.1750000000000007,-0.02468065605017216,-1.932578139480882
0.1775000000000002,-0.2835049774543433,-1.650996535219902
0.1799999999999997,-0.3996440960331909,-0.4911484986205747
0.1824999999999992,-0.3034145406393324,0.9268160085507897
0.1850000000000005,-0.05454500082747241,1.838604060444547
0.1875,0.2208706232309375,1.758152173512802
0.1899999999999995,0.3701923471180273,0.729038453177561
0.1925000000000008,0.3171001786247342,-0.6989825398613984
0.1950000000000003,0.08482194146714467,-1.758265717795562
0.1974999999999998,-0.1972302036529137,-1.882295710148669
0.1999999999999993,-0.3797345328481626,-1.000677115855362
0.2025000000000006,-0.3631432301941245,0.4105830674060695
0.2050000000000001,-0.1574110772830231,1.597248399649311
0.2074999999999996,0.1246410678370353,1.919055947376292
0.2100000000000009,0.3370097418097956,1.205045450856433
0.2125000000000004,0.3602375655255546,-0.1592844650271257
0.2149999999999999,0.1843697573918712,-1.449866817890539
0.2174999999999994,-0.09768238772805893,-1.962747597080181
0.2200000000000006,-0.329960624885911,-1.429753846157014
0.2225000000000001,-0.3930075749715424,-0.1358193313387001
0.2249999999999996,-0.2503223721461011,1.22515842258999
0.2274999999999991,0.01845673085053812,1.919055947375977
0.2300000000000004,0.273962791724125,1.580487589871864
0.2324999999999999,0.3768288681796757,0.3871179337176439
0.2349999999999994,0.2706445311933008,-1.020790087587897
0.2375000000000007,0.01182020978888969,-1.889000034059584
0.2400000000000002,-0.2569588932077496,-1.748209231929094
0.2424999999999997,-0.3930075749715424,-0.6755174061724909
0.2449999999999992,-0.3266423643550883,0.7525035868653371
0.2475000000000005,-0.09104586666653879,1.76820865937927
0.25,0.1910062784535196,1.831899736533568
0.2524999999999995,0.3602375655255546,0.9033508748630089
0.2550000000000008,0.3336914812788643,-0.5146136323095234
0.2575000000000003,0.121322807306211,-1.664405183041859
0.2599999999999998,-0.1607293378138473,-1.925873815570031
0.2624999999999993,-0.3664614907248551,-1.161580889718799
0.2650000000000006,-0.3764162723174214,0.2195098359431746
0.2675000000000001,-0.1939119431220895,1.476570569251693
0.2699999999999996,0.08814020199796889,1.935816757153739
0.2725000000000009,0.3171001786248639,1.3491884149425
0.2750000000000004,0.3701923471180273,0.03514092839125852
0.2774999999999999,0.2175523627001133,-1.309076015759985
0.2799999999999994,-0.05786326135817141,-1.952691111213654
0.2825000000000006,-0.3067328011701536,-1.557136000465641
0.2850000000000001,-0.3963258355023667,-0.3302447247570843
0.2874999999999996,-0.2801867169235191,1.067606810681989
0.2899999999999991,-0.0180441349885252,1.885534327821027
0.2925000000000004,0.2474167074775313,1.687756772447525
0.2949999999999999,0.3768288681796757,0.5748390032250493
0.2974999999999994,0.2971906154398945,-0.8498298278579389
0.3000000000000007,0.05163933615877576,-1.825308956905351
0.3025000000000002,-0.2270945484303316,-1.828661118860839
0.3049999999999997,-0.386371053909894,-0.8531819898134283
0.3074999999999992,-0.3465519275400215,0.571486841268912
0.3100000000000005,-0.1242284719747809,1.684404610492035
0.3125,0.1578236731452774,1.885534327821399
0.3149999999999995,0.350282783933082,1.070958972637478
0.3175000000000008,0.3502827839329929,-0.323540400846665
0.3200000000000003,0.1545054126144532,-1.553783838510709
0.3224999999999998,-0.1275467325056052,-1.952691111213946
0.3249999999999993,-0.3465519275399038,-1.312428177715765
0.3275000000000006,-0.386371053909894,0.02843660448027975
0.3300000000000001,-0.2237762878995074,1.345836252987608
0.3324999999999996,0.05163933615890251,1.935816757153739
0.3350000000000009,0.293872354909108,1.479922731206613
0.3375000000000004,0.3768288681796757,0.2262141598541534
0.3399999999999999,0.2474167074775313,-1.154876565807473
0.3424999999999994,-0.01804413498828528,-1.925873815569681
0.3450000000000006,-0.2801867169235734,-1.667757344996827
0.3475000000000001,-0.3996440960331909,-0.5213179562199792
0.3499999999999996,-0.3067328011701128,0.8999987129075195
0.3524999999999991,-0.05786326135840977,1.828547574577656
0.3550000000000004,0.2175523627001133,1.771560821334759
0.3574999999999999,0.3701923471180273,0.7592079107769655
0.3599999999999994,0.320418439155664,-0.6688130822615121
0.3625000000000007,0.08814020199784063,-1.74485706997367
0.3650000000000002,-0.1939119431220895,-1.889000034059648
0.3674999999999997,-0.3764162723174214,-1.027494411498876
0.3699999999999992,-0.3664614907249533,0.3837657717615128
0.3725000000000005,-0.1607293378138473,1.580487589871864
0.375,0.121322807306211,1.922408109331782
0.3774999999999995,0.3336914812789609,1.228510584545479
0.3800000000000008,0.3635558260562988,-0.1324671693837991
0.3825000000000003,0.1876880179226954,-1.426401684202113
0.3849999999999998,-0.09104586666653879,-1.962747597080414
0.3874999999999993,-0.326642364354951,-1.449866817890772
0.3900000000000006,-0.3930075749715424,-0.1659887889381045
0.3925000000000001,-0.2536406326769254,1.201693288901564
0.3949999999999996,0.01182020978901192,1.915703785420803
0.3975000000000009,0.2706445311933491,1.597248399648775
0.4000000000000004,0.3768288681796757,0.4172873913170483
0.4024999999999999,0.273962791724125,-0.9939727919439824
0.4049999999999994,0.01845673085077654,-1.878943548192777
0.4075000000000006,-0.250322372146166,-1.76161787975057
0.4100000000000001,-0.3930075749715424,-0.702334701816406
0.4124999999999996,-0.3299606248858823,0.7256862912220716
0.4149999999999991,-0.09768238772829285,1.754800011556845
0.4175000000000004,0.1843697573918712,1.841956222400037
0.4199999999999999,0.3602375655255546,0.930168170506924
0.4224999999999994,0.3370097418097851,-0.484444174709596
0.4250000000000007,0.1279593283677297,-1.647644373264542
0.4275000000000002,-0.1574110772830231,-1.93257813948101
0.4299999999999997,-0.3631432301941245,-1.185046023406877
0.4324999999999992,-0.379734532848238,0.1893403783431451
0.4350000000000005,-0.1972302036529137,1.456457597518757
0.4375,0.08150368093632046,1.935816757153739
0.4399999999999995,0.3171001786248398,1.372653548631523
0.4425000000000008,0.3735106076487836,0.06531038599004865
0.4450000000000003,0.2241888837617617,-1.285610882071559
0.4474999999999998,-0.05122674029664819,-1.952691111213946
0.4499999999999993,-0.3034145406391739,-1.573896810243818
0.4525000000000006,-0.3996440960331909,-0.3604141823564888
0.4550000000000001,-0.2835049774543433,1.040789515038074
0.4574999999999996,-0.02468065605005446,1.87883000391042
0.4600000000000009,0.2440984469467674,1.701165420268984
0.4625000000000004,0.3768288681796757,0.6050084608244538
0.4649999999999999,0.3005088759707187,-0.8230125322140238
0.4674999999999994,0.05495759668983838,-1.81525247103843
0.4700000000000006,-0.2204580273687587,-1.838717604726873
0.4725000000000001,-0.386371053909894,-0.8833514474128328
0.4749999999999996,-0.3498701880708276,0.5446695456256448
0.4774999999999991,-0.130864993036529,1.667643800714078
0.4800000000000004,0.151187152083629,1.892238651732377
0.4824999999999999,0.3469645234022578,1.094424106325904
0.4849999999999994,0.350282783933082,-0.2933709432467011
0.4875000000000007,0.1611419336759734,-1.533670866777965
0.4900000000000002,-0.1209102114439567,-1.956043273169436
0.4924999999999997,-0.3432336670091792,-1.33254114944841
0.4949999999999992,-0.3896893144406971,-0.001732853119729816
0.4975000000000005,-0.2304128089611559,1.322371119299182
0.5,0.04500281509725408,1.93246459519825
0.5024999999999995,0.2905540943782461,1.500035702940119
0.5050000000000008,0.3768288681796199,0.2563836174529268
0.5075000000000003,0.2540532285391797,-1.131411432119047
0.5099999999999998,-0.0114076139267576,-1.919169491659052
0.5124999999999993,-0.2768684563925741,-1.681165992819414
0.5150000000000006,-0.3963258355023667,-0.5481352518638943
0.5175000000000001,-0.310051061700937,0.8731814172636044
0.5199999999999996,-0.06449978241994506,1.818491088711611
0.5225000000000009,0.21423410216936,1.784969469156263
0.5250000000000004,0.3701923471180273,0.7860252064208805
0.5274999999999999,0.320418439155664,-0.641995786617597
0.5299999999999994,0.09477672305971993,-1.731448422151152
0.5325000000000006,-0.1872754220605271,-1.89905651992573
0.5350000000000001,-0.3764162723174214,-1.050959545187302
0.5374999999999996,-0.3664614907249487,0.35359631416275
0.5399999999999991,-0.1673658588755863,1.56037461813838
0.5425000000000004,0.1146862862445626,1.925760271287271
0.5449999999999999,0.3303732207481367,1.251975718233905
0.5474999999999994,0.3635558260563788,-0.1022977117838062
0.5500000000000007,0.194324538984217,-1.40628871246943
0.5525000000000002,-0.08440934560489036,-1.962747597080414
0.5549999999999997,-0.3233241038242339,-1.469979789623475
0.5574999999999992,-0.3930075749715107,-0.1961582465380882
0.5600000000000005,-0.2602771537385738,1.178228155213138
0.5625,0.0085019492581877,1.912351623465314
0.5649999999999995,0.2673262706624766,1.614009209426758
0.5675000000000008,0.3768288681796305,0.4474568489158079
0.5700000000000003,0.2772810522549492,-0.9705076582555567
0.5724999999999998,0.02509325191230878,-1.868887062326712
0.5749999999999993,-0.2470041116151532,-1.771674365617564
0.5775000000000006,-0.3930075749715424,-0.7325041594158105
0.5800000000000001,-0.3332788854167066,0.6955168336226671
0.5824999999999996,-0.1010006482590114,1.744743525690844
0.5850000000000009,0.1777332363303057,1.84866054631061
0.5875000000000004,0.3602375655255546,0.9569854661508391
0.5899999999999999,0.3403280023406093,-0.4542747171101915
0.5924999999999994,0.1345958494296015,-1.63088356348643
0.5950000000000006,-0.1507745562214697,-1.93593030143617
0.5975000000000001,-0.3598249696633003,-1.211863319050792
0.5999999999999996,-0.3797345328482456,0.1591709207443657
0.6024999999999991,-0.2038667247146421,1.43634462578524
0.6050000000000004,0.07818542040549624,1.935816757153739
0.6074999999999999,0.3137819180940156,1.392766520364459
0.6099999999999994,0.3735106076488515,0.09212768163457805
0.6125000000000007,0.2275071442924607,-1.262145748383446
0.6150000000000002,-0.04790847976582398,-1.949338949258457
0.6174999999999997,-0.3000962801084644,-1.594009781976582
0.6199999999999992,-0.3996440960331457,-0.3905836399564406
0.6225000000000005,-0.2901414985159917,1.017324381349648
0.625,-0.03131717711170289,1.872125679999441
0.6274999999999995,0.2407801864158828,1.71457406809144
0.6300000000000008,0.3735106076488198,0.6318257564677194
0.6325000000000003,0.3038271365015429,-0.7961952365701087
0.6349999999999998,0.06159411775137516,-1.801843823216924
0.6374999999999993,-0.2171397668377323,-1.848774090593754
0.6400000000000006,-0.3830527933790698,-0.9101687430567478
0.6425000000000001,-0.3531884486016519,0.5145000880262404
0.6449999999999996,-0.1375015140980778,1.650882990937142
0.6475000000000009,0.1445506310220711,1.898942975643002
0.6500000000000004,0.3436462628714335,1.121241401969819
0.6524999999999999,0.3536010444639062,-0.266553647602786
0.6549999999999994,0.1677784547378346,-1.51355789504427
0.6575000000000006,-0.1142736903824109,-1.959395435124651
0.6600000000000001,-0.339915406478355,-1.356006283136836
0.6624999999999996,-0.3896893144407182,-0.03190231071852916
0.6649999999999991,-0.2370493300228737,1.298905985610151
0.6675000000000004,0.03836629403560565,1.92911243324276
0.6699999999999999,0.2872358338474219,1.520148674673056
0.6724999999999994,0.3768288681796757,0.2865530750529623
0.6750000000000007,0.2573714890698847,-1.107946298430987
0.6775000000000002,-0.004771092865109164,-1.912465167748074
0.6799999999999997,-0.2702319353310464,-1.697926802596753
0.6824999999999992,-0.3963258355023093,-0.5783047094638079
0.6850000000000005,-0.3133693222317613,0.8463641216196894
0.6875,-0.07113630348159349,1.808434602845143
0.6899999999999995,0.2075975811076407,1.795025955023185
0.6925000000000008,0.3701923471180077,0.8128425020641478
0.6950000000000003,0.3270549602173125,-0.6118263290181927
0.6974999999999998,0.1014132441212657,-1.718039774329689
0.6999999999999993,-0.183957161529487,-1.905760843837009
0.7025000000000006,-0.3730980117865972,-1.077776840831217
0.7050000000000001,-0.3697797512557729,0.3234268565633456
0.7074999999999996,-0.1740023799371442,1.543613808361481
0.7100000000000009,0.1080497651830153,1.929112433242462
0.7125000000000004,0.3303732207481367,1.272088689966841
0.7149999999999999,0.3635558260563788,-0.07212825418440176
0.7174999999999994,0.2009610600460662,-1.386175740735643
0.7200000000000006,-0.07777282454335206,-1.959395435124712
0.7225000000000001,-0.3200058432934097,-1.490092761356411
0.7249999999999996,-0.3963258355023667,-0.2263277041369134
0.7274999999999991,-0.2635954142694584,1.151410859568597
0.7300000000000004,0.001865428196539268,1.905647299554335
0.7324999999999999,0.2606897496008281,1.630770019204205
0.7349999999999994,0.3768288681796757,0.4742741445603678
0.7375000000000007,0.2839175733164829,-0.9436903626120593
0.7400000000000002,0.03172977297395721,-1.862182738415733
0.7424999999999997,-0.2403675905536285,-1.785083013439477
0.7449999999999992,-0.393007574971473,-0.7593214550601921
0.7475000000000005,-0.3365971459475308,0.668699537978752
0.75,-0.1076371693206599,1.731334877868887
0.7524999999999995,0.1744149757993985,1.858717032177483
0.7550000000000008,0.3569193049947244,0.9838027617941139
0.7575000000000003,0.3436462628714335,-0.4241052595107871
0.7599999999999998,0.1379141099603321,-1.614122753709518
0.7624999999999993,-0.1474562956904207,-1.942634625347329
0.7650000000000006,-0.3598249696633003,-1.235328452739218
0.7675000000000001,-0.3830527933790698,0.1290014631449612
0.7699999999999996,-0.2071849852453863,1.416231654052885
0.7725000000000009,0.07154889934395646,1.939168919108989
0.7750000000000004,0.3104636575631914,1.412879492097395
0.7774999999999999,0.3735106076488515,0.1222971392339825
0.7799999999999994,0.2308254048234751,-1.238680614694089
0.7825000000000006,-0.04127195870429173,-1.945986787302815
0.7850000000000001,-0.2967780195776402,-1.610770591754029
0.7874999999999996,-0.3996440960331909,-0.4207530975552977
0.7899999999999991,-0.2934597590468643,0.9905070857050912
0.7925000000000004,-0.03795369817335133,1.862069194132973
0.7949999999999999,0.2341436653542344,1.727982715913397
0.7974999999999994,0.3735106076488515,0.6619952140677733
0.8000000000000007,0.3038271365014358,-0.7693779409266587
0.8025000000000002,0.06823063881302359,-1.791787337350456
0.8049999999999997,-0.2105032457762106,-1.858830576460244
0.8074999999999992,-0.3830527933789913,-0.9336338767455943
0.8100000000000005,-0.3565067091324761,0.484330630426836
0.8125,-0.1441380351597262,1.637474343115184
0.8149999999999995,0.1379141099603321,1.902295137598845
0.8175000000000008,0.3403280023406169,1.144706535657617
0.8200000000000003,0.3569193049947304,-0.2363841900033816
0.8224999999999998,0.1744149757993985,-1.49679708526739
0.8249999999999993,-0.1076371693205316,-1.959395435124715
0.8275000000000006,-0.3365971459475308,-1.379471416825262
0.8300000000000001,-0.3930075749715424,-0.06207176831793362
0.8324999999999996,-0.2403675905536285,1.27879301387782
0.8350000000000009,0.03172977297407189,1.925760271287094
0.8375000000000004,0.2839175733165976,1.536909484450502
0.8399999999999999,0.3768288681796757,0.3167225326523668
0.8424999999999994,0.260689749600881,-1.081129002786071
0.8450000000000006,-0.001452832334405666,-1.905760843837008
0.8475000000000001,-0.2669136748002222,-1.7146876123742
0.8499999999999996,-0.3996440960331909,-0.6084741670627033
