System Dynamics/Lab/lab7/Experiment4.csv

#Digilent WaveForms Oscilloscope Acquisition
#Device Name: Discovery2
#Serial Number: SN:210321AFD7CC
#Date Time: 2020-10-29 16:08:56.038
#Sample rate: 800Hz
#Samples: 7682
#Trigger: Source: Channel 1 Type: Edge Condition: Rising Level: 0 V Hyst.: Auto HoldOff: 0 s
#Channel 1: Range: 500 mV/div Offset: 0 V Attenuation: 10 X
#Channel 2: Range: 500 mV/div Offset: 0 V Attenuation: 10 X
#Wavegen Channel 1: Running
#Mode: Simple
#Type: Sine
#Frequency: 636.6197 mHz
#Period: 1.57079651 s
#Amplitude: 2 V
#Offset: 0 V
#Symmetry: 50 %
#Phase: 0 °

Time (s),Channel 1 (V),Channel 2 (V)
0,0.8679314267416597,0.9435768183288815
0.001249999999999751,1.239576606193972,1.345836252987608
0.002500000000000391,1.246213127255623,1.352540576898589
0.003750000000000142,1.252849648317269,1.359244900809565
0.004999999999999893,1.262804429909742,1.365949224720544
0.006249999999999645,1.269440950971387,1.37265354863152
0.007500000000000284,1.279395732563863,1.382710034497991
0.008750000000000036,1.286032253625511,1.38941435840897
0.009999999999999787,1.292668774687159,1.396118682319948
0.01125000000000043,1.302623556279635,1.40282300623093
0.01250000000000018,1.309260077341281,1.409527330141906
0.01374999999999993,1.319214858933753,1.419583816008374
0.01499999999999968,1.325851379995398,1.42628813991935
0.01625000000000032,1.332487901057054,1.432992463830335
0.01750000000000007,1.342442682649522,1.43969678774131
0.01874999999999982,1.345760943180347,1.446401111652289
0.01999999999999957,1.355715724772815,1.453105435563265
0.02125000000000021,1.362352245834468,1.459809759474247
0.02249999999999996,1.368988766896116,1.466514083385225
0.02374999999999972,1.375625287957765,1.473218407296204
0.02500000000000036,1.382261809019417,1.479922731207186
0.02625000000000011,1.392216590611886,1.486627055118162
0.02749999999999986,1.398853111673534,1.49333137902914
0.02874999999999961,1.40548963273518,1.500035702940116
0.03000000000000025,1.415444414327655,1.510092188806587
0.03125,1.422080935389304,1.513444350762077
0.03249999999999975,1.428717456450952,1.520148674673056
0.03375000000000039,1.435353977512604,1.526852998584038
0.03500000000000014,1.441990498574249,1.533557322495013
0.03624999999999989,1.448627019635897,1.540261646405992
0.03749999999999964,1.455263540697543,1.54361380836148
0.03875000000000028,1.461900061759194,1.55031813227246
0.04000000000000004,1.468536582820843,1.557022456183439
0.04124999999999979,1.475173103882491,1.563726780094418
0.04250000000000043,1.481809624944143,1.5704311040054
0.04375000000000018,1.488446146005788,1.577135427916375
0.04499999999999993,1.495082667067436,1.583839751827354
0.04624999999999968,1.501719188129082,1.59054407573833
0.04750000000000032,1.508355709190737,1.597248399649315
0.04875000000000007,1.514992230252382,1.60395272356029
0.04999999999999982,1.52162875131403,1.610657047471269
0.05124999999999957,1.528265272375676,1.614009209426757
0.05250000000000021,1.534901793437327,1.620713533337737
0.05374999999999996,1.541538314498975,1.624065695293226
0.05499999999999972,1.548174835560624,1.630770019204205
0.05625000000000036,1.551493096091453,1.634122181159698
0.05750000000000011,1.561447877683921,1.640826505070673
0.05874999999999986,1.564766138214745,1.647530828981652
0.05999999999999961,1.574720919807213,1.654235152892628
0.06125000000000025,1.581357440868866,1.66093947680361
0.0625,1.58467570139969,1.667643800714588
0.06374999999999975,1.591312222461339,1.670995962670078
0.06500000000000039,1.59794874352299,1.67770028658106
0.06625000000000014,1.604585264584636,1.684404610492035
0.06749999999999989,1.611221785646284,1.687756772447525
0.06874999999999964,1.614540046177107,1.694461096358501
0.07000000000000028,1.621176567238757,1.697813258313993
0.07125000000000004,1.627813088300405,1.704517582224972
0.07249999999999979,1.63113134883123,1.707869744180461
0.07375000000000043,1.637767869892881,1.714574068091441
0.07500000000000018,1.644404390954526,1.717926230046929
0.07624999999999993,1.651040912016175,1.724630553957908
0.07749999999999968,1.65767743307782,1.727982715913396
0.07875000000000032,1.66099569360865,1.734687039824379
0.08000000000000007,1.667632214670296,1.741391363735355
0.08124999999999982,1.674268735731944,1.744743525690844
0.08249999999999957,1.677586996262767,1.75144784960182
0.08375000000000021,1.684223517324417,1.754800011557313
0.08499999999999996,1.690860038386065,1.761504335468291
0.08624999999999972,1.694178298916889,1.764856497423781
0.08750000000000036,1.700814819978539,1.768208659379273
0.08875000000000011,1.704133080509362,1.774912983290249
0.08999999999999986,1.710769601571011,1.778265145245738
0.09124999999999961,1.714087862101833,1.781617307201226
0.09250000000000025,1.720724383163483,1.784969469156717
0.09375,1.727360904225132,1.791673793067696
0.09499999999999975,1.730679164755956,1.798378116978675
0.09625000000000039,1.737315685817606,1.801730278934165
0.09750000000000014,1.740633946348428,1.805082440889653
0.09874999999999989,1.747270467410077,1.808434602845143
0.09999999999999964,1.7505887279409,1.815138926756118
0.1012500000000003,1.75722524900255,1.818491088711611
0.1025,1.760543509533374,1.8218432506671
0.1037499999999998,1.763861770064198,1.82519541262259
0.1050000000000004,1.767180030595025,1.83189973653357
0.1062500000000002,1.773816551656671,1.835251898489058
0.1074999999999999,1.777134812187495,1.838604060444547
0.1087499999999997,1.78377133324914,1.841956222400035
0.1100000000000003,1.787089593779969,1.845308384355529
0.1112500000000001,1.790407854310792,1.852012708266505
0.1124999999999998,1.79704437537244,1.855364870221994
0.1137499999999996,1.800362635903263,1.858717032177482
0.1150000000000002,1.806999156964913,1.862069194132973
0.11625,1.810317417495737,1.865421356088462
0.1174999999999997,1.813635678026561,1.872125679999441
0.1187500000000004,1.820272199088211,1.872125679999443
0.1200000000000001,1.823590459619034,1.87547784195493
0.1212499999999999,1.826908720149858,1.87883000391042
0.1224999999999996,1.830226980680681,1.882182165865907
0.1237500000000002,1.833545241211507,1.885534327821399
0.125,1.840181762273155,1.888886489776888
0.1262499999999998,1.843500022803979,1.892238651732377
0.1275000000000004,1.846818283334805,1.89559081368787
0.1287500000000001,1.850136543865628,1.902295137598845
0.1299999999999999,1.856773064927276,1.902295137598845
0.1312499999999996,1.860091325458099,1.905647299554333
0.1325000000000003,1.863409585988924,1.908999461509824
0.13375,1.866727846519749,1.912351623465314
0.1349999999999998,1.870046107050573,1.915703785420803
0.1362500000000004,1.873364367581397,1.919055947376292
0.1375000000000002,1.873364367581397,1.919055947376292
0.1387499999999999,1.876682628112222,1.922408109331782
0.1399999999999997,1.880000888643044,1.925760271287269
0.1412500000000003,1.886637409704696,1.929112433242762
0.1425000000000001,1.889955670235518,1.93246459519825
0.1437499999999998,1.893273930766342,1.935816757153739
0.1449999999999996,1.896592191297165,1.935816757153739
0.1462500000000002,1.899910451827991,1.939168919109229
0.1475,1.903228712358815,1.942521081064718
0.1487499999999997,1.906546972889639,1.945873243020207
0.1500000000000004,1.909865233420463,1.945873243020207
0.1512500000000001,1.909865233420463,1.945873243020207
0.1524999999999999,1.913183493951288,1.952577566931186
0.1537499999999996,1.916501754482111,1.952577566931186
0.1550000000000002,1.919820015012936,1.952577566931186
0.15625,1.919820015012936,1.955929728886675
0.1574999999999998,1.92313827554376,1.959281890842165
0.1587500000000004,1.926456536074586,1.962634052797654
0.1600000000000001,1.929774796605409,1.962634052797654
0.1612499999999999,1.933093057136233,1.965986214753144
0.1624999999999996,1.936411317667056,1.969338376708631
0.1637500000000003,1.939729578197881,1.969338376708633
0.165,1.943047838728706,1.972690538664122
0.1662499999999998,1.943047838728706,1.976042700619612
0.1675000000000004,1.94636609925953,1.976042700619612
0.1687500000000002,1.94636609925953,1.976042700619612
0.1699999999999999,1.949684359790354,1.976042700619612
0.1712499999999997,1.953002620321177,1.9793948625751
0.1725000000000003,1.95300262032118,1.979394862575103
0.1737500000000001,1.956320880852003,1.98274702453059
0.1749999999999998,1.956320880852003,1.98274702453059
0.1762499999999996,1.959639141382825,1.986099186486078
0.1775000000000002,1.962957401913651,1.98609918648608
0.17875,1.966275662444475,1.989451348441569
0.1799999999999997,1.966275662444475,1.989451348441569
0.1812500000000004,1.969593922975299,1.989451348441571
0.1825000000000001,1.969593922975299,1.992803510397059
0.1837499999999999,1.972912183506124,1.992803510397059
0.1849999999999996,1.972912183506124,1.996155672352547
0.1862500000000002,1.972912183506124,1.996155672352548
0.1875,1.976230444036948,1.996155672352548
0.1887499999999998,1.976230444036948,1.996155672352548
0.1900000000000004,1.979548704567772,1.99615567235255
0.1912500000000001,1.979548704567772,1.999507834308038
0.1924999999999999,1.982866965098596,1.999507834308038
0.1937499999999996,1.982866965098596,1.999507834308038
0.1950000000000003,1.98618522562942,2.002859996263527
0.19625,1.98618522562942,2.002859996263527
0.1974999999999998,1.989503486160245,2.002859996263527
0.1987500000000004,1.989503486160245,2.002859996263527
0.2000000000000002,1.989503486160245,2.002859996263527
0.2012499999999999,1.989503486160245,2.002859996263527
0.2024999999999997,1.992821746691068,2.002859996263527
0.2037500000000003,1.992821746691069,2.002859996263527
0.2050000000000001,1.992821746691069,2.002859996263527
0.2062499999999998,1.992821746691069,2.002859996263527
0.2074999999999996,1.992821746691069,2.002859996263527
0.2087500000000002,1.996140007221893,2.002859996263527
0.21,1.996140007221893,2.002859996263527
0.2112499999999997,1.996140007221893,2.002859996263527
0.2125000000000004,1.999458267752717,2.002859996263528
0.2137500000000001,1.999458267752717,2.006212158219016
0.2149999999999999,1.999458267752717,2.002859996263527
0.2162499999999996,1.999458267752717,2.002859996263527
0.2175000000000002,1.999458267752717,2.002859996263527
0.21875,1.999458267752717,2.002859996263527
0.2199999999999998,1.999458267752717,1.999507834308038
0.2212500000000004,1.999458267752717,1.999507834308038
0.2225000000000001,1.999458267752717,1.999507834308038
0.2237499999999999,1.999458267752717,1.999507834308038
0.2249999999999996,1.999458267752717,1.999507834308038
0.2262500000000003,1.999458267752717,1.999507834308038
0.2275,2.002776528283542,1.999507834308038
0.2287499999999998,1.999458267752717,1.999507834308038
0.2300000000000004,2.00277652828354,1.999507834308038
0.2312500000000002,1.999458267752717,1.999507834308038
0.2324999999999999,1.999458267752717,1.996155672352548
0.2337499999999997,1.999458267752717,1.996155672352548
0.2350000000000003,1.999458267752717,1.996155672352547
0.2362500000000001,1.999458267752717,1.992803510397059
0.2374999999999998,1.999458267752717,1.989451348441569
0.2387499999999996,1.996140007221895,1.989451348441569
0.2400000000000002,1.996140007221893,1.98609918648608
0.24125,1.996140007221893,1.98609918648608
0.2424999999999997,1.996140007221893,1.98609918648608
0.2437500000000004,1.996140007221893,1.986099186486078
0.2450000000000001,1.996140007221893,1.98274702453059
0.2462499999999999,1.996140007221893,1.98274702453059
0.2474999999999996,1.996140007221893,1.979394862575103
0.2487500000000002,1.992821746691069,1.979394862575101
0.25,1.992821746691069,1.976042700619612
0.2512499999999998,1.992821746691069,1.976042700619612
0.2525000000000004,1.989503486160245,1.972690538664122
0.2537500000000001,1.989503486160245,1.972690538664122
0.2549999999999999,1.98618522562942,1.969338376708633
0.2562499999999996,1.98618522562942,1.965986214753145
0.2575000000000003,1.98618522562942,1.965986214753144
0.25875,1.982866965098596,1.962634052797654
0.2599999999999998,1.982866965098596,1.962634052797654
0.2612500000000004,1.979548704567772,1.959281890842165
0.2625000000000002,1.979548704567772,1.959281890842165
0.2637499999999999,1.979548704567772,1.955929728886675
0.2649999999999997,1.979548704567772,1.955929728886675
0.2662500000000003,1.976230444036946,1.952577566931185
0.2675000000000001,1.972912183506124,1.949225404975697
0.2687499999999998,1.972912183506124,1.945873243020207
0.2699999999999996,1.969593922975301,1.94252108106472
0.2712500000000002,1.966275662444475,1.942521081064718
0.2725,1.966275662444475,1.939168919109229
0.2737499999999997,1.962957401913651,1.935816757153739
0.2750000000000004,1.96295740191365,1.935816757153738
0.2762500000000001,1.959639141382827,1.93246459519825
0.2774999999999999,1.959639141382827,1.92911243324276
0.2787499999999996,1.956320880852004,1.92911243324276
0.2800000000000002,1.956320880852003,1.925760271287271
0.28125,1.953002620321179,1.922408109331782
0.2824999999999998,1.953002620321179,1.919055947376292
0.2837500000000004,1.949684359790352,1.915703785420801
0.2850000000000001,1.94636609925953,1.912351623465314
0.2862499999999999,1.943047838728706,1.908999461509824
0.2874999999999996,1.943047838728706,1.905647299554336
0.2887500000000003,1.939729578197881,1.902295137598845
0.29,1.936411317667057,1.898942975643356
0.2912499999999998,1.933093057136233,1.898942975643356
0.2925000000000004,1.933093057136231,1.895590813687865
0.2937500000000002,1.929774796605409,1.892238651732377
0.2949999999999999,1.926456536074585,1.888886489776888
0.2962499999999997,1.926456536074585,1.8855343278214
0.2975000000000003,1.923138275543759,1.882182165865907
0.2987500000000001,1.919820015012936,1.87883000391042
0.2999999999999998,1.916501754482112,1.87547784195493
0.3012499999999996,1.91318349395129,1.872125679999443
0.3025000000000002,1.906546972889639,1.865421356088462
0.30375,1.903228712358815,1.862069194132973
0.3049999999999997,1.899910451827991,1.858717032177483
0.3062500000000004,1.896592191297167,1.855364870221992
0.3075000000000001,1.896592191297167,1.852012708266505
0.3087499999999999,1.893273930766342,1.845308384355526
0.3099999999999996,1.88995567023552,1.841956222400038
0.3112500000000002,1.886637409704694,1.838604060444547
0.3125,1.88331914917387,1.835251898489058
0.3137499999999998,1.880000888643046,1.831899736533568
0.3150000000000004,1.87668262811222,1.828547574578077
0.3162500000000001,1.873364367581397,1.82519541262259
0.3174999999999999,1.870046107050573,1.818491088711611
0.3187499999999996,1.86672784651975,1.815138926756123
0.3200000000000003,1.8600913254581,1.811786764800632
0.32125,1.856773064927276,1.805082440889653
0.3224999999999998,1.853454804396452,1.801730278934164
0.3237500000000004,1.850136543865626,1.798378116978673
0.3250000000000002,1.846818283334803,1.795025955023185
0.3262499999999999,1.843500022803979,1.788321631112206
0.3274999999999997,1.840181762273157,1.784969469156718
0.3287500000000003,1.833545241211505,1.781617307201226
0.3300000000000001,1.830226980680683,1.778265145245738
0.3312499999999998,1.826908720149858,1.771560821334759
0.3324999999999996,1.823590459619035,1.768208659379272
0.3337500000000002,1.82027219908821,1.761504335468291
0.335,1.813635678026561,1.754800011557313
0.3362499999999997,1.810317417495737,1.751447849601823
0.3375000000000004,1.803680896434087,1.744743525690843
0.3387500000000001,1.800362635903265,1.741391363735355
0.3399999999999999,1.79704437537244,1.734687039824376
0.3412499999999996,1.790407854310795,1.731334877868888
0.3425000000000002,1.787089593779967,1.727982715913397
0.34375,1.783771333249143,1.721278392002419
0.3449999999999998,1.780453072718319,1.717926230046929
0.3462500000000004,1.777134812187492,1.711221906135949
0.3475000000000001,1.770498291125846,1.707869744180461
0.3487499999999999,1.767180030595022,1.701165420269482
0.3499999999999996,1.760543509533377,1.697813258313994
0.3512500000000003,1.75722524900255,1.691108934403014
0.3525,1.750588727940901,1.684404610492035
0.3537499999999998,1.743952206879253,1.677700286581057
0.3550000000000004,1.740633946348425,1.670995962670076
0.3562500000000002,1.73399742528678,1.667643800714588
0.3574999999999999,1.730679164755956,1.66093947680361
0.3587499999999997,1.724042643694311,1.654235152892634
0.3600000000000003,1.72072438316348,1.647530828981651
0.3612500000000001,1.714087862101835,1.644178667026163
0.3624999999999998,1.710769601571011,1.637474343115184
0.3637499999999996,1.704133080509365,1.634122181159696
0.3650000000000002,1.700814819978538,1.627417857248716
0.36625,1.694178298916889,1.620713533337737
0.3674999999999997,1.687541777855241,1.614009209426758
0.3687500000000004,1.684223517324414,1.607304885515778
0.3700000000000001,1.677586996262769,1.60395272356029
0.3712499999999999,1.67095047520112,1.597248399649311
0.3724999999999996,1.664313954139474,1.590544075738336
0.3737500000000002,1.660995693608647,1.583839751827354
0.375,1.654359172546999,1.577135427916375
0.3762499999999998,1.64772265148535,1.570431104005396
0.3775000000000004,1.644404390954523,1.563726780094416
0.3787500000000001,1.637767869892878,1.560374618138928
0.3799999999999999,1.634449609362054,1.553670294227949
0.3812499999999996,1.627813088300408,1.546965970316974
0.3825000000000003,1.621176567238757,1.540261646405992
0.38375,1.614540046177108,1.533557322495013
0.3849999999999998,1.60790352511546,1.530205160539524
0.3862500000000004,1.601267004053808,1.520148674673053
0.3875000000000002,1.594630482992163,1.513444350762077
0.3887499999999999,1.587993961930515,1.506740026851098
0.3899999999999997,1.584675701399692,1.500035702940122
0.3912500000000003,1.578039180338039,1.493331379029137
0.3925000000000001,1.571402659276393,1.486627055118162
0.3937499999999998,1.564766138214745,1.479922731207183
0.3949999999999996,1.561447877683922,1.476570569251695
0.3962500000000002,1.554811356622273,1.469866245340715
0.3975,1.548174835560624,1.459809759474247
0.3987499999999997,1.541538314498975,1.453105435563268
0.4000000000000004,1.534901793437324,1.446401111652288
0.4012500000000001,1.528265272375679,1.4430489496968
0.4024999999999999,1.52162875131403,1.432992463830332
0.4037499999999996,1.511673969721562,1.426288139919356
0.4050000000000002,1.508355709190734,1.419583816008374
0.40625,1.498400927598261,1.412879492097395
0.4074999999999998,1.495082667067436,1.402823006230927
0.4087500000000004,1.488446146005785,1.396118682319945
0.4100000000000001,1.48180962494414,1.38941435840897
0.4112499999999999,1.475173103882491,1.382710034497991
0.4124999999999996,1.468536582820846,1.379357872542503
0.4137500000000003,1.461900061759194,1.372653548631523
0.415,1.455263540697546,1.362597062765055
0.4162499999999998,1.448627019635897,1.355892738854076
0.4175000000000004,1.441990498574246,1.349188414943092
0.4187500000000002,1.435353977512601,1.339131929076629
0.4199999999999999,1.425399195920128,1.33242760516565
0.4212499999999997,1.418762674858483,1.322371119299186
0.4225000000000003,1.412126153796828,1.3156667953882
0.4237500000000001,1.405489632735183,1.308962471477224
0.4249999999999998,1.398853111673534,1.302258147566246
0.4262499999999996,1.392216590611889,1.292201661699782
0.4275000000000002,1.385580069550238,1.285497337788799
0.42875,1.375625287957765,1.27879301387782
0.4299999999999997,1.368988766896116,1.272088689966841
0.4312500000000004,1.362352245834465,1.26203220410037
0.4325000000000001,1.35571572477282,1.255327880189394
0.4337499999999999,1.345760943180347,1.245271394322926
0.4349999999999996,1.339124422118701,1.23856707041195
0.4362500000000002,1.33248790105705,1.228510584545479
0.4375,1.322533119464577,1.218454098679011
0.4387499999999998,1.315896598402929,1.211749774768032
0.4400000000000004,1.309260077341276,1.205045450857049
0.4412500000000001,1.299305295748808,1.194988964990585
0.4424999999999999,1.292668774687159,1.188284641079607
0.4437499999999996,1.286032253625514,1.181580317168631
0.4450000000000003,1.276077472033038,1.174875993257649
0.44625,1.26944095097139,1.164819507391181
0.4474999999999998,1.262804429909742,1.158115183480202
0.4487500000000004,1.256167908848088,1.148058697613729
0.4500000000000002,1.24621312725562,1.138002211747266
