System Dynamics/Lab/lab7/Experiment6.csv

#Digilent WaveForms Oscilloscope Acquisition
#Device Name: Discovery2
#Serial Number: SN:210321AFD7CC
#Date Time: 2020-10-29 16:10:27.247
#Sample rate: 800Hz
#Samples: 7483
#Trigger: Source: Channel 1 Type: Edge Condition: Rising Level: 0 V Hyst.: Auto HoldOff: 0 s
#Channel 1: Range: 500 mV/div Offset: 0 V Attenuation: 10 X
#Channel 2: Range: 500 mV/div Offset: 0 V Attenuation: 10 X
#Wavegen Channel 1: Running
#Mode: Simple
#Type: Sine
#Frequency: 954.9296 mHz
#Period: 1.04719762 s
#Amplitude: 2 V
#Offset: 0 V
#Symmetry: 50 %
#Phase: 0 °

Time (s),Channel 1 (V),Channel 2 (V)
0,-0.5456475593894564,-0.5950655192407457
0.001249999999999751,-1.537807458105897,-1.671109506952838
0.002500000000000391,-1.547762239698374,-1.677813830863821
0.003750000000000142,-1.557717021290842,-1.687870316730285
0.004999999999999893,-1.567671802883315,-1.697926802596753
0.006249999999999645,-1.577626584475783,-1.704631126507729
0.007500000000000284,-1.584263105537436,-1.711335450418711
0.008750000000000036,-1.594217887129909,-1.721391936285179
0.009999999999999787,-1.604172668722381,-1.728096260196158
0.01125000000000043,-1.610809189784034,-1.738152746062629
0.01250000000000018,-1.620763971376503,-1.744857069973604
0.01374999999999993,-1.627400492438151,-1.751561393884583
0.01499999999999968,-1.637355274030619,-1.758265717795559
0.01625000000000032,-1.6473100556231,-1.768322203662033
0.01750000000000007,-1.657264837215569,-1.775026527573009
0.01874999999999982,-1.663901358277217,-1.785083013439477
0.01999999999999957,-1.673856139869685,-1.791787337350453
0.02125000000000021,-1.683810921462162,-1.798491661261435
0.02249999999999996,-1.690447442523811,-1.805195985172413
0.02374999999999972,-1.69708396358546,-1.811900309083392
0.02500000000000036,-1.707038745177935,-1.818604632994372
0.02625000000000011,-1.71367526623958,-1.82195679494986
0.02749999999999986,-1.720311787301229,-1.828661118860839
0.02874999999999961,-1.726948308362874,-1.835365442771815
0.03000000000000025,-1.73690308995535,-1.842069766682797
0.03125,-1.743539611016999,-1.848774090593775
0.03249999999999975,-1.750176132078647,-1.855478414504754
0.03375000000000039,-1.760130913671123,-1.862182738415736
0.03500000000000014,-1.766767434732768,-1.868887062326712
0.03624999999999989,-1.773403955794417,-1.872239224282201
0.03749999999999964,-1.780040476856062,-1.878943548193177
0.03875000000000028,-1.786676997917713,-1.882295710148669
0.04000000000000004,-1.793313518979362,-1.889000034059648
0.04124999999999979,-1.79995004004101,-1.895704357970627
0.04250000000000043,-1.806586561102661,-1.899056519926119
0.04375000000000018,-1.813223082164307,-1.905760843837095
0.04499999999999993,-1.819859603225956,-1.909113005792584
0.04624999999999968,-1.826496124287601,-1.91581732970356
0.04750000000000032,-1.829814384818431,-1.919169491659056
0.04875000000000007,-1.836450905880076,-1.925873815570031
0.04999999999999982,-1.843087426941725,-1.92922597752552
0.05124999999999957,-1.84972394800337,-1.935930301436496
0.05250000000000021,-1.856360469065022,-1.939282463391989
0.05374999999999996,-1.86299699012667,-1.945986787302967
0.05499999999999972,-1.869633511188319,-1.949338949258457
0.05625000000000036,-1.876270032249969,-1.952691111213949
0.05750000000000011,-1.879588292780791,-1.959395435124925
0.05874999999999986,-1.88622481384244,-1.962747597080414
0.05999999999999961,-1.889543074373262,-1.966099759035902
0.06125000000000025,-1.896179595434913,-1.969451920991393
0.0625,-1.899497855965737,-1.972804082946882
0.06374999999999975,-1.906134377027385,-1.976156244902372
0.06500000000000039,-1.909452637558212,-1.979508406857863
0.06625000000000014,-1.916089158619858,-1.982860568813351
0.06749999999999989,-1.919407419150682,-1.98621273076884
0.06874999999999964,-1.926043940212327,-1.989564892724328
0.07000000000000028,-1.929362200743154,-1.992917054679819
0.07125000000000004,-1.932680461273979,-1.996269216635308
0.07249999999999979,-1.939316982335627,-1.999621378590798
0.07375000000000043,-1.942635242866453,-1.999621378590799
0.07500000000000018,-1.945953503397276,-2.002973540546287
0.07624999999999993,-1.9492717639281,-2.002973540546287
0.07749999999999968,-1.952590024458922,-2.006325702501775
0.07875000000000032,-1.95590828498975,-2.009677864457266
0.08000000000000007,-1.959226545520572,-2.009677864457266
0.08124999999999982,-1.962544806051397,-2.013030026412755
0.08249999999999957,-1.965863066582219,-2.013030026412755
0.08375000000000021,-1.969181327113045,-2.016382188368245
0.08499999999999996,-1.972499587643869,-2.019734350323734
0.08624999999999972,-1.975817848174694,-2.023086512279223
0.08750000000000036,-1.979136108705519,-2.023086512279223
0.08875000000000011,-1.982454369236342,-2.023086512279223
0.08999999999999986,-1.985772629767166,-2.026438674234713
0.09124999999999961,-1.989090890297989,-2.026438674234713
0.09250000000000025,-1.98909089029799,-2.026438674234713
0.09375,-1.992409150828815,-2.026438674234713
0.09499999999999975,-1.992409150828815,-2.026438674234713
0.09625000000000039,-1.995727411359639,-2.026438674234713
0.09750000000000014,-1.995727411359639,-2.026438674234713
0.09874999999999989,-1.999045671890463,-2.029790836190202
0.09999999999999964,-1.999045671890463,-2.029790836190202
0.1012500000000003,-2.002363932421287,-2.029790836190202
0.1025,-2.005682192952112,-2.029790836190202
0.1037499999999998,-2.005682192952112,-2.029790836190202
0.1050000000000004,-2.009000453482936,-2.029790836190202
0.1062500000000002,-2.009000453482936,-2.029790836190202
0.1074999999999999,-2.009000453482936,-2.029790836190202
0.1087499999999997,-2.012318714013759,-2.029790836190202
0.1100000000000003,-2.01231871401376,-2.026438674234713
0.1112500000000001,-2.01231871401376,-2.026438674234713
0.1124999999999998,-2.01231871401376,-2.023086512279223
0.1137499999999996,-2.01231871401376,-2.023086512279223
0.1150000000000002,-2.01231871401376,-2.023086512279223
0.11625,-2.01231871401376,-2.023086512279223
0.1174999999999997,-2.01231871401376,-2.023086512279223
0.1187500000000004,-2.015636974544584,-2.019734350323734
0.1200000000000001,-2.015636974544584,-2.019734350323734
0.1212499999999999,-2.015636974544584,-2.016382188368245
0.1224999999999996,-2.015636974544584,-2.016382188368245
0.1237500000000002,-2.015636974544584,-2.013030026412755
0.125,-2.01231871401376,-2.009677864457266
0.1262499999999998,-2.01231871401376,-2.009677864457266
0.1275000000000004,-2.012318714013759,-2.006325702501775
0.1287500000000001,-2.009000453482936,-2.002973540546287
0.1299999999999999,-2.009000453482936,-1.999621378590798
0.1312499999999996,-2.009000453482936,-1.999621378590798
0.1325000000000003,-2.005682192952112,-1.996269216635308
0.13375,-2.005682192952112,-1.992917054679819
0.1349999999999998,-2.002363932421287,-1.989564892724329
0.1362500000000004,-2.002363932421287,-1.989564892724328
0.1375000000000002,-2.002363932421287,-1.98621273076884
0.1387499999999999,-1.999045671890463,-1.982860568813351
0.1399999999999997,-1.999045671890463,-1.979508406857863
0.1412500000000003,-1.995727411359637,-1.972804082946881
0.1425000000000001,-1.992409150828815,-1.969451920991393
0.1437499999999998,-1.98909089029799,-1.966099759035904
0.1449999999999996,-1.98909089029799,-1.962747597080416
0.1462500000000002,-1.985772629767166,-1.956043273169436
0.1475,-1.982454369236342,-1.952691111213946
0.1487499999999997,-1.979136108705518,-1.949338949258457
0.1500000000000004,-1.975817848174694,-1.945986787302966
0.1512500000000001,-1.975817848174694,-1.942634625347478
0.1524999999999999,-1.972499587643869,-1.939282463391989
0.1537499999999996,-1.969181327113046,-1.932578139481013
0.1550000000000002,-1.965863066582221,-1.92922597752552
0.15625,-1.962544806051397,-1.922521653614542
0.1574999999999998,-1.959226545520572,-1.919169491659052
0.1587500000000004,-1.955908284989747,-1.912465167748072
0.1600000000000001,-1.952590024458924,-1.909113005792584
0.1612499999999999,-1.9492717639281,-1.902408681881606
0.1624999999999996,-1.942635242866455,-1.89570435797063
0.1637500000000003,-1.939316982335627,-1.892352196015137
0.165,-1.935998721804803,-1.885647872104159
0.1662499999999998,-1.932680461273979,-1.882295710148669
0.1675000000000004,-1.926043940212329,-1.875591386237689
0.1687500000000002,-1.922725679681506,-1.872239224282201
0.1699999999999999,-1.919407419150682,-1.865534900371222
0.1712499999999997,-1.916089158619859,-1.858830576460247
0.1725000000000003,-1.91277089808903,-1.855478414504751
0.1737500000000001,-1.906134377027385,-1.848774090593775
0.1749999999999998,-1.902816116496561,-1.842069766682797
0.1762499999999996,-1.896179595434916,-1.832013280816333
0.1775000000000002,-1.889543074373264,-1.82530895690535
0.17875,-1.882906553311615,-1.818604632994371
0.1799999999999997,-1.879588292780791,-1.811900309083392
0.1812500000000004,-1.872951771719141,-1.80519598517241
0.1825000000000001,-1.869633511188319,-1.798491661261435
0.1837499999999999,-1.86299699012667,-1.791787337350456
0.1849999999999996,-1.856360469065025,-1.78508301343948
0.1862500000000002,-1.853042208534198,-1.778378689528498
0.1875,-1.846405687472549,-1.77167436561752
0.1887499999999998,-1.839769166410901,-1.764970041706541
0.1900000000000004,-1.833132645349249,-1.758265717795557
0.1912500000000001,-1.826496124287604,-1.748209231929094
0.1924999999999999,-1.819859603225956,-1.741504908018115
0.1937499999999996,-1.81322308216431,-1.734800584107139
0.1950000000000003,-1.806586561102658,-1.724744098240668
0.19625,-1.79995004004101,-1.718039774329689
0.1974999999999998,-1.793313518979362,-1.707983288463221
0.1987500000000004,-1.78667699791771,-1.69792680259675
0.2000000000000002,-1.780040476856065,-1.691222478685774
0.2012499999999999,-1.773403955794417,-1.684518154774796
0.2024999999999997,-1.766767434732771,-1.674461668908332
0.2037500000000003,-1.760130913671116,-1.667757344997344
0.2050000000000001,-1.753494392609471,-1.65770085913088
0.2062499999999998,-1.746857871547823,-1.647644373264412
0.2074999999999996,-1.736903089955355,-1.637587887397949
0.2087500000000002,-1.730266568893701,-1.630883563486965
0.21,-1.720311787301229,-1.620827077620497
0.2112499999999997,-1.71367526623958,-1.610770591754029
0.2125000000000004,-1.703720484647105,-1.600714105887558
0.2137500000000001,-1.69708396358546,-1.594009781976582
0.2149999999999999,-1.690447442523811,-1.583953296110114
0.2162499999999996,-1.680492660931343,-1.573896810243651
0.2175000000000002,-1.67385613986969,-1.563840324377178
0.21875,-1.663901358277217,-1.553783838510709
0.2199999999999998,-1.657264837215569,-1.547079514599731
0.2212500000000004,-1.647310055623093,-1.537023028733258
0.2225000000000001,-1.640673534561448,-1.526966542866794
0.2237499999999999,-1.630718752968975,-1.513557895044837
0.2249999999999996,-1.620763971376507,-1.503501409178373
0.2262500000000003,-1.614127450314854,-1.493444923311901
0.2275,-1.604172668722381,-1.483388437445432
0.2287499999999998,-1.594217887129909,-1.476684113534454
0.2300000000000004,-1.584263105537432,-1.463275465712492
0.2312500000000002,-1.574308323944964,-1.453218979846028
0.2324999999999999,-1.564353542352491,-1.44316249397956
0.2337499999999997,-1.557717021290845,-1.433106008113096
0.2350000000000003,-1.547762239698365,-1.423049522246619
0.2362500000000001,-1.537807458105897,-1.412993036380155
0.2374999999999998,-1.527852676513424,-1.402936550513687
0.2387499999999996,-1.517897894920956,-1.392880064647224
0.2400000000000002,-1.507943113328479,-1.382823578780751
0.24125,-1.497988331736007,-1.369414930958794
0.2424999999999997,-1.488033550143534,-1.359358445092325
0.2437500000000004,-1.478078768551057,-1.345949797270362
0.2450000000000001,-1.468123986958588,-1.33254114944841
0.2462499999999999,-1.454850944835292,-1.322484663581942
0.2474999999999996,-1.444896163242823,-1.309076015759991
0.2487500000000002,-1.434941381650346,-1.299019529893516
0.25,-1.424986600057874,-1.285610882071559
0.2512499999999998,-1.415031818465401,-1.275554396205091
0.2525000000000004,-1.405077036872924,-1.265497910338617
0.2537500000000001,-1.395122255280456,-1.252089262516665
0.2549999999999999,-1.381849213157159,-1.238680614694707
0.2562499999999996,-1.371894431564691,-1.228624128828244
0.2575000000000003,-1.361939649972213,-1.215215481006282
0.25875,-1.348666607848917,-1.201806833184324
0.2599999999999998,-1.338711826256444,-1.191750347317856
0.2612500000000004,-1.325438784133141,-1.178341699495893
0.2625000000000002,-1.31216574200985,-1.164933051673941
0.2637499999999999,-1.302210960417378,-1.151524403851983
0.2649999999999997,-1.288937918294087,-1.14146791798552
0.2662500000000003,-1.278983136701604,-1.128059270163552
0.2675000000000001,-1.269028355109135,-1.1146506223416
0.2687499999999998,-1.255755312985839,-1.104594136475132
0.2699999999999996,-1.245800531393371,-1.09118548865318
0.2712500000000002,-1.232527489270069,-1.077776840831217
0.2725,-1.219254447146772,-1.064368193009259
0.2737499999999997,-1.2092996655543,-1.050959545187302
0.2750000000000004,-1.196026623430998,-1.037550897365338
0.2762500000000001,-1.18607184183853,-1.024142249543387
0.2774999999999999,-1.172798799715233,-1.010733601721429
0.2787499999999996,-1.159525757591942,-0.997324953899478
0.2800000000000002,-1.146252715468639,-0.9839163060775142
0.28125,-1.132979673345343,-0.9705076582555567
0.2824999999999998,-1.12302489175287,-0.9604511723890886
0.2837500000000004,-1.109751849629567,-0.9470425245671249
0.2850000000000001,-1.096478807506276,-0.9336338767451735
0.2862499999999999,-1.086524025913804,-0.920225228923216
0.2874999999999996,-1.073250983790513,-0.9068165811012645
0.2887500000000003,-1.05997794166721,-0.8934079332793009
0.29,-1.046704899543913,-0.8799992854573434
0.2912499999999998,-1.033431857420616,-0.8632384756798964
0.2925000000000004,-1.020158815297313,-0.8498298278579328
0.2937500000000002,-1.006885773174023,-0.8364211800359813
0.2949999999999999,-0.9936127310507256,-0.8196603702585344
0.2962499999999997,-0.9803396889274347,-0.8062517224365831
0.2975000000000003,-0.9670666468041258,-0.7928430746146132
0.2987500000000001,-0.953793604680835,-0.7794344267926618
0.2999999999999998,-0.9405205625575381,-0.7660257789707043
0.3012499999999996,-0.9272475204342473,-0.7526171311487528
0.3025000000000002,-0.9172927388417687,-0.7392084833267892
0.30375,-0.9007014361876475,-0.7257998355048317
0.3049999999999997,-0.8874283940643507,-0.7123911876828741
0.3062500000000004,-0.8741553519410478,-0.6956303779054211
0.3075000000000001,-0.8608823098177569,-0.6822217300834696
0.3087499999999999,-0.8476092676944601,-0.6688130822615121
0.3099999999999996,-0.8343362255711692,-0.6554044344395608
0.3112500000000002,-0.8177449229170421,-0.6386436246621077
0.3125,-0.8044718807937452,-0.6252349768401502
0.3137499999999998,-0.7911988386704484,-0.6118263290181927
0.3150000000000004,-0.7779257965471456,-0.598417681196229
0.3162500000000001,-0.7646527544238546,-0.5850090333742776
0.3174999999999999,-0.7513797123005578,-0.5716003855523201
0.3187499999999996,-0.7381066701772669,-0.5548395757748807
0.3200000000000003,-0.7215153675231398,-0.5414309279529156
0.32125,-0.708242325399843,-0.5246701181754686
0.3224999999999998,-0.6949692832765462,-0.5112614703535111
0.3237500000000004,-0.6816962411532417,-0.494500660576058
0.3250000000000002,-0.6651049384991282,-0.4810920127541066
0.3262499999999999,-0.6518318963758313,-0.4643312029766597
0.3274999999999997,-0.6352405937217178,-0.4509225551547082
0.3287500000000003,-0.6186492910675832,-0.4341617453772476
0.3300000000000001,-0.6053762489442923,-0.4174009355998083
0.3312499999999998,-0.5921032068209954,-0.4039922877778508
0.3324999999999996,-0.5788301646977045,-0.3905836399558993
0.3337500000000002,-0.5622388620435774,-0.3738228301784463
0.335,-0.5489658199202806,-0.3604141823564888
0.3362499999999997,-0.5356927777969838,-0.3470055345345313
0.3375000000000004,-0.5224197356736809,-0.3302447247570782
0.3387500000000001,-0.50914669355039,-0.3168360769351268
0.3399999999999999,-0.4925553908962689,-0.3034274291131692
0.3412499999999996,-0.4759640882421554,-0.28666661933573
0.3425000000000002,-0.462691046118851,-0.2699058095582754
0.34375,-0.4460997434647299,-0.2531449997808285
0.3449999999999998,-0.432826701341433,-0.2397363519588709
0.3462500000000004,-0.4162353986873059,-0.2229755421814164
0.3475000000000001,-0.4029623565640151,-0.2062147324039771
0.3487499999999999,-0.386371053909894,-0.1928060845820196
0.3499999999999996,-0.3730980117866032,-0.182749598715556
0.3512500000000003,-0.3565067091324761,-0.1659887889381045
0.3525,-0.3465519275400034,-0.152580141116147
0.3537499999999998,-0.3332788854167066,-0.1391714932941894
0.3550000000000004,-0.3166875827625779,-0.1224106835167349
0.3562500000000002,-0.3000962801084644,-0.1056498737392956
0.3574999999999999,-0.2868232379851675,-0.09224122591733808
0.3587499999999997,-0.270231935331054,-0.07883257809538663
0.3600000000000003,-0.2569588932077421,-0.062071768317926
0.3612500000000001,-0.2403675905536285,-0.0453109585404867
0.3624999999999998,-0.2237762878995074,-0.03190231071852916
0.3637499999999996,-0.2105032457762166,-0.011789338985602
0.3650000000000002,-0.1939119431220895,0.001619308836364681
0.36625,-0.1773206404679684,0.0183801186138116
0.3674999999999997,-0.1640475983446715,0.03178876643576914
0.3687500000000004,-0.1507745562213686,0.04519741425773429
0.3700000000000001,-0.1375015140980778,0.06195822403517359
0.3712499999999999,-0.1209102114439567,0.07536687185713113
0.3724999999999996,-0.1076371693206659,0.09212768163457043
0.3737500000000002,-0.09104586666653879,0.1055363294565356
0.375,-0.07777282454324191,0.1222971392339825
0.3762499999999998,-0.06118152188912084,0.1357057870559401
0.3775000000000004,-0.04790847976581643,0.1524665968333946
0.3787500000000001,-0.03131717711170289,0.1692274066108339
0.3799999999999999,-0.01472587445758181,0.1826360544327914
0.3812499999999996,-0.001452832334290983,0.1993968642102307
0.3825000000000003,0.01513847031983613,0.2128055120321959
0.38375,0.028411512443133,0.2295663218096428
0.3849999999999998,0.04500281509725408,0.2429749696316003
0.3862500000000004,0.05827585722055698,0.2563836174535655
0.3875000000000002,0.07154889934384781,0.2731444272310048
0.3887499999999999,0.08814020199796889,0.2865530750529623
0.3899999999999997,0.1014132441212597,0.2999617228749137
0.3912500000000003,0.1180045467753944,0.313370370696885
0.3925000000000001,0.1345958494295079,0.3301311804743243
0.3937499999999998,0.1478688915528048,0.3435398282962819
0.3949999999999996,0.1644601942069183,0.3603006380737212
0.3962500000000002,0.1810514968610469,0.3737092858956863
0.3975,0.1943245389843438,0.3904700956731332
0.3987499999999997,0.2109158416384649,0.4038787434950908
0.4000000000000004,0.2241888837617678,0.4206395532725438
0.4012500000000001,0.2374619258850586,0.4340482010944952
0.4024999999999999,0.2540532285391797,0.4474568489164528
0.4037499999999996,0.2673262706624705,0.4642176586938921
0.4050000000000002,0.2839175733165976,0.4776263065158572
0.40625,0.2971906154398945,0.4943871162933041
0.4074999999999998,0.3137819180940156,0.5077957641152616
0.4087500000000004,0.32705496021732,0.5212044119372268
0.4100000000000001,0.3436462628714335,0.5379652217146661
0.4112499999999999,0.3569193049947304,0.5513738695366236
0.4124999999999996,0.3735106076488439,0.5647825173585751
0.4137500000000003,0.3867836497721484,0.5815433271360281
0.415,0.4033749524262694,0.5949519749579856
0.4162499999999998,0.4166479945495663,0.6117127847354326
0.4175000000000004,0.4332392972036934,0.6251214325573962
0.4187500000000002,0.4465123393269843,0.6385300803793476
0.4199999999999999,0.4597853814502811,0.6519387282013052
0.4212499999999997,0.4730584235735719,0.6653473760232566
0.4225000000000003,0.4896497262277066,0.6821081858007157
0.4237500000000001,0.5062410288818201,0.6955168336226671
0.4249999999999998,0.519514071005117,0.7089254814446246
0.4262499999999996,0.5327871131284079,0.725686291222064
0.4275000000000002,0.5493784157825349,0.7390949390440291
0.42875,0.5626514579058318,0.755855748821476
0.4299999999999997,0.5792427605599528,0.7659122346879442
