System Dynamics/Lab/lab7/Experiment1.csv

#Digilent WaveForms Oscilloscope Acquisition
#Device Name: Discovery2
#Serial Number: SN:210321AFD7CC
#Date Time: 2020-10-29 17:07:19.109
#Sample rate: 400Hz
#Samples: 7909
#Trigger: Source: Channel 1 Type: Edge Condition: Rising Level: 0 V Hyst.: Auto HoldOff: 0 s
#Channel 1: Range: 500 mV/div Offset: 0 V Attenuation: 10 X
#Channel 2: Range: 500 mV/div Offset: 0 V Attenuation: 10 X
#Wavegen Channel 1: Running
#Mode: Simple
#Type: Sine
#Frequency: 159.154943 mHz
#Period: 6.28318531 s
#Amplitude: 2 V
#Offset: 0 V
#Symmetry: 50 %
#Phase: 0 °

Time (s),Channel 1 (V),Channel 2 (V)
0,2.002776528283542,2.002859996263527
0.002499999999999503,2.002776528283542,2.002859996263527
0.005000000000000782,2.002776528283542,2.002859996263527
0.007500000000000284,2.002776528283542,2.002859996263527
0.009999999999999787,2.006094788814366,2.006212158219016
0.01249999999999929,2.006094788814366,2.006212158219016
0.01500000000000057,2.006094788814366,2.006212158219016
0.01750000000000007,2.006094788814366,2.006212158219016
0.01999999999999957,2.002776528283542,2.002859996263527
0.02250000000000085,2.006094788814366,2.006212158219015
0.02500000000000036,2.006094788814366,2.002859996263527
0.02749999999999986,2.006094788814366,2.006212158219016
0.02999999999999936,2.006094788814366,2.006212158219016
0.03250000000000064,2.006094788814366,2.002859996263527
0.03500000000000014,2.006094788814366,2.002859996263527
0.03749999999999964,2.006094788814366,2.002859996263527
0.03999999999999915,2.006094788814366,2.002859996263527
0.04250000000000043,2.006094788814366,2.002859996263527
0.04499999999999993,2.006094788814366,2.006212158219016
0.04749999999999943,2.006094788814366,2.006212158219016
0.05000000000000071,2.006094788814366,2.006212158219015
0.05250000000000021,2.006094788814366,2.002859996263527
0.05499999999999972,2.006094788814366,2.002859996263527
0.05749999999999922,2.006094788814366,2.006212158219015
0.0600000000000005,2.006094788814366,2.006212158219016
0.0625,2.006094788814366,2.006212158219016
0.0649999999999995,2.006094788814366,2.006212158219016
0.06750000000000078,2.006094788814366,2.006212158219015
0.07000000000000028,2.006094788814366,2.002859996263527
0.07249999999999979,2.006094788814366,2.002859996263527
0.07499999999999929,2.006094788814366,2.006212158219015
0.07750000000000057,2.00941304934519,2.006212158219016
0.08000000000000007,2.00941304934519,2.006212158219016
0.08249999999999957,2.006094788814366,2.002859996263527
0.08500000000000085,2.006094788814366,2.002859996263527
0.08750000000000036,2.006094788814366,2.002859996263527
0.08999999999999986,2.006094788814366,2.002859996263527
0.09249999999999936,2.006094788814366,2.002859996263527
0.09500000000000064,2.006094788814366,2.002859996263527
0.09750000000000014,2.006094788814366,2.002859996263527
0.09999999999999964,2.006094788814366,2.002859996263527
0.1024999999999991,2.006094788814366,1.999507834308039
0.1050000000000004,2.006094788814366,1.999507834308038
0.1074999999999999,2.006094788814366,1.999507834308038
0.1099999999999994,2.006094788814366,2.002859996263527
0.1125000000000007,2.006094788814366,2.002859996263527
0.1150000000000002,2.006094788814366,2.002859996263527
0.1174999999999997,2.002776528283542,1.999507834308038
0.1199999999999992,2.002776528283542,1.999507834308038
0.1225000000000005,2.002776528283542,1.999507834308038
0.125,2.002776528283542,1.999507834308038
0.1274999999999995,2.002776528283542,1.999507834308038
0.1300000000000008,2.002776528283542,1.999507834308038
0.1325000000000003,2.002776528283542,1.999507834308038
0.1349999999999998,2.002776528283542,1.996155672352548
0.1374999999999993,1.999458267752719,1.996155672352548
0.1400000000000006,1.999458267752717,1.996155672352548
0.1425000000000001,1.999458267752717,1.996155672352548
0.1449999999999996,2.002776528283542,1.996155672352548
0.1475000000000009,1.999458267752717,1.996155672352548
0.1500000000000004,1.999458267752717,1.996155672352548
0.1524999999999999,1.999458267752717,1.992803510397059
0.1549999999999994,1.999458267752717,1.989451348441571
0.1575000000000006,1.999458267752717,1.992803510397057
0.1600000000000001,1.999458267752717,1.989451348441569
0.1624999999999996,1.999458267752717,1.992803510397059
0.1649999999999991,1.996140007221895,1.989451348441571
0.1675000000000004,1.996140007221893,1.989451348441569
0.1699999999999999,1.996140007221893,1.989451348441569
0.1724999999999994,1.996140007221893,1.989451348441569
0.1750000000000007,1.996140007221893,1.989451348441568
0.1775000000000002,1.996140007221893,1.98609918648608
0.1799999999999997,1.996140007221893,1.98609918648608
0.1824999999999992,1.992821746691071,1.98609918648608
0.1850000000000005,1.992821746691069,1.98274702453059
0.1875,1.989503486160245,1.98274702453059
0.1899999999999995,1.989503486160245,1.98274702453059
0.1925000000000008,1.992821746691068,1.98274702453059
0.1950000000000003,1.989503486160245,1.98274702453059
0.1974999999999998,1.989503486160245,1.98274702453059
0.1999999999999993,1.989503486160245,1.979394862575103
0.2025000000000006,1.98618522562942,1.976042700619612
0.2050000000000001,1.98618522562942,1.979394862575101
0.2074999999999996,1.98618522562942,1.979394862575101
0.2100000000000009,1.98618522562942,1.976042700619612
0.2125000000000004,1.98618522562942,1.976042700619612
0.2149999999999999,1.982866965098596,1.976042700619612
0.2174999999999994,1.982866965098596,1.972690538664124
0.2200000000000006,1.982866965098596,1.972690538664122
0.2225000000000001,1.982866965098596,1.972690538664122
0.2249999999999996,1.979548704567772,1.972690538664122
0.2274999999999991,1.982866965098595,1.972690538664122
0.2300000000000004,1.979548704567772,1.969338376708633
0.2324999999999999,1.979548704567772,1.969338376708633
0.2349999999999994,1.976230444036948,1.965986214753144
0.2375000000000007,1.976230444036948,1.965986214753144
0.2400000000000002,1.976230444036948,1.965986214753144
0.2424999999999997,1.976230444036948,1.965986214753144
0.2449999999999992,1.976230444036948,1.965986214753144
0.2475000000000005,1.972912183506124,1.965986214753144
0.25,1.972912183506124,1.962634052797654
0.2524999999999995,1.969593922975299,1.959281890842165
0.2550000000000008,1.969593922975299,1.959281890842165
0.2575000000000003,1.969593922975299,1.959281890842165
0.2599999999999998,1.969593922975299,1.959281890842165
0.2624999999999993,1.966275662444477,1.959281890842165
0.2650000000000006,1.966275662444475,1.955929728886675
0.2675000000000001,1.962957401913651,1.952577566931186
0.2699999999999996,1.962957401913651,1.952577566931186
0.2725000000000009,1.962957401913651,1.952577566931186
0.2750000000000004,1.962957401913651,1.952577566931186
0.2774999999999999,1.962957401913651,1.949225404975697
0.2799999999999994,1.959639141382828,1.949225404975697
0.2825000000000006,1.959639141382825,1.949225404975695
0.2850000000000001,1.956320880852003,1.945873243020207
0.2874999999999996,1.956320880852003,1.945873243020207
0.2899999999999991,1.95300262032118,1.94252108106472
0.2925000000000004,1.953002620321179,1.942521081064718
0.2949999999999999,1.953002620321179,1.942521081064718
0.2974999999999994,1.953002620321179,1.939168919109229
0.3000000000000007,1.949684359790352,1.939168919109229
0.3025000000000002,1.94636609925953,1.939168919109229
0.3049999999999997,1.94636609925953,1.935816757153739
0.3074999999999992,1.94636609925953,1.935816757153739
0.3100000000000005,1.94636609925953,1.935816757153739
0.3125,1.94636609925953,1.935816757153739
0.3149999999999995,1.943047838728706,1.93246459519825
0.3175000000000008,1.943047838728704,1.932464595198248
0.3200000000000003,1.939729578197881,1.92911243324276
0.3224999999999998,1.939729578197881,1.92911243324276
0.3249999999999993,1.939729578197881,1.925760271287273
0.3275000000000006,1.936411317667057,1.925760271287271
0.3300000000000001,1.936411317667057,1.922408109331782
0.3324999999999996,1.933093057136233,1.922408109331782
0.3350000000000009,1.933093057136231,1.919055947376292
0.3375000000000004,1.929774796605409,1.919055947376292
0.3399999999999999,1.929774796605409,1.915703785420803
0.3424999999999994,1.929774796605409,1.915703785420803
0.3450000000000006,1.929774796605407,1.915703785420803
0.3475000000000001,1.926456536074585,1.915703785420803
0.3499999999999996,1.926456536074585,1.912351623465314
0.3524999999999991,1.923138275543762,1.908999461509826
0.3550000000000004,1.919820015012936,1.908999461509824
0.3574999999999999,1.919820015012936,1.905647299554335
0.3599999999999994,1.919820015012936,1.905647299554335
0.3625000000000007,1.916501754482112,1.905647299554333
0.3650000000000002,1.916501754482112,1.902295137598845
0.3674999999999997,1.913183493951288,1.902295137598845
0.3699999999999992,1.909865233420465,1.898942975643358
0.3725000000000005,1.909865233420463,1.898942975643356
0.375,1.909865233420463,1.895590813687867
0.3774999999999995,1.909865233420463,1.895590813687867
0.3800000000000008,1.906546972889638,1.895590813687865
0.3825000000000003,1.903228712358815,1.892238651732377
0.3849999999999998,1.903228712358815,1.888886489776888
0.3874999999999993,1.899910451827992,1.8855343278214
0.3900000000000006,1.899910451827991,1.885534327821399
0.3925000000000001,1.899910451827991,1.885534327821399
0.3949999999999996,1.896592191297167,1.882182165865909
0.3975000000000009,1.896592191297165,1.882182165865907
0.4000000000000004,1.893273930766342,1.87883000391042
0.4024999999999999,1.889955670235518,1.87883000391042
0.4049999999999994,1.889955670235518,1.875477841954932
0.4075000000000006,1.889955670235517,1.875477841954929
0.4100000000000001,1.886637409704694,1.872125679999441
0.4124999999999996,1.886637409704694,1.872125679999441
0.4149999999999991,1.883319149173871,1.868773518043953
0.4175000000000004,1.880000888643046,1.865421356088462
0.4199999999999999,1.880000888643046,1.865421356088462
0.4224999999999994,1.876682628112222,1.862069194132973
0.4250000000000007,1.876682628112222,1.862069194132973
0.4275000000000002,1.876682628112222,1.862069194132973
0.4299999999999997,1.873364367581397,1.858717032177483
0.4324999999999992,1.870046107050575,1.855364870221996
0.4350000000000005,1.866727846519749,1.852012708266505
0.4375,1.866727846519749,1.852012708266505
0.4399999999999995,1.863409585988924,1.848660546311015
0.4425000000000008,1.863409585988924,1.848660546311014
0.4450000000000003,1.863409585988924,1.845308384355526
0.4474999999999998,1.8600913254581,1.845308384355526
0.4499999999999993,1.856773064927278,1.841956222400038
0.4525000000000006,1.853454804396452,1.838604060444547
0.4550000000000001,1.853454804396452,1.838604060444547
0.4574999999999996,1.850136543865628,1.835251898489058
0.4600000000000009,1.850136543865628,1.835251898489056
0.4625000000000004,1.850136543865628,1.831899736533568
0.4649999999999999,1.846818283334803,1.831899736533568
0.4674999999999994,1.843500022803981,1.82854757457808
0.4700000000000006,1.840181762273155,1.825195412622588
0.4725000000000001,1.840181762273155,1.8218432506671
0.4749999999999996,1.840181762273155,1.8218432506671
0.4774999999999991,1.836863501742332,1.8218432506671
0.4800000000000004,1.836863501742331,1.818491088711611
0.4824999999999999,1.833545241211507,1.815138926756121
0.4849999999999994,1.830226980680683,1.811786764800632
0.4875000000000007,1.826908720149856,1.811786764800631
0.4900000000000002,1.823590459619034,1.808434602845143
0.4924999999999997,1.823590459619034,1.808434602845143
0.4949999999999992,1.823590459619034,1.805082440889655
0.4975000000000005,1.82027219908821,1.805082440889653
0.5,1.816953938557385,1.801730278934164
0.5024999999999995,1.813635678026561,1.798378116978675
0.5050000000000008,1.810317417495737,1.795025955023185
0.5075000000000003,1.810317417495737,1.795025955023185
0.5099999999999998,1.810317417495737,1.795025955023185
0.5124999999999993,1.806999156964914,1.791673793067697
0.5150000000000006,1.803680896434089,1.788321631112206
0.5175000000000001,1.800362635903265,1.784969469156717
0.5199999999999996,1.79704437537244,1.781617307201228
0.5225000000000009,1.797044375372439,1.778265145245738
0.5250000000000004,1.793726114841616,1.778265145245738
0.5274999999999999,1.793726114841616,1.774912983290249
0.5299999999999994,1.790407854310794,1.774912983290249
0.5325000000000006,1.787089593779966,1.771560821334758
0.5350000000000001,1.783771333249143,1.76820865937927
0.5374999999999996,1.783771333249143,1.764856497423781
0.5399999999999991,1.780453072718321,1.761504335468293
0.5425000000000004,1.780453072718319,1.761504335468291
0.5449999999999999,1.777134812187495,1.758152173512802
0.5474999999999994,1.777134812187495,1.758152173512802
0.5500000000000007,1.773816551656669,1.754800011557311
0.5525000000000002,1.770498291125846,1.751447849601823
0.5549999999999997,1.767180030595022,1.748095687646334
0.5574999999999992,1.7638617700642,1.744743525690846
0.5600000000000005,1.763861770064198,1.744743525690844
0.5625,1.760543509533374,1.741391363735355
0.5649999999999995,1.760543509533374,1.738039201779866
0.5675000000000008,1.753906988471726,1.734687039824375
0.5700000000000003,1.753906988471726,1.731334877868887
0.5724999999999998,1.750588727940901,1.731334877868887
0.5749999999999993,1.747270467410078,1.727982715913399
0.5775000000000006,1.747270467410077,1.727982715913397
0.5800000000000001,1.743952206879253,1.724630553957908
0.5824999999999996,1.740633946348428,1.721278392002419
0.5850000000000009,1.737315685817603,1.717926230046928
0.5875000000000004,1.73399742528678,1.71457406809144
0.5899999999999999,1.73399742528678,1.71457406809144
0.5924999999999994,1.730679164755957,1.711221906135952
0.5950000000000006,1.730679164755954,1.707869744180461
0.5975000000000001,1.727360904225132,1.707869744180461
0.5999999999999996,1.724042643694307,1.701165420269482
0.6024999999999991,1.720724383163485,1.697813258313994
0.6050000000000004,1.717406122632659,1.697813258313993
0.6074999999999999,1.714087862101835,1.694461096358504
0.6099999999999994,1.714087862101835,1.691108934403014
0.6125000000000007,1.710769601571009,1.691108934403013
0.6150000000000002,1.707451341040186,1.687756772447525
0.6174999999999997,1.704133080509362,1.681052448536546
0.6199999999999992,1.700814819978539,1.677700286581058
0.6225000000000005,1.697496559447714,1.677700286581057
0.625,1.694178298916889,1.674348124625567
0.6274999999999995,1.694178298916889,1.670995962670078
0.6300000000000008,1.690860038386064,1.670995962670076
0.6325000000000003,1.687541777855241,1.667643800714588
0.6349999999999998,1.684223517324417,1.664291638759099
0.6374999999999993,1.680905256793594,1.660939476803611
0.6400000000000006,1.677586996262769,1.65758731484812
0.6425000000000001,1.677586996262769,1.654235152892631
0.6449999999999996,1.674268735731944,1.654235152892631
0.6475000000000009,1.670950475201119,1.647530828981651
0.6500000000000004,1.667632214670296,1.644178667026163
0.6524999999999999,1.664313954139471,1.640826505070673
0.6549999999999994,1.660995693608649,1.637474343115186
0.6575000000000006,1.657677433077823,1.637474343115183
0.6600000000000001,1.657677433077823,1.634122181159695
0.6624999999999996,1.654359172546999,1.630770019204205
0.6649999999999991,1.651040912016176,1.627417857248717
0.6675000000000004,1.64772265148535,1.624065695293226
0.6699999999999999,1.644404390954526,1.620713533337737
0.6724999999999994,1.641086130423702,1.620713533337737
0.6750000000000007,1.641086130423701,1.617361371382246
0.6775000000000002,1.637767869892878,1.614009209426758
0.6799999999999997,1.634449609362054,1.610657047471269
0.6824999999999992,1.631131348831231,1.607304885515781
0.6850000000000005,1.627813088300405,1.60395272356029
0.6875,1.624494827769581,1.600600561604801
0.6899999999999995,1.621176567238757,1.600600561604801
0.6925000000000008,1.621176567238755,1.59724839964931
0.6950000000000003,1.617858306707932,1.593896237693822
0.6974999999999998,1.614540046177108,1.590544075738333
0.6999999999999993,1.607903525115463,1.587191913782845
0.7025000000000006,1.604585264584636,1.583839751827354
0.7050000000000001,1.601267004053812,1.580487589871864
0.7074999999999996,1.601267004053812,1.577135427916375
0.7100000000000009,1.597948743522986,1.573783265960886
0.7125000000000004,1.594630482992163,1.573783265960886
0.7149999999999999,1.591312222461339,1.567078942049907
0.7174999999999994,1.587993961930516,1.563726780094419
0.7200000000000006,1.584675701399689,1.560374618138927
0.7225000000000001,1.581357440868866,1.557022456183439
0.7249999999999996,1.581357440868866,1.557022456183439
0.7274999999999991,1.578039180338043,1.553670294227951
0.7300000000000004,1.574720919807218,1.55031813227246
0.7324999999999999,1.571402659276393,1.546965970316971
0.7349999999999994,1.564766138214745,1.543613808361481
0.7375000000000007,1.561447877683921,1.54026164640599
0.7400000000000002,1.561447877683921,1.536909484450502
0.7424999999999997,1.558129617153097,1.533557322495013
0.7449999999999992,1.554811356622274,1.533557322495013
0.7475000000000005,1.551493096091448,1.530205160539524
0.75,1.548174835560624,1.526852998584034
0.7524999999999995,1.5448565750298,1.520148674673056
0.7550000000000008,1.541538314498974,1.516796512717566
0.7575000000000003,1.538220053968151,1.516796512717566
0.7599999999999998,1.534901793437327,1.513444350762077
0.7624999999999993,1.531583532906504,1.510092188806589
0.7650000000000006,1.528265272375679,1.506740026851098
0.7675000000000001,1.524947011844854,1.500035702940119
0.7699999999999996,1.52162875131403,1.49668354098463
0.7725000000000009,1.518310490783205,1.496683540984627
0.7750000000000004,1.514992230252382,1.489979217073651
0.7774999999999999,1.511673969721558,1.489979217073651
0.7799999999999994,1.508355709190735,1.486627055118163
0.7825000000000006,1.505037448659907,1.479922731207181
0.7850000000000001,1.501719188129085,1.476570569251693
0.7874999999999996,1.498400927598261,1.473218407296204
0.7899999999999991,1.495082667067438,1.469866245340716
0.7925000000000004,1.491764406536612,1.466514083385225
0.7949999999999999,1.488446146005788,1.463161921429736
0.7974999999999994,1.485127885474964,1.459809759474247
0.8000000000000007,1.481809624944137,1.456457597518756
0.8025000000000002,1.475173103882491,1.453105435563268
0.8049999999999997,1.475173103882491,1.449753273607779
0.8074999999999992,1.471854843351669,1.446401111652291
0.8100000000000005,1.468536582820843,1.4430489496968
0.8125,1.465218322290019,1.43969678774131
0.8149999999999995,1.461900061759194,1.436344625785821
0.8175000000000008,1.455263540697544,1.429640301874841
0.8200000000000003,1.451945280166722,1.426288139919353
0.8224999999999998,1.448627019635897,1.422935977963864
0.8249999999999993,1.448627019635897,1.419583816008376
0.8275000000000006,1.445308759105073,1.419583816008374
0.8300000000000001,1.441990498574249,1.416231654052885
0.8324999999999996,1.438672238043425,1.409527330141906
0.8350000000000009,1.432035716981775,1.406175168186415
0.8375000000000004,1.428717456450952,1.402823006230927
0.8399999999999999,1.425399195920128,1.399470844275438
0.8424999999999994,1.422080935389305,1.39611868231995
0.8450000000000006,1.4220809353893,1.392766520364457
0.8475000000000001,1.415444414327655,1.38941435840897
0.8499999999999996,1.412126153796831,1.38606219645348
0.8524999999999991,1.408807893266008,1.382710034497992
0.8550000000000004,1.405489632735183,1.379357872542502
0.8574999999999999,1.402171372204359,1.376005710587012
0.8599999999999994,1.398853111673534,1.372653548631523
0.8625000000000007,1.395534851142709,1.369301386676032
0.8650000000000002,1.392216590611886,1.365949224720544
0.8674999999999997,1.385580069550238,1.359244900809565
0.8699999999999992,1.382261809019415,1.355892738854077
0.8725000000000005,1.378943548488589,1.352540576898586
0.875,1.375625287957765,1.349188414943097
0.8774999999999995,1.37230702742694,1.345836252987608
0.8800000000000008,1.368988766896115,1.342484091032117
0.8825000000000003,1.365670506365292,1.339131929076629
0.8849999999999998,1.359033985303644,1.33242760516565
0.8874999999999993,1.355715724772821,1.329075443210162
0.8900000000000006,1.352397464241995,1.325723281254671
