System Dynamics/Lab/lab7/Experiment30.csv

#Digilent WaveForms Oscilloscope Acquisition
#Device Name: Discovery2
#Serial Number: SN:210321AFD7CC
#Date Time: 2020-10-29 16:16:33.827
#Sample rate: 800Hz
#Samples: 6694
#Trigger: Source: Channel 1 Type: Edge Condition: Rising Level: 0 V Hyst.: Auto HoldOff: 0 s
#Channel 1: Range: 500 mV/div Offset: 0 V Attenuation: 10 X
#Channel 2: Range: 500 mV/div Offset: 0 V Attenuation: 10 X
#Wavegen Channel 1: Running
#Mode: Simple
#Type: Sine
#Frequency: 4.77464829 Hz
#Period: 209.43951 ms
#Amplitude: 2 V
#Offset: 0 V
#Symmetry: 50 %
#Phase: 0 °

Time (s),Channel 1 (V),Channel 2 (V)
0,0.688745358077152,0.5413173836701555
0.001249999999999751,1.624494827769581,1.251975718233905
0.002500000000000391,1.591312222461325,1.191636803035068
0.003750000000000142,1.561447877683921,1.131297887836287
0.004999999999999893,1.528265272375679,1.067606810681989
0.006249999999999645,1.491764406536629,1.003915733527719
0.007500000000000284,1.455263540697546,0.9402246563733921
0.008750000000000036,1.415444414327655,0.8731814172636044
0.009999999999999787,1.37230702742694,0.8027860161983275
0.01125000000000043,1.329169640526205,0.7357427770885078
0.01250000000000018,1.282713993094687,0.6653473760232627
0.01374999999999993,1.232940085132324,0.5915998130024962
0.01499999999999968,1.183166177169983,0.5212044119372511
0.01625000000000032,1.133392269207573,0.4474568489164192
0.01750000000000007,1.08030010071441,0.3737092858956863
0.01874999999999982,1.023889671690398,0.2999617228749198
0.01999999999999957,0.9674792426664118,0.2228619978986991
0.02125000000000021,0.9110688136423745,0.1491144348778976
0.02249999999999996,0.8546583846183629,0.07201470990164174
0.02374999999999972,0.794929695063527,-0.001732853119124703
0.02500000000000036,0.7318827449778397,-0.07883257809541408
0.02625000000000011,0.672154055423031,-0.152580141116147
0.02749999999999986,0.6091071053373708,-0.2263277041369134
0.02874999999999961,0.5460601552517393,-0.3034274291131341
0.03000000000000025,0.4830132051660506,-0.3771749921339357
0.03125,0.4166479945495663,-0.4509225551547021
0.03249999999999975,0.350282783933082,-0.5246701181754686
0.03375000000000039,0.2839175733165659,-0.598417681196267
0.03500000000000014,0.2142341021692891,-0.6688130822615121
0.03624999999999989,0.1478688915528048,-0.7425606452822786
0.03749999999999964,0.07818542040552792,-0.8129560463475237
0.03875000000000028,0.01182020978901192,-0.8833514474128328
0.04000000000000004,-0.05454500082747241,-0.947042524567131
0.04124999999999979,-0.1209102114439567,-1.014085763676919
0.04250000000000043,-0.1872754220604712,-1.077776840831246
0.04375000000000018,-0.2536406326769254,-1.141467917985515
0.04499999999999993,-0.3200058432934097,-1.201806833184324
0.04624999999999968,-0.3863710539098638,-1.262145748383106
0.04750000000000032,-0.4527362645264085,-1.322484663581966
0.04875000000000007,-0.5191014751428626,-1.376119254869772
0.04999999999999982,-0.5821484252285227,-1.433106008113092
0.05124999999999957,-0.6451953753141543,-1.48338843744541
0.05250000000000021,-0.708242325399843,-1.533670866777773
0.05374999999999996,-0.7712892754855031,-1.583953296110114
0.05499999999999972,-0.831017965040339,-1.627531401531476
0.05625000000000036,-0.8907466545952021,-1.674461668908346
0.05750000000000011,-0.9504753441500108,-1.7146876123742
0.05874999999999986,-1.003567512643198,-1.754913555840073
0.05999999999999961,-1.059977941667184,-1.791787337350439
0.06125000000000025,-1.113070110160397,-1.82195679494986
0.0625,-1.166162278653585,-1.855478414504754
0.06374999999999975,-1.215936186615948,-1.882295710148669
0.06500000000000039,-1.269028355109157,-1.909113005792596
0.06625000000000014,-1.315484002540674,-1.935930301436499
0.06749999999999989,-1.361939649972213,-1.956043273169436
0.06874999999999964,-1.405077036872909,-1.976156244902363
0.07000000000000028,-1.448214423773643,-1.989564892724329
0.07125000000000004,-1.488033550143534,-2.002973540546287
0.07249999999999979,-1.5245344159826,-2.013030026412755
0.07375000000000043,-1.56103528182168,-2.019734350323737
0.07500000000000018,-1.590899626599084,-2.026438674234713
0.07624999999999993,-1.624082231907327,-2.026438674234713
0.07749999999999968,-1.650628316153909,-2.023086512279225
0.07875000000000032,-1.677174400400525,-2.019734350323731
0.08000000000000007,-1.700402224116284,-2.013030026412755
0.08124999999999982,-1.723630047832053,-2.002973540546287
0.08249999999999957,-1.743539611016989,-1.989564892724335
0.08375000000000021,-1.760130913671119,-1.976156244902372
0.08499999999999996,-1.773403955794417,-1.956043273169436
0.08624999999999972,-1.786676997917713,-1.935930301436499
0.08750000000000036,-1.796631779510189,-1.912465167748063
0.08875000000000011,-1.803268300571834,-1.889000034059648
0.08999999999999986,-1.806586561102658,-1.858830576460244
0.09124999999999961,-1.809904821633481,-1.825308956905365
0.09250000000000025,-1.806586561102658,-1.795139499305945
0.09375,-1.803268300571834,-1.754913555840073
0.09499999999999975,-1.796631779510186,-1.7146876123742
0.09625000000000039,-1.789995258448533,-1.674461668908308
0.09750000000000014,-1.780040476856065,-1.630883563486965
0.09874999999999989,-1.766767434732768,-1.587305458065603
0.09999999999999964,-1.753494392609477,-1.537023028733286
0.1012500000000003,-1.733584829424526,-1.486740599400922
0.1025,-1.71367526623958,-1.436458170068581
0.1037499999999998,-1.693765703054635,-1.382823578780751
0.1050000000000004,-1.667219618808029,-1.325836825537404
0.1062500000000002,-1.640673534561448,-1.265497910338623
0.1074999999999999,-1.61080918978403,-1.205158995139814
0.1087499999999997,-1.577626584475803,-1.144820079941032
0.1100000000000003,-1.541125718636705,-1.081129002786676
0.1112500000000001,-1.504624852797655,-1.014085763676919
0.1124999999999998,-1.464805726427764,-0.947042524567131
0.1137499999999996,-1.424986600057892,-0.8833514474128618
0.1150000000000002,-1.381849213157159,-0.8129560463475557
0.11625,-1.338711826256444,-0.7425606452822786
0.1174999999999997,-1.292256178824905,-0.6721652442170015
0.1187500000000004,-1.245800531393344,-0.6017698431516925
0.1200000000000001,-1.196026623431003,-0.5313744420864475
0.1212499999999999,-1.142934454937815,-0.4542747171101915
0.1224999999999996,-1.089842286444652,-0.3805271540894586
0.1237500000000002,-1.033431857420616,-0.3067795910686587
0.125,-0.9770214283966044,-0.2296798660924028
0.1262499999999998,-0.9206109993725928,-0.1559323030716364
0.1275000000000004,-0.8608823098177297,-0.08218474005083486
0.1287500000000001,-0.801153620262921,-0.005085015074614087
0.1299999999999999,-0.7381066701772609,0.07201470990164174
0.1312499999999996,-0.6783779806224522,0.1491144348778625
0.1325000000000003,-0.615331030536765,0.222861997898664
0.13375,-0.5522840804511048,0.2966095609194305
0.1349999999999998,-0.4859188698346205,0.3703571239401969
0.1362500000000004,-0.4228719197489302,0.4441046869609969
0.1375000000000002,-0.3565067091324761,0.5178522499817297
0.1387499999999999,-0.2901414985159917,0.5882476510470068
0.1399999999999997,-0.2204580273687149,0.6619952140677398
0.1412500000000003,-0.1540928167521687,0.729038453177593
0.1425000000000001,-0.08772760613571456,0.7994338542428381
0.1437499999999998,-0.02136239551923024,0.8698292553081151
0.1449999999999996,0.04832107562804661,0.9368724944178722
0.1462500000000002,0.1146862862445626,1.00391573352769
0.1475,0.1810514968610469,1.067606810681989
0.1487499999999997,0.2474167074775313,1.127945725880798
0.1500000000000004,0.3137819180940458,1.191636803035122
0.1512500000000001,0.3801471287104999,1.248623556278416
0.1524999999999999,0.4465123393269843,1.305610309521735
0.1537499999999996,0.5095592894126157,1.362597062765029
0.1550000000000002,0.5759245000291286,1.416231654052885
0.15625,0.6389714501147887,1.469866245340715
0.1574999999999998,0.7020184002004489,1.520148674673056
0.1587500000000004,0.7617470897553119,1.567078942049928
0.1600000000000001,0.8214757793101206,1.614009209426758
0.1612499999999999,0.8845227293957808,1.65758731484812
0.1624999999999996,0.9409331584197668,1.697813258313975
0.1637500000000003,0.9973435874438041,1.738039201779866
0.165,1.053754016467816,1.771560821334759
0.1662499999999998,1.106846184961003,1.805082440889653
0.1675000000000004,1.159938353454212,1.835251898489072
0.1687500000000002,1.20639400088573,1.865421356088462
0.1699999999999999,1.256167908848093,1.888886489776888
0.1712499999999997,1.302623556279611,1.912351623465303
0.1725000000000003,1.349079203711191,1.932464595198257
0.1737500000000001,1.392216590611886,1.949225404975697
0.1749999999999998,1.432035716981777,1.965986214753144
0.1762499999999996,1.471854843351649,1.976042700619607
0.1775000000000002,1.508355709190734,1.989451348441569
0.17875,1.5448565750298,1.996155672352548
0.1799999999999997,1.578039180338042,1.999507834308038
0.1812500000000004,1.607903525115473,1.999507834308036
0.1825000000000001,1.637767869892878,1.996155672352548
0.1837499999999999,1.660995693608647,1.992803510397059
0.1849999999999996,1.684223517324406,1.982747024530595
0.1862500000000002,1.707451341040186,1.972690538664122
0.1875,1.727360904225132,1.959281890842165
0.1887499999999998,1.743952206879253,1.942521081064718
0.1900000000000004,1.757225249002554,1.92576027128726
0.1912500000000001,1.767180030595022,1.902295137598845
0.1924999999999999,1.777134812187495,1.87883000391042
0.1937499999999996,1.78377133324914,1.855364870222005
0.1950000000000003,1.787089593779967,1.82519541262259
0.19625,1.790407854310792,1.795025955023185
0.1974999999999998,1.787089593779967,1.758152173512802
0.1987500000000004,1.783771333249142,1.7212783920024
0.2000000000000002,1.780453072718319,1.681052448536546
0.2012499999999999,1.770498291125846,1.640826505070673
0.2024999999999997,1.757225249002556,1.593896237693843
0.2037500000000003,1.743952206879245,1.546965970316949
0.2050000000000001,1.727360904225132,1.500035702940119
0.2062499999999998,1.707451341040186,1.449753273607779
0.2074999999999996,1.68754177785525,1.396118682319973
0.2087500000000002,1.664313954139471,1.342484091032118
0.21,1.637767869892878,1.285497337788799
0.2112499999999997,1.611221785646284,1.22515842258999
0.2125000000000004,1.581357440868851,1.168171669346641
0.2137500000000001,1.548174835560624,1.104480592192372
0.2149999999999999,1.511673969721558,1.040789515038074
0.2162499999999996,1.475173103882508,0.9770984378838043
0.2175000000000002,1.438672238043425,0.9100551987739877
0.21875,1.39553485114271,0.8430119596642001
0.2199999999999998,1.352397464241995,0.772616558598923
0.2212500000000004,1.305941816810435,0.7022211575336139
0.2225000000000001,1.259486169378917,0.6318257564683688
0.2237499999999999,1.209712261416554,0.5580781934476023
0.2249999999999996,1.163256613985036,0.4876827923823574
0.2262500000000003,1.110164445491828,0.4139352293615589
0.2275,1.05707227699864,0.3401876663407925
0.2287499999999998,1.000661847974628,0.2697922652755154
0.2300000000000004,0.9442514189505911,0.1926925402992261
0.2312500000000002,0.887840989926605,0.1189449772784931
0.2324999999999999,0.8281123003717691,0.04184525230223729
0.2337499999999997,0.7683836108169604,-0.03525447267398349
0.2350000000000003,0.7053366607312445,-0.1123541976503079
0.2362500000000001,0.642289710645613,-0.1861017606710408
0.2374999999999998,0.5792427605599528,-0.2632014856472966
0.2387499999999996,0.5161958104743214,-0.3369490486680295
0.2400000000000002,0.4498305998578084,-0.4106966116888295
0.24125,0.3834653892413241,-0.4877963366650854
0.2424999999999997,0.3171001786248398,-0.5581917377303625
0.2437500000000004,0.2540532285391495,-0.6285871387956731
0.2450000000000001,0.1876880179226954,-0.702334701816406
0.2462499999999999,0.121322807306211,-0.7693779409261937
0.2474999999999996,0.05163933615893419,-0.8397733419914387
0.2487500000000002,-0.01472587445758181,-0.9101687430567478
0.25,-0.08440934560489036,-0.9772119821665355
0.2512499999999998,-0.1507745562213747,-1.040903059320834
0.2525000000000004,-0.2204580273687134,-1.10794629843065
0.2537500000000001,-0.2868232379851675,-1.17163737558492
0.2549999999999999,-0.3531884486016519,-1.231976290783729
0.2562499999999996,-0.419553659218106,-1.288963044027022
0.2575000000000003,-0.4826006093037963,-1.349301959225857
0.25875,-0.5489658199202806,-1.402936550513687
0.2599999999999998,-0.6120127700059407,-1.456571141801517
0.2612500000000004,-0.6750597200916281,-1.506853571133881
0.2625000000000002,-0.7347884096464368,-1.557136000466199
0.2637499999999999,-0.7978353597320968,-1.60406626784305
0.2649999999999997,-0.8575640492869055,-1.647644373264393
0.2662500000000003,-0.9172927388417943,-1.691222478685793
0.2675000000000001,-0.9737031678657803,-1.731448422151647
0.2687499999999998,-1.030113596889792,-1.77167436561752
0.2699999999999996,-1.086524025913778,-1.805195985172398
0.2712500000000002,-1.139616194406991,-1.838717604727307
0.2725,-1.192708362900178,-1.868887062326712
0.2737499999999997,-1.242482270862542,-1.895704357970627
0.2750000000000004,-1.288937918294102,-1.922521653614552
0.2762500000000001,-1.33539356572562,-1.945986787302967
0.2774999999999999,-1.381849213157159,-1.962747597080414
0.2787499999999996,-1.424986600057854,-1.979508406857854
0.2800000000000002,-1.464805726427764,-1.996269216635308
0.28125,-1.504624852797655,-2.006325702501776
0.2824999999999998,-1.541125718636721,-2.016382188368245
0.2837500000000004,-1.574308323944979,-2.023086512279225
0.2850000000000001,-1.607490929253205,-2.026438674234713
0.2862499999999999,-1.637355274030623,-2.026438674234713
0.2874999999999996,-1.667219618808028,-2.023086512279225
0.2887500000000003,-1.690447442523811,-2.019734350323734
0.29,-1.71367526623958,-2.009677864457266
0.2912499999999998,-1.733584829424526,-1.999621378590798
0.2925000000000004,-1.753494392609477,-1.982860568813343
0.2937500000000002,-1.766767434732768,-1.966099759035904
0.2949999999999999,-1.780040476856065,-1.945986787302967
0.2962499999999997,-1.789995258448533,-1.922521653614552
0.2975000000000003,-1.799950040041012,-1.899056519926104
0.2987500000000001,-1.803268300571834,-1.872239224282201
0.2999999999999998,-1.806586561102658,-1.842069766682797
0.3012499999999996,-1.809904821633481,-1.811900309083406
0.3025000000000002,-1.806586561102658,-1.778378689528498
0.30375,-1.803268300571834,-1.738152746062626
0.3049999999999997,-1.796631779510186,-1.697926802596753
0.3062500000000004,-1.789995258448531,-1.654348697175371
0.3075000000000001,-1.776722216325241,-1.610770591754029
0.3087499999999999,-1.760130913671119,-1.563840324377178
0.3099999999999996,-1.743539611017006,-1.51355789504486
0.3112500000000002,-1.723630047832053,-1.463275465712496
0.3125,-1.703720484647108,-1.409640874424666
0.3137499999999998,-1.680492660931338,-1.352654121181347
0.3150000000000004,-1.653946576684731,-1.295667367938001
0.3162500000000001,-1.624082231907327,-1.238680614694707
0.3174999999999999,-1.594217887129909,-1.178341699495899
0.3187499999999996,-1.564353542352504,-1.114650622341629
0.3200000000000003,-1.527852676513424,-1.050959545187302
0.32125,-1.491351810674358,-0.9872684680330036
0.3224999999999998,-1.451532684304468,-0.920225228923216
0.3237500000000004,-1.408395297403733,-0.8498298278579084
0.3250000000000002,-1.365257910503038,-0.7827865887481512
0.3262499999999999,-1.318802263071499,-0.7123911876828741
0.3274999999999997,-1.272346615639981,-0.6386436246621412
0.3287500000000003,-1.222572707677572,-0.5648960616413092
0.3300000000000001,-1.169480539184409,-0.4945006605760641
0.3312499999999998,-1.116388370691221,-0.4207530975552977
0.3324999999999996,-1.063296202198058,-0.3470055345345648
0.3337500000000002,-1.006885773174023,-0.2732579715137648
0.335,-0.9504753441500108,-0.196158246537509
0.3362499999999997,-0.8940649151259991,-0.1224106835167425
0.3375000000000004,-0.8376544861019588,-0.04866312049594101
0.3387500000000001,-0.7746075360163273,0.02843660448027975
0.3399999999999999,-0.7148788464614915,0.1055363294565356
0.3412499999999996,-0.6518318963758599,0.1792838924772685
0.3425000000000002,-0.585466685759347,0.2563836174535579
0.34375,-0.5224197356736869,0.3301311804743243
0.3449999999999998,-0.4560545250572026,0.4038787434950908
0.3462500000000004,-0.3896893144406896,0.4776263065158908
0.3475000000000001,-0.3266423643550581,0.5513738695366236
0.3487499999999999,-0.2569588932077496,0.6217692706019007
0.3499999999999996,-0.1905936825912954,0.6921646716671458
0.3512500000000003,-0.1242284719747809,0.7625600727324549
0.3525,-0.05786326135829662,0.8296033118422425
0.3537499999999998,0.0085019492581877,0.8999987129075195
0.3550000000000004,0.0748671598747022,0.9636897900618484
0.3562500000000002,0.1412323704911563,1.030733029171605
0.3574999999999999,0.2109158416384649,1.091071944370414
0.3587499999999997,0.277281052254919,1.154763021524684
0.3600000000000003,0.3436462628714637,1.215101936723549
0.3612500000000001,0.4100114734879178,1.275440851922331
0.3624999999999998,0.4763766841044021,1.33577976712114
0.3637499999999996,0.5427418947208563,1.389414358408945
0.3650000000000002,0.6057888448065466,1.4430489496968
0.36625,0.6688357948922067,1.49333137902914
0.3674999999999997,0.7285644844470426,1.540261646405992
0.3687500000000004,0.7882931740019057,1.587191913782863
0.3700000000000001,0.8480218635567144,1.630770019204205
0.3712499999999999,0.9077505531115503,1.674348124625567
0.3724999999999996,0.9641609821355362,1.714574068091422
0.3737500000000002,1.020571411159574,1.751447849601823
0.375,1.076981840183585,1.788321631112206
0.3762499999999998,1.130074008676773,1.8218432506671
0.3775000000000004,1.183166177169983,1.852012708266517
0.3787500000000001,1.232940085132324,1.87883000391042
0.3799999999999999,1.279395732563863,1.902295137598845
0.3812499999999996,1.32585137999538,1.92576027128726
0.3825000000000003,1.368988766896116,1.942521081064718
0.38375,1.412126153796831,1.959281890842165
0.3849999999999998,1.451945280166722,1.972690538664122
0.3862500000000004,1.488446146005805,1.982747024530594
0.3875000000000002,1.524947011844854,1.989451348441569
0.3887499999999999,1.558129617153097,1.996155672352548
0.3899999999999997,1.591312222461324,1.999507834308036
0.3912500000000003,1.621176567238769,1.999507834308036
0.3925000000000001,1.64772265148535,1.996155672352548
0.3937499999999998,1.674268735731944,1.989451348441569
0.3949999999999996,1.697496559447703,1.979394862575106
0.3962500000000002,1.717406122632659,1.969338376708633
0.3975,1.73399742528678,1.952577566931186
0.3987499999999997,1.750588727940901,1.935816757153739
0.4000000000000004,1.763861770064203,1.915703785420794
0.4012500000000001,1.773816551656671,1.895590813687867
0.4024999999999999,1.780453072718319,1.868773518043952
0.4037499999999996,1.783771333249142,1.838604060444561
0.4050000000000002,1.787089593779967,1.808434602845143
0.40625,1.787089593779967,1.778265145245738
0.4074999999999998,1.787089593779967,1.741391363735355
0.4087500000000004,1.783771333249139,1.704517582224953
0.4100000000000001,1.773816551656671,1.664291638759099
0.4112499999999999,1.767180030595022,1.620713533337737
0.4124999999999996,1.753906988471732,1.573783265960907
0.4137500000000003,1.740633946348428,1.530205160539524
0.415,1.720724383163483,1.479922731207183
0.4162499999999998,1.700814819978538,1.426288139919353
0.4175000000000004,1.677586996262757,1.372653548631497
0.4187500000000002,1.651040912016175,1.315666795388203
0.4199999999999999,1.624494827769581,1.255327880189394
0.4212499999999997,1.594630482992177,1.194988964990613
0.4225000000000003,1.56476613821473,1.138002211747237
0.4237500000000001,1.531583532906503,1.074311134592967
0.4249999999999998,1.495082667067436,1.010620057438669
0.4262499999999996,1.458581801228387,0.9469289802843999
0.4275000000000002,1.418762674858479,0.8798857411745833
0.42875,1.378943548488589,0.8128425020647956
0.4299999999999997,1.33248790105705,0.7424471009995185
0.4312500000000004,1.289350514156312,0.6720516999342094
0.4325000000000001,1.239576606193972,0.6016562988689643
0.4337499999999999,1.189802698231609,0.527908735848198
0.4349999999999996,1.140028790269268,0.457513334782953
