System Dynamics/Lab/lab7/Experiment10.csv

#Digilent WaveForms Oscilloscope Acquisition
#Device Name: Discovery2
#Serial Number: SN:210321AFD7CC
#Date Time: 2020-10-29 16:13:42.335
#Sample rate: 800Hz
#Samples: 6224
#Trigger: Source: Channel 1 Type: Edge Condition: Rising Level: 0 V Hyst.: Auto HoldOff: 0 s
#Channel 1: Range: 500 mV/div Offset: 0 V Attenuation: 10 X
#Channel 2: Range: 500 mV/div Offset: 0 V Attenuation: 10 X
#Wavegen Channel 1: Running
#Mode: Simple
#Type: Sine
#Frequency: 1.59154943 Hz
#Period: 628.318531 ms
#Amplitude: 2 V
#Offset: 0 V
#Symmetry: 50 %
#Phase: 0 °

Time (s),Channel 1 (V),Channel 2 (V)
0,-1.262391834047487,-1.459923303757007
0.001249999999999751,-1.471442247489413,-1.697926802596753
0.002500000000000391,-1.488033550143542,-1.711335450418717
0.003750000000000142,-1.504624852797655,-1.724744098240668
0.004999999999999893,-1.521216155451776,-1.741504908018115
0.006249999999999645,-1.53780745810589,-1.751561393884578
0.007500000000000284,-1.554398760760018,-1.764970041706541
0.008750000000000036,-1.567671802883315,-1.778378689528498
0.009999999999999787,-1.584263105537436,-1.791787337350456
0.01125000000000043,-1.600854408191563,-1.801843823216929
0.01250000000000018,-1.614127450314854,-1.811900309083392
0.01374999999999993,-1.627400492438151,-1.82195679494986
0.01499999999999968,-1.640673534561442,-1.832013280816324
0.01625000000000032,-1.657264837215575,-1.845421928638291
0.01750000000000007,-1.670537879338866,-1.855478414504754
0.01874999999999982,-1.683810921462162,-1.865534900371222
0.01999999999999957,-1.697083963585454,-1.875591386237686
0.02125000000000021,-1.710357005708756,-1.885647872104159
0.02249999999999996,-1.723630047832053,-1.895704357970627
0.02374999999999972,-1.73690308995535,-1.902408681881606
0.02500000000000036,-1.746857871547829,-1.912465167748077
0.02625000000000011,-1.760130913671119,-1.919169491659052
0.02749999999999986,-1.770085695263592,-1.925873815570031
0.02874999999999961,-1.78004047685606,-1.932578139481007
0.03000000000000025,-1.793313518979362,-1.942634625347478
0.03125,-1.803268300571834,-1.949338949258457
0.03249999999999975,-1.813223082164307,-1.956043273169436
0.03375000000000039,-1.823177863756784,-1.962747597080418
0.03500000000000014,-1.833132645349252,-1.969451920991393
0.03624999999999989,-1.843087426941725,-1.976156244902372
0.03749999999999964,-1.853042208534193,-1.982860568813348
0.03875000000000028,-1.86299699012667,-1.98621273076884
0.04000000000000004,-1.872951771719143,-1.992917054679819
0.04124999999999979,-1.879588292780791,-1.996269216635308
0.04250000000000043,-1.889543074373267,-2.002973540546289
0.04375000000000018,-1.896179595434913,-2.006325702501776
0.04499999999999993,-1.902816116496561,-2.009677864457266
0.04624999999999968,-1.909452637558206,-2.009677864457266
0.04750000000000032,-1.916089158619861,-2.013030026412757
0.04875000000000007,-1.922725679681506,-2.016382188368245
0.04999999999999982,-1.929362200743154,-2.019734350323734
0.05124999999999957,-1.9359987218048,-2.023086512279222
0.05250000000000021,-1.942635242866452,-2.023086512279223
0.05374999999999996,-1.9492717639281,-2.026438674234713
0.05499999999999972,-1.955908284989748,-2.026438674234713
0.05625000000000036,-1.959226545520574,-2.029790836190202
0.05750000000000011,-1.962544806051397,-2.029790836190202
0.05874999999999986,-1.969181327113045,-2.029790836190202
0.05999999999999961,-1.972499587643868,-2.029790836190202
0.06125000000000025,-1.975817848174694,-2.026438674234713
0.0625,-1.975817848174694,-2.026438674234713
0.06374999999999975,-1.979136108705518,-2.026438674234713
0.06500000000000039,-1.982454369236344,-2.023086512279223
0.06625000000000014,-1.985772629767166,-2.023086512279223
0.06749999999999989,-1.98909089029799,-2.023086512279223
0.06874999999999964,-1.992409150828813,-2.019734350323735
0.07000000000000028,-1.992409150828815,-2.016382188368245
0.07125000000000004,-1.995727411359639,-2.013030026412755
0.07249999999999979,-1.995727411359639,-2.013030026412755
0.07375000000000043,-1.995727411359639,-2.009677864457263
0.07500000000000018,-1.995727411359639,-2.002973540546287
0.07624999999999993,-1.995727411359639,-1.999621378590798
0.07749999999999968,-1.995727411359639,-1.992917054679822
0.07875000000000032,-1.995727411359637,-1.989564892724326
0.08000000000000007,-1.992409150828815,-1.982860568813351
0.08124999999999982,-1.992409150828815,-1.979508406857861
0.08249999999999957,-1.989090890297992,-1.972804082946886
0.08375000000000021,-1.98909089029799,-1.966099759035904
0.08499999999999996,-1.985772629767166,-1.959395435124925
0.08624999999999972,-1.985772629767166,-1.956043273169436
0.08750000000000036,-1.982454369236341,-1.949338949258454
0.08875000000000011,-1.979136108705518,-1.942634625347478
0.08999999999999986,-1.975817848174694,-1.93257813948101
0.09124999999999961,-1.972499587643871,-1.925873815570034
0.09250000000000025,-1.969181327113045,-1.915817329703563
0.09375,-1.962544806051397,-1.909113005792584
0.09499999999999975,-1.959226545520572,-1.899056519926116
0.09625000000000039,-1.952590024458921,-1.889000034059645
0.09750000000000014,-1.945953503397276,-1.882295710148669
0.09874999999999989,-1.942635242866452,-1.872239224282201
0.09999999999999964,-1.935998721804806,-1.862182738415737
0.1012500000000003,-1.932680461273979,-1.852126252549265
0.1025,-1.92604394021233,-1.842069766682797
0.1037499999999998,-1.919407419150682,-1.832013280816328
0.1050000000000004,-1.91277089808903,-1.821956794949856
0.1062500000000002,-1.906134377027385,-1.811900309083392
0.1074999999999999,-1.899497855965737,-1.798491661261435
0.1087499999999997,-1.889543074373268,-1.788435175394971
0.1100000000000003,-1.879588292780788,-1.775026527573003
0.1112500000000001,-1.872951771719143,-1.761617879751051
0.1124999999999998,-1.86299699012667,-1.748209231929094
0.1137499999999996,-1.853042208534202,-1.734800584107142
0.1150000000000002,-1.843087426941725,-1.721391936285179
0.11625,-1.833132645349252,-1.707983288463221
0.1174999999999997,-1.82317786375678,-1.694574640641264
0.1187500000000004,-1.813223082164303,-1.6811659928193
0.1200000000000001,-1.803268300571834,-1.667757344997349
0.1212499999999999,-1.796631779510186,-1.650996535219902
0.1224999999999996,-1.783358737386895,-1.63758788739795
0.1237500000000002,-1.773403955794417,-1.620827077620497
0.125,-1.760130913671119,-1.60741842979854
0.1262499999999998,-1.746857871547823,-1.594009781976582
0.1275000000000004,-1.736903089955344,-1.577248972199126
0.1287500000000001,-1.723630047832053,-1.557136000466199
0.1299999999999999,-1.710357005708756,-1.540375190688752
0.1312499999999996,-1.697083963585466,-1.5269665428668
0.1325000000000003,-1.683810921462162,-1.510205733089347
0.13375,-1.670537879338866,-1.493444923311901
0.1349999999999998,-1.657264837215569,-1.476684113534454
0.1362500000000004,-1.643991795092266,-1.459923303756999
0.1375000000000002,-1.630718752968975,-1.44316249397956
0.1387499999999999,-1.617445710845678,-1.426401684202113
0.1399999999999997,-1.600854408191565,-1.406288712469186
0.1412500000000003,-1.587581366068253,-1.386175740736234
0.1425000000000001,-1.570990063414139,-1.372767092914283
0.1437499999999998,-1.554398760760018,-1.352654121181347
0.1449999999999996,-1.537807458105905,-1.329188987492931
0.1462500000000002,-1.521216155451776,-1.309076015759985
0.1475,-1.504624852797655,-1.292315205982538
0.1487499999999997,-1.491351810674358,-1.272202234249601
0.1500000000000004,-1.471442247489405,-1.252089262516656
0.1512500000000001,-1.454850944835292,-1.231976290783729
0.1524999999999999,-1.441577902711995,-1.211863319050792
0.1537499999999996,-1.421668339527059,-1.195102509273353
0.1550000000000002,-1.405077036872928,-1.174989537540409
0.15625,-1.388485734218807,-1.154876565807473
0.1574999999999998,-1.368576171033862,-1.131411432119047
0.1587500000000004,-1.351984868379732,-1.107946298430611
0.1600000000000001,-1.332075305194796,-1.084481164742196
0.1612499999999999,-1.31216574200985,-1.064368193009259
0.1624999999999996,-1.295574439355737,-1.044255221276332
0.1637500000000003,-1.275664876170784,-1.020790087587897
0.165,-1.255755312985839,-1.000677115854961
0.1662499999999998,-1.235845749800893,-0.9772119821665355
0.1675000000000004,-1.215936186615939,-0.9537468484781007
0.1687500000000002,-1.196026623431003,-0.9336338767451735
0.1699999999999999,-1.176117060246058,-0.9135209050122371
0.1712499999999997,-1.156207497061121,-0.8900557713238222
0.1725000000000003,-1.136297933876158,-0.8665906376353751
0.1737500000000001,-1.116388370691221,-0.8431255039469602
0.1749999999999998,-1.093160546975452,-0.8196603702585344
0.1762499999999996,-1.073250983790516,-0.7961952365701194
0.1775000000000002,-1.053341420605562,-0.7727301028816831
0.17875,-1.030113596889792,-0.7492649691932574
0.1799999999999997,-1.006885773174023,-0.7291519974603211
0.1812500000000004,-0.986976209989068,-0.7023347018163953
0.1825000000000001,-0.9670666468041318,-0.6788695681279803
0.1837499999999999,-0.9438388230883623,-0.6554044344395547
0.1849999999999996,-0.9239292599034261,-0.6319393007511396
0.1862500000000002,-0.9007014361876475,-0.6084741670627033
0.1875,-0.8807918730027022,-0.5850090333742776
0.1887499999999998,-0.8575640492869328,-0.5615438996858518
0.1900000000000004,-0.8343362255711526,-0.5380787659974156
0.1912500000000001,-0.8111084018553937,-0.5146136323090005
0.1924999999999999,-0.7878805781396242,-0.4877963366650854
0.1937499999999996,-0.7646527544238652,-0.4609790410211825
0.1950000000000003,-0.7414249307080851,-0.4375139073327446
0.19625,-0.7181971069923156,-0.4106966116888295
0.1974999999999998,-0.6949692832765462,-0.3872314780004039
0.1987500000000004,-0.671741459560766,-0.3637663443119675
0.2000000000000002,-0.6485136358450071,-0.3403012106235525
0.2012499999999999,-0.6252858121292376,-0.3134839149796374
0.2024999999999997,-0.6020579884134786,-0.2900187812912224
0.2037500000000003,-0.578830164697688,-0.263201485647286
0.2050000000000001,-0.5556023409819291,-0.2397363519588709
0.2062499999999998,-0.5290562567353353,-0.2129190563149559
0.2074999999999996,-0.5058284330195764,-0.1894539226265409
0.2087500000000002,-0.4826006093037963,-0.1626366269826151
0.21,-0.4593727855880268,-0.1391714932941894
0.2112499999999997,-0.432826701341433,-0.1123541976502744
0.2125000000000004,-0.4095988776256515,-0.08888906396183649
0.2137500000000001,-0.3830527933790698,-0.06207176831793362
0.2149999999999999,-0.3598249696633003,-0.03860663462950793
0.2162499999999996,-0.3365971459475413,-0.01178933898560505
0.2175000000000002,-0.310051061700937,0.01502795665832222
0.21875,-0.2868232379851675,0.0384930903467479
0.2199999999999998,-0.263595414269398,0.06531038599066298
0.2212500000000004,-0.2370493300227937,0.08877551967909934
0.2225000000000001,-0.2138215063070348,0.1122406533675143
0.2237499999999999,-0.1872754220604411,0.1390579490114294
0.2249999999999996,-0.1640475983446821,0.1658752446553323
0.2262500000000003,-0.1375015140980778,0.1893403783437702
0.2275,-0.1142736903823083,0.2128055120321959
0.2287499999999998,-0.08772760613571456,0.2396228076761109
0.2300000000000004,-0.06449978241993298,0.2664401033200367
0.2312500000000002,-0.03795369817335133,0.2899052370084517
0.2324999999999999,-0.01472587445758181,0.3133703706968774
0.2337499999999997,0.01182020978899985,0.3401876663407803
0.2350000000000003,0.0350480335047935,0.360300638073741
0.2362500000000001,0.06159411775137516,0.3871179337176439
0.2374999999999998,0.08482194146714467,0.4105830674060695
0.2387499999999996,0.1080497651829036,0.4374003630499724
0.2400000000000002,0.1345958494295079,0.4608654967384103
0.24125,0.1578236731452774,0.4876827923823254
0.2424999999999997,0.1843697573918712,0.511147926070751
0.2437500000000004,0.2109158416384755,0.5346130597591874
0.2450000000000001,0.2341436653542344,0.5580781934476023
0.2462499999999999,0.2606897496008281,0.5815433271360281
0.2474999999999996,0.2839175733165871,0.608360622779931
0.2487500000000002,0.3071453970323672,0.6318257564683688
0.25,0.3336914812789609,0.6552908901567945
0.2512499999999998,0.3569193049947304,0.6787560238452202
0.2525000000000004,0.3801471287105104,0.702221157533655
0.2537500000000001,0.4033749524262694,0.7223341292665822
0.2549999999999999,0.426602776142039,0.7491514249104972
0.2562499999999996,0.4531488603886206,0.7692643966434245
0.2575000000000003,0.4763766841044021,0.7960816922873486
0.25875,0.5029227683509959,0.8195468259757743
0.2599999999999998,0.5261505920667654,0.8430119596642001
0.2612500000000004,0.549378415782547,0.8664770933526363
0.2625000000000002,0.5759245000291286,0.8899422270410514
0.2637499999999999,0.5991523237448981,0.9100551987739877
0.2649999999999997,0.6223801474606572,0.9335203324624027
0.2662500000000003,0.6456079711764463,0.9536333041953587
0.2675000000000001,0.6655175343613825,0.973746275928286
0.2687499999999998,0.6920636186079763,0.9972114096167117
0.2699999999999996,0.7119731817929125,1.020676543305127
0.2712500000000002,0.7352010055086911,1.040789515038074
0.2725,0.7584288292244605,1.06090248677101
0.2737499999999997,0.78165665294023,1.081015458503946
0.2750000000000004,0.8048844766560102,1.101128430236893
0.2762500000000001,0.8281123003717691,1.124593563925308
0.2774999999999999,0.8513401240875386,1.144706535658245
0.2787499999999996,0.8745679478032976,1.16817166934666
0.2800000000000002,0.8977957715190776,1.188284641079607
0.28125,0.9177053347040229,1.205045450857053
0.2824999999999998,0.9409331584197924,1.22515842258999
0.2837500000000004,0.9608427216047483,1.245271394322935
0.2850000000000001,0.9840705453205072,1.265384366055862
0.2862499999999999,1.003980108505452,1.285497337788799
0.2874999999999996,1.023889671690389,1.305610309521726
0.2887500000000003,1.047117495406167,1.325723281254671
0.29,1.067027058591113,1.342484091032118
0.2912499999999998,1.086936621776058,1.362597062765055
0.2925000000000004,1.110164445491837,1.379357872542511
0.2937500000000002,1.130074008676773,1.399470844275438
0.2949999999999999,1.149983571861718,1.416231654052885
0.2962499999999997,1.169893135046654,1.432992463830324
0.2975000000000003,1.189802698231618,1.453105435563276
0.2987500000000001,1.209712261416554,1.469866245340715
0.2999999999999998,1.229621824601499,1.486627055118162
0.3012499999999996,1.249531387786435,1.503387864895601
0.3025000000000002,1.266122690440566,1.520148674673056
0.30375,1.286032253625511,1.533557322495013
0.3049999999999997,1.305941816810456,1.55031813227246
0.3062500000000004,1.322533119464586,1.567078942049914
0.3075000000000001,1.342442682649522,1.583839751827354
0.3087499999999999,1.359033985303644,1.597248399649311
0.3099999999999996,1.37894354848858,1.614009209426751
0.3112500000000002,1.39553485114271,1.627417857248716
0.3125,1.415444414327655,1.644178667026163
0.3137499999999998,1.432035716981777,1.65758731484812
0.3150000000000004,1.448627019635905,1.670995962670084
0.3162500000000001,1.465218322290019,1.684404610492035
0.3174999999999999,1.48180962494414,1.697813258313993
0.3187499999999996,1.498400927598253,1.711221906135944
0.3200000000000003,1.511673969721558,1.721278392002419
0.32125,1.528265272375679,1.734687039824376
0.3224999999999998,1.5448565750298,1.748095687646334
0.3237500000000004,1.561447877683927,1.761504335468297
0.3250000000000002,1.574720919807218,1.774912983290249
0.3262499999999999,1.591312222461339,1.784969469156717
0.3274999999999997,1.60458526458463,1.79502595502318
0.3287500000000003,1.621176567238763,1.808434602845147
0.3300000000000001,1.634449609362054,1.818491088711611
0.3312499999999998,1.64772265148535,1.828547574578079
0.3324999999999996,1.660995693608641,1.838604060444542
0.3337500000000002,1.674268735731944,1.848660546311015
0.335,1.687541777855241,1.858717032177483
0.3362499999999997,1.697496559447714,1.865421356088462
0.3375000000000004,1.710769601571017,1.875477841954933
0.3387500000000001,1.724042643694307,1.882182165865909
0.3399999999999999,1.737315685817604,1.892238651732377
0.3412499999999996,1.747270467410072,1.898942975643353
0.3425000000000002,1.760543509533374,1.908999461509824
0.34375,1.773816551656671,1.915703785420803
0.3449999999999998,1.783771333249143,1.925760271287271
0.3462500000000004,1.793726114841621,1.932464595198253
0.3475000000000001,1.803680896434089,1.939168919109229
0.3487499999999999,1.813635678026561,1.942521081064718
0.3499999999999996,1.823590459619029,1.949225404975694
0.3512500000000003,1.833545241211507,1.955929728886675
0.3525,1.840181762273155,1.959281890842165
0.3537499999999998,1.850136543865628,1.962634052797654
0.3550000000000004,1.85677306492728,1.965986214753147
0.3562500000000002,1.866727846519749,1.972690538664122
0.3574999999999999,1.873364367581397,1.976042700619612
0.3587499999999997,1.883319149173865,1.982747024530587
0.3600000000000003,1.889955670235521,1.986099186486082
0.3612500000000001,1.896592191297167,1.989451348441569
0.3624999999999998,1.903228712358815,1.992803510397059
0.3637499999999996,1.913183493951284,1.996155672352547
0.3650000000000002,1.916501754482112,1.999507834308038
0.36625,1.92313827554376,1.999507834308038
0.3674999999999997,1.929774796605409,1.999507834308038
0.3687500000000004,1.933093057136236,2.002859996263527
0.3700000000000001,1.939729578197881,2.002859996263527
0.3712499999999999,1.943047838728706,2.002859996263527
0.3724999999999996,1.946366099259528,2.002859996263527
0.3737500000000002,1.949684359790354,2.002859996263527
0.375,1.956320880852003,2.002859996263527
0.3762499999999998,1.959639141382827,2.002859996263527
0.3775000000000004,1.962957401913653,2.002859996263527
0.3787500000000001,1.966275662444475,2.002859996263527
0.3799999999999999,1.969593922975299,1.999507834308038
0.3812499999999996,1.972912183506122,1.999507834308038
0.3825000000000003,1.972912183506124,1.996155672352548
0.38375,1.972912183506124,1.992803510397059
0.3849999999999998,1.976230444036948,1.989451348441569
0.3862500000000004,1.976230444036948,1.986099186486078
0.3875000000000002,1.976230444036948,1.98274702453059
0.3887499999999999,1.976230444036948,1.979394862575101
0.3899999999999997,1.976230444036948,1.976042700619613
0.3912500000000003,1.976230444036948,1.969338376708631
0.3925000000000001,1.976230444036948,1.965986214753144
0.3937499999999998,1.976230444036948,1.962634052797654
0.3949999999999996,1.976230444036948,1.959281890842167
0.3962500000000002,1.976230444036948,1.952577566931186
0.3975,1.972912183506124,1.945873243020207
0.3987499999999997,1.969593922975299,1.939168919109229
0.4000000000000004,1.969593922975298,1.932464595198247
0.4012500000000001,1.966275662444475,1.925760271287271
0.4024999999999999,1.962957401913651,1.919055947376292
0.4037499999999996,1.956320880852006,1.912351623465317
0.4050000000000002,1.953002620321179,1.902295137598845
0.40625,1.949684359790354,1.895590813687867
0.4074999999999998,1.94636609925953,1.888886489776888
0.4087500000000004,1.943047838728702,1.878830003910417
0.4100000000000001,1.936411317667057,1.872125679999441
0.4112499999999999,1.933093057136233,1.862069194132973
0.4124999999999996,1.92977479660541,1.852012708266509
0.4137500000000003,1.92313827554376,1.841956222400037
0.415,1.916501754482112,1.831899736533568
0.4162499999999998,1.909865233420463,1.8218432506671
0.4175000000000004,1.903228712358812,1.811786764800627
0.4187500000000002,1.896592191297167,1.801730278934164
0.4199999999999999,1.886637409704694,1.788321631112206
0.4212499999999997,1.880000888643049,1.778265145245743
0.4225000000000003,1.873364367581393,1.768208659379264
0.4237500000000001,1.863409585988924,1.754800011557313
0.4249999999999998,1.856773064927276,1.741391363735355
0.4262499999999996,1.846818283334808,1.727982715913403
0.4275000000000002,1.840181762273155,1.717926230046929
0.42875,1.830226980680683,1.704517582224972
0.4299999999999997,1.82027219908821,1.691108934403014
0.4312500000000004,1.810317417495733,1.677700286581051
0.4325000000000001,1.800362635903265,1.664291638759099
0.4337499999999999,1.790407854310792,1.647530828981652
0.4349999999999996,1.780453072718323,1.634122181159701
0.4362500000000002,1.767180030595022,1.617361371382248
