System Dynamics/Lab/lab7/Experiment100.csv

#Digilent WaveForms Oscilloscope Acquisition
#Device Name: Discovery2
#Serial Number: SN:210321AFD7CC
#Date Time: 2020-10-29 16:22:45.769
#Sample rate: 800Hz
#Samples: 7647
#Trigger: Source: Channel 1 Type: Edge Condition: Rising Level: 0 V Hyst.: Auto HoldOff: 0 s
#Channel 1: Range: 500 mV/div Offset: 0 V Attenuation: 10 X
#Channel 2: Range: 500 mV/div Offset: 0 V Attenuation: 10 X
#Wavegen Channel 1: Running
#Mode: Simple
#Type: Sine
#Frequency: 15.9154943 Hz
#Period: 62.8318531 ms
#Amplitude: 2 V
#Offset: 0 V
#Symmetry: 50 %
#Phase: 0 °

Time (s),Channel 1 (V),Channel 2 (V)
0,-0.3133693222317613,1.010620057438669
0.001249999999999751,-0.2602771537385738,1.38941435840897
0.002500000000000391,-0.1341832535671947,1.557022456183504
0.003750000000000142,-0.004771092865109164,1.701165420269482
0.004999999999999893,0.1246410678370353,1.815138926756121
0.006249999999999645,0.2540532285391209,1.902295137598806
0.007500000000000284,0.3735106076488515,1.959281890842165
0.008750000000000036,0.4929679867585233,1.989451348441569
0.009999999999999787,0.5991523237448981,1.98274702453059
0.01125000000000043,0.6987001396696654,1.949225404975666
0.01250000000000018,0.7882931740018785,1.882182165865909
0.01374999999999993,0.8646131662108355,1.788321631112206
0.01499999999999968,0.9276601162964669,1.664291638759156
0.01625000000000032,0.9741157637280496,1.516796512717487
0.01750000000000007,1.007298369036277,1.342484091032118
0.01874999999999982,1.023889671690398,1.151410859569223
0.01999999999999957,1.023889671690398,0.9402246563734882
0.02125000000000021,1.010616629567101,0.712277643400114
0.02249999999999996,0.9774340242588588,0.4742741445603678
0.02374999999999972,0.9309783768273198,0.2295663218096428
0.02500000000000036,0.8679314267416249,-0.02184582485217381
0.02625000000000011,0.7916114345327027,-0.2699058095582754
0.02749999999999986,0.7020184002004489,-0.5179657942644899
0.02874999999999961,0.6057888448065903,-0.7559692931041279
0.03000000000000025,0.4962862472893474,-0.9805641441220249
0.03125,0.3801471287104999,-1.191750347317856
0.03249999999999975,0.2573714890700039,-1.382823578780751
0.03375000000000039,0.1312775888986248,-1.553783838510777
0.03500000000000014,0.001865428196539268,-1.701278964552242
0.03624999999999989,-0.1275467325056052,-1.82195679494986
0.03749999999999964,-0.253640632676868,-1.909113005792545
0.03875000000000028,-0.3764162723174214,-1.972804082946882
0.04000000000000004,-0.4958736514270932,-2.006325702501776
0.04124999999999979,-0.6053762489442923,-2.006325702501776
0.04250000000000043,-0.7082423253998837,-1.976156244902343
0.04375000000000018,-0.7978353597320968,-1.912465167748074
0.04499999999999993,-0.8774736124718781,-1.82530895690535
0.04624999999999968,-0.9405205625575095,-1.704631126507787
0.04750000000000032,-0.9902944705199165,-1.557136000466121
0.04875000000000007,-1.023477075828144,-1.38617574073624
0.04999999999999982,-1.043386639013089,-1.195102509273345
0.05124999999999957,-1.046704899543912,-0.9839163060776103
0.05250000000000021,-1.030113596889792,-0.7593214550597255
0.05374999999999996,-1.000249252112374,-0.5213179562199792
0.05499999999999972,-0.9571118652116591,-0.2766101334692542
0.05625000000000036,-0.8973831756567902,-0.02519798680743758
0.05750000000000011,-0.8243814439786905,0.222861997898664
0.05874999999999986,-0.7381066701772609,0.4675698206493891
0.05999999999999961,-0.6385588542525797,0.705573319489027
0.06125000000000025,-0.5323745172661595,0.9335203324624134
0.0625,-0.4195536592181362,1.144706535658245
0.06374999999999975,-0.2967780195776402,1.339131929076629
0.06500000000000039,-0.1673658588754384,1.513444350762144
0.06625000000000014,-0.04127195870417554,1.66093947680361
0.06749999999999989,0.08814020199796889,1.788321631112206
0.06874999999999964,0.2175523627000545,1.882182165865866
0.07000000000000028,0.3436462628714335,1.949225404975697
0.07125000000000004,0.4631036419811053,1.98609918648608
0.07249999999999979,0.5726062394983045,1.989451348441569
0.07375000000000043,0.6721540554230733,1.962634052797627
0.07500000000000018,0.765065350286109,1.902295137598845
0.07624999999999993,0.8447036030258902,1.818491088711611
0.07749999999999968,0.9110688136423443,1.701165420269536
0.07875000000000032,0.9608427216047544,1.560374618138852
0.08000000000000007,0.9973435874438041,1.392766520364459
0.08124999999999982,1.020571411159574,1.201693288901564
0.08249999999999957,1.023889671690396,0.9972114096168048
0.08375000000000021,1.013934890097925,0.772616558598923
0.08499999999999996,0.9873888058513315,0.5379652217146661
0.08624999999999972,0.9442514189506167,0.2932573989639411
0.08750000000000036,0.8878409899265718,0.04519741425761234
0.08875000000000011,0.8148392582484723,-0.2062147324039771
0.08999999999999986,0.7285644844470426,-0.4509225551547021
0.09124999999999961,0.6323349290531841,-0.6922782159498282
0.09250000000000025,0.5261505920667654,-0.9235773908787054
0.09375,0.4100114734879178,-1.138115756030026
0.09499999999999975,0.2905540943782461,-1.3358933114039
0.09625000000000039,0.164460194206867,-1.510205733089418
0.09750000000000014,0.03504803350478143,-1.664405183041859
0.09874999999999989,-0.09436412719736301,-1.791787337350456
0.09999999999999964,-0.2204580273686259,-1.889000034059604
0.1012500000000003,-0.3465519275400034,-1.959395435124925
0.1025,-0.4660093066496752,-2.002973540546287
0.1037499999999998,-0.5755119041668744,-2.009677864457266
0.1050000000000004,-0.6816962411532915,-1.986212730768816
0.1062500000000002,-0.7746075360163273,-1.93257813948101
0.1074999999999999,-0.8542457887561085,-1.848774090593775
0.1087499999999997,-0.9239292599033854,-1.738152746062676
0.1100000000000003,-0.9770214283966225,-1.597361943931998
0.1112500000000001,-1.016840554766495,-1.436458170068581
0.1124999999999998,-1.040068378482264,-1.248737100561176
0.1137499999999996,-1.04670489954391,-1.044255221276416
0.1150000000000002,-1.03675011795144,-0.8230125322140238
0.11625,-1.010204033704847,-0.5883611953297669
0.1174999999999997,-0.9703849073349561,-0.3436533725790419
0.1187500000000004,-0.9139744783109112,-0.09559338787271313
0.1200000000000001,-0.8409727466328116,0.1558187587888764
0.1212499999999999,-0.7580162333622062,0.4038787434950908
0.1224999999999996,-0.6651049384991705,0.6418822423347287
0.1237500000000002,-0.5589206015127532,0.8765335792190939
0.125,-0.4460997434647299,1.091071944370414
0.1262499999999998,-0.3266423643550581,1.288849499744288
0.1275000000000004,-0.2005484641836806,1.469866245340785
0.1287500000000001,-0.07445456401241771,1.624065695293226
0.1299999999999999,0.05495759668972672,1.754800011557313
0.1312499999999996,0.1843697573918123,1.858717032177436
0.1325000000000003,0.3104636575631914,1.93246459519825
0.13375,0.4299210366728631,1.976042700619612
0.1349999999999998,0.5427418947208865,1.989451348441569
0.1362500000000004,0.6489262317073051,1.9726905386641
0.1375000000000002,0.7451557871011637,1.922408109331782
0.1387499999999999,0.8247940398409449,1.845308384355526
0.1399999999999997,0.8977957715190444,1.738039201779914
0.1412500000000003,0.9508879400122832,1.600600561604728
0.1425000000000001,0.9907070663821557,1.43969678774131
0.1437499999999998,1.017253150628749,1.251975718233905
0.1449999999999996,1.023889671690395,1.050846000904633
0.1462500000000002,1.017253150628749,0.8296033118422425
0.1475,0.9940253269129798,0.5983041369134749
0.1487499999999997,0.9575244610739135,0.3569484761182394
0.1500000000000004,0.9044322925806945,0.1122406533674
0.1512500000000001,0.8347488214334176,-0.1391714932941894
0.1524999999999999,0.7517923081628121,-0.3872314780004039
0.1537499999999996,0.6588810132997763,-0.6285871387955297
0.1550000000000002,0.5593331973750075,-0.859886313724407
0.15625,0.44319407879616,-1.081129002786706
0.1574999999999998,0.3237366996864882,-1.285610882071559
0.1587500000000004,0.1976427995151092,-1.466627627668059
0.1600000000000001,0.06823063881302359,-1.627531401531476
0.1612499999999999,-0.06118152188912084,-1.761617879751051
0.1624999999999996,-0.1872754220603837,-1.868887062326663
0.1637500000000003,-0.3133693222317613,-1.945986787302967
0.165,-0.4361449618722573,-1.996269216635308
0.1662499999999998,-0.5489658199202806,-2.013030026412755
0.1675000000000004,-0.6551501569066979,-1.996269216635287
0.1687500000000002,-0.7480614517697336,-1.949338949258457
0.1699999999999999,-0.8343362255711632,-1.875591386237691
0.1712499999999997,-0.9073379572492628,-1.768322203662079
0.1725000000000003,-0.9637483862733273,-1.637587887397872
0.1737500000000001,-1.006885773174023,-1.480036275489943
0.1749999999999998,-1.033431857420616,-1.299019529893516
0.1762499999999996,-1.043386639013085,-1.097889812564245
0.1775000000000002,-1.040068378482264,-0.8833514474128328
0.17875,-1.020158815297319,-0.6520522724840653
0.1799999999999997,-0.9803396889274287,-0.4106966116888295
0.1812500000000004,-0.9305657809650353,-0.1626366269825008
0.1825000000000001,-0.8642005703485811,0.08877551967908867
0.1837499999999999,-0.7845623176087999,0.3368355043853031
0.1849999999999996,-0.6916510227457642,0.5815433271359168
0.1862500000000002,-0.5887849462901712,0.816194664020285
0.1875,-0.4759640882421479,1.034085191127095
0.1887499999999998,-0.3598249696633003,1.238567070411947
0.1900000000000004,-0.2337310694919227,1.426288139919426
0.1912500000000001,-0.1076371693206599,1.587191913782843
0.1924999999999999,0.02177499138148457,1.724630553957908
0.1937499999999996,0.1478688915527474,1.835251898489007
0.1950000000000003,0.2772810522549492,1.915703785420803
0.19625,0.396738431364621,1.965986214753144
0.1974999999999998,0.5128775499434686,1.989451348441569
0.1987500000000004,0.6223801474607115,1.979394862575083
0.2000000000000002,0.7186097028545699,1.939168919109229
0.2012499999999999,0.8048844766559996,1.865421356088462
0.2024999999999997,0.8778862083340991,1.768208659379314
0.2037500000000003,0.9376148978889893,1.637474343115116
0.2050000000000001,0.9840705453205072,1.486627055118162
0.2062499999999998,1.013934890097925,1.308962471477224
0.2074999999999996,1.023889671690394,1.107832754147953
0.2087500000000002,1.023889671690398,0.8932943889965408
0.21,1.003980108505452,0.6619952140677733
0.2112499999999997,0.9674792426663862,0.4239917152280271
0.2125000000000004,0.9177053347039927,0.1759317305216983
0.2137500000000001,0.8513401240875386,-0.07548041613989115
0.2149999999999999,0.7750201318785817,-0.3235404008461055
0.2162499999999996,0.6821088370155459,-0.5682482235967194
0.2175000000000002,0.5858792816216013,-0.8028995604810876
0.21875,0.473058423573578,-1.024142249543387
0.2199999999999998,0.3569193049947304,-1.231976290783729
0.2212500000000004,0.2341436653541756,-1.419697360291209
0.2225000000000001,0.10473150465209,-1.583953296110114
0.2237499999999999,-0.02468065605005446,-1.728096260196158
0.2249999999999996,-0.15409281675214,-1.842069766682745
0.2262500000000003,-0.2801867169235191,-1.925873815570031
0.2275,-0.4062806170948393,-1.982860568813351
0.2287499999999998,-0.5224197356736869,-2.009677864457266
0.2300000000000004,-0.6286040726601071,-2.00297354054627
0.2312500000000002,-0.7281518885847883,-1.966099759035904
0.2324999999999999,-0.8144266623862179,-1.899056519926116
0.2337499999999997,-0.8907466545951401,-1.801843823216968
0.2350000000000003,-0.9504753441500319,-1.674461668908259
0.2362500000000001,-0.9969309915815497,-1.523614380911305
0.2374999999999998,-1.026795336358968,-1.349301959225857
0.2387499999999996,-1.043386639013081,-1.151524403852073
0.2400000000000002,-1.043386639013089,-0.9403382006561523
0.24125,-1.026795336358968,-0.7123911876828741
0.2424999999999997,-0.9936127310507256,-0.4743876888431278
0.2437500000000004,-0.947157083619158,-0.2263277041368006
0.2450000000000001,-0.8841101335335264,0.02173228056930098
0.2462499999999999,-0.8077901413245695,0.2697922652755154
0.2474999999999996,-0.7181971069923564,0.5178522499816169
0.2487500000000002,-0.6186492910675891,0.7525035868659866
0.25,-0.50914669355039,0.9770984378837754
0.2512499999999998,-0.3930075749715424,1.184932479124117
0.2525000000000004,-0.2669136748001649,1.379357872542578
0.2537500000000001,-0.140819774628902,1.546965970316971
0.2549999999999999,-0.0114076139267576,1.691108934403014
0.2562499999999996,0.118004546775328,1.808434602845089
0.2575000000000003,0.244098446946707,1.898942975643356
0.25875,0.3668740865872031,1.955929728886675
0.2599999999999998,0.4830132051660506,1.98609918648608
0.2612500000000004,0.5925158026832951,1.986099186486063
0.2625000000000002,0.6920636186079763,1.949225404975697
0.2637499999999999,0.78165665294023,1.888886489776888
0.2649999999999997,0.8579766451491523,1.795025955023228
0.2662500000000003,0.9243418557656925,1.6743481246255
0.2675000000000001,0.9707975031972104,1.526852998584034
0.2687499999999998,1.007298369036277,1.355892738854076
0.2699999999999996,1.02388967169039,1.16146734543578
0.2712500000000002,1.027207932221222,0.9536333041953496
0.2725,1.010616629567101,0.7256862912220716
0.2737499999999997,0.980752284789683,0.4876827923823254
0.2750000000000004,0.9342966373581154,0.242974969631486
0.2762500000000001,0.8712496872724839,-0.008437177030103471
0.2774999999999999,0.794929695063527,-0.2564971617363179
0.2787499999999996,0.7086549212621365,-0.5045571464424196
0.2800000000000002,0.6124253658681951,-0.7425606452822786
0.28125,0.5029227683509959,-0.9671554963000674
0.2824999999999998,0.3867836497721484,-1.178341699495899
0.2837500000000004,0.264008010131595,-1.37276709291436
0.2850000000000001,0.1379141099603321,-1.543727352644241
0.2862499999999999,0.0085019492581877,-1.691222478685774
0.2874999999999996,-0.1175919509130752,-1.815252471038825
0.2887500000000003,-0.2470041116152769,-1.905760843837095
0.29,-0.3697797512557729,-1.972804082946882
0.2912499999999998,-0.4892371303654447,-2.006325702501776
0.2925000000000004,-0.5987397278826906,-2.009677864457252
0.2937500000000002,-0.7016058043381945,-1.979508406857861
0.2949999999999999,-0.7945170992012726,-1.919169491659052
0.2962499999999997,-0.8708370914101948,-1.832013280816368
0.2975000000000003,-0.9372023020267366,-1.711335450418645
0.2987500000000001,-0.9869762099890771,-1.567192486332667
0.2999999999999998,-1.020158815297319,-1.399584388558198
0.3012499999999996,-1.043386639013078,-1.20851115709539
0.3025000000000002,-1.043386639013089,-0.9973249538994718
0.30375,-1.030113596889792,-0.7727301028816831
0.3049999999999997,-1.003567512643198,-0.5380787659974262
0.3062500000000004,-0.9604301257424562,-0.2933709432465867
0.3075000000000001,-0.9007014361876475,-0.04195879658499731
0.3087499999999999,-0.8276997045095148,0.2061011881212171
0.3099999999999996,-0.7414249307081243,0.4508090108718309
0.3112500000000002,-0.6451953753141829,0.6921646716671778
0.3125,-0.5390110383278079,0.9167595226849665
0.3137499999999998,-0.4261901802797846,1.131297887836287
0.3150000000000004,-0.3034145406392313,1.32907544321024
0.3162500000000001,-0.1773206404679684,1.503387864895609
0.3174999999999999,-0.04790847976582398,1.654235152892631
0.3187499999999996,0.08150368093626163,1.78161730720117
0.3200000000000003,0.2109158416384649,1.87547784195493
0.32125,0.3336914812789609,1.945873243020207
0.3224999999999998,0.4531488603886327,1.98274702453059
0.3237500000000004,0.5659697184367027,1.989451348441557
0.3250000000000002,0.6688357948922067,1.962634052797654
0.3262499999999999,0.7584288292244605,1.908999461509824
0.3274999999999997,0.8380670819642055,1.82184325066714
0.3287500000000003,0.9077505531115744,1.707869744180397
0.3300000000000001,0.9608427216047377,1.567078942049907
0.3312499999999998,0.9973435874438041,1.402823006230927
0.3324999999999996,1.020571411159563,1.215101936723607
0.3337500000000002,1.023889671690398,1.00726789548318
0.335,1.017253150628749,0.7860252064208805
0.3362499999999997,0.9907070663821557,0.5513738695366236
0.3375000000000004,0.9475696794814152,0.3100182087412737
0.3387500000000001,0.8911592504574292,0.05860606207968421
0.3399999999999999,0.8181575187792964,-0.1894539226265302
0.3412499999999996,0.7352010055087288,-0.4375139073326318
0.3425000000000002,0.6389714501147887,-0.6788695681279803
0.34375,0.5327871131284139,-0.9101687430567478
0.3449999999999998,0.4199662550803905,-1.124707108208068
0.3462500000000004,0.2971906154398372,-1.322484663582023
0.3475000000000001,0.1710967152685743,-1.500149247222879
0.3487499999999999,0.04168455456642986,-1.65770085913088
0.3499999999999996,-0.08772760613565572,-1.785083013439419
0.3512500000000003,-0.2138215063070348,-1.885647872104159
0.3525,-0.3365971459475308,-1.956043273169436
0.3537499999999998,-0.4593727855880268,-1.999621378590798
0.3550000000000004,-0.5721936436360968,-2.009677864457256
0.3562500000000002,-0.6750597200916009,-1.989564892724329
0.3574999999999999,-0.7679710149546789,-1.935930301436499
0.3587499999999997,-0.8509275282252465,-1.855478414504791
0.3600000000000003,-0.9206109993726169,-1.74820923192903
0.3612500000000001,-0.9737031678657803,-1.60741842979854
0.3624999999999998,-1.013522294235671,-1.446514655935049
0.3637499999999996,-1.040068378482252,-1.262145748383217
0.3650000000000002,-1.046704899543913,-1.057663869098281
0.36625,-1.03675011795144,-0.8364211800359813
0.3674999999999997,-1.013522294235671,-0.6017698431517244
0.3687500000000004,-0.9737031678657546,-0.3570620204008866
0.3700000000000001,-0.9172927388417687,-0.109002035694785
0.3712499999999999,-0.8476092676944601,0.1424101109669188
0.3724999999999996,-0.7646527544238924,0.3871179337175326
0.3737500000000002,-0.6717414595607766,0.6284735945128794
0.375,-0.5688753831052259,0.8597727694416469
0.3762499999999998,-0.4560545250572026,1.077663296548457
0.3775000000000004,-0.3365971459474734,1.278793013877902
0.3787500000000001,-0.2105032457762106,1.459809759474247
0.3799999999999999,-0.08440934560489036,1.614009209426758
0.3812499999999996,0.04500281509719525,1.748095687646273
0.3825000000000003,0.1744149757993985,1.852012708266505
0.38375,0.3005088759707187,1.92911243324276
0.3849999999999998,0.4232845156112147,1.976042700619612
0.3862500000000004,0.539423634190109,1.992803510397051
0.3875000000000002,0.642289710645613,1.976042700619612
0.3887499999999999,0.7385192660395152,1.925760271287271
0.3899999999999997,0.8214757793100829,1.84866054631105
0.3912500000000003,0.8911592504574548,1.744743525690782
0.3925000000000001,0.9475696794814409,1.60730488551578
0.3937499999999998,0.9907070663821557,1.449753273607779
0.3949999999999996,1.013934890097914,1.265384366055946
0.3962500000000002,1.023889671690398,1.064254648726499
0.3975,1.020571411159574,0.8463641216196894
0.3987499999999997,0.9973435874438041,0.6150649466909219
0.4000000000000004,0.9575244610738909,0.3737092858955735
0.4012500000000001,0.9077505531115503,0.1256493011894719
0.4024999999999999,0.8380670819642417,-0.1257628454722319
0.4037499999999996,0.7584288292244967,-0.3704706682228457
0.4050000000000002,0.6655175343613825,-0.615178490973682
0.40625,0.5626514579058318,-0.8464776659024495
0.4074999999999998,0.4498305998578084,-1.067720354964749
0.4087500000000004,0.3303732207480793,-1.272202234249685
0.4100000000000001,0.2042793205768164,-1.456571141801517
0.4112499999999999,0.07818542040549624,-1.617474915665008
0.4124999999999996,-0.05454500082741202,-1.75491355584001
0.4137500000000003,-0.1806389009987926,-1.862182738415733
0.415,-0.3067328011701128,-1.942634625347478
0.4162499999999998,-0.4295084408106088,-1.992917054679819
0.4175000000000004,-0.5423292988586804,-2.009677864457259
0.4187500000000002,-0.6485136358450071,-1.996269216635308
0.4199999999999999,-0.7447431912389094,-1.952691111213946
0.4212499999999997,-0.8310179650402998,-1.878943548193213
0.4225000000000003,-0.9040196967184974,-1.778378689528437
0.4237500000000001,-0.9604301257424834,-1.644292211308923
0.4249999999999998,-1.003567512643198,-1.490092761356411
0.4262499999999996,-1.033431857420603,-1.312428177715555
0.4275000000000002,-1.046704899543913,-1.111298460386111
0.42875,-1.043386639013089,-0.8967600952347903
0.4299999999999997,-1.023477075828144,-0.6654609203060228
0.4312500000000004,-0.986976209989053,-0.4241052595106743
