System Dynamics/Lab/lab4/Lab4xinyout.csv

#Digilent WaveForms Oscilloscope Acquisition
#Device Name: Discovery2
#Serial Number: SN:210321AFD7CC
#Date Time: 2020-10-08 16:10:03.695
#Sample rate: 10239.6Hz
#Samples: 8192
#Trigger: Source: Channel 1 Type: Edge Condition: Rising Level: 0 V Hyst.: Auto HoldOff: 0 s
#Channel 1: Range: 500 mV/div Offset: 0 V Attenuation: 10 X
#Channel 2: Range: 500 mV/div Offset: 0 V Attenuation: 10 X
#Wavegen Channel 1: Running
#Mode: Simple
#Type: Noise
#Frequency: 1 kHz
#Period: 1 ms
#Amplitude: 5 V
#Offset: 0 V

Time (s),Channel 1 (V),Channel 2 (V)
1.579950663872311,-0.1740023799371442,0.3636528000292182
1.580048323872311,-0.6916510227457219,0.3569484761182394
1.580145983872311,-0.7248336280539641,0.3502441522072606
1.580243643872311,-0.7414249307080776,0.3468919902517728
1.580341303872311,-0.7480614517697306,0.3401876663407956
1.580438963872311,-0.7513797123005562,0.3334833424298168
1.580536623872311,-0.7546979728313804,0.326779018518838
1.580634283872311,-0.754697972831382,0.3200746946078592
1.580731943872311,-0.754697972831382,0.3133703706968805
1.580829603872311,-0.754697972831382,0.3066660467859017
1.580927263872311,-0.754697972831382,0.2999617228749229
1.581024923872311,0.6522444922374461,0.3033138848304078
1.581122583872311,1.176529656108073,0.310018208741385
1.581220243872311,1.239576606193943,0.3133703706968759
1.581317903872311,1.269440950971376,0.3167225326523653
1.581415563872311,1.286032253625503,0.3200746946078546
1.581513223872311,1.292668774687156,0.3267790185188319
1.581610883872311,1.295987035217982,0.3334833424298106
1.581708543872311,1.299305295748806,0.3368355043853016
1.581806203872311,1.299305295748808,0.3435398282962788
1.581903863872311,1.299305295748808,0.3468919902517698
1.582001523872311,0.7053366607315432,0.3502441522072591
1.582099183872311,0.1213228073064766,0.3502441522072606
1.582196843872311,0.07486715987469314,0.3502441522072606
1.582294503872311,0.05163933615891307,0.3502441522072606
1.582392163872311,0.04168455456643438,0.3468919902517728
1.582489823872311,0.03504803350478445,0.3468919902517713
1.582587483872311,0.03172977297395872,0.3435398282962834
1.582685143872311,0.03172977297395721,0.340187666340794
1.582782803872311,0.0284115124431345,0.3401876663407925
1.582880463872311,0.028411512443133,0.3368355043853046
1.582978123872311,1.179847916638612,0.3435398282962788
1.583075783872311,4.116508486417231,0.3670049619846969
1.583173443872311,4.318922378798752,0.3871179337176347
1.583271103872311,4.415151934192703,0.4105830674060589
1.583368763872311,4.458289321093442,0.4306960391389967
1.583466423872311,4.481517144809221,0.4541611728274209
1.583564083872311,4.4914719264017,0.4809784684713344
1.583661743872311,4.49810844746335,0.5044436021597616
1.583759403872311,4.501426707994175,0.5279087358481873
1.583857063872311,4.501426707994177,0.5513738695366129
1.583954723872311,4.352104984107155,0.5714868412695508
1.584052383872311,1.770498291127021,0.5781911651805357
1.584150043872311,1.611221785646356,0.5882476510470023
1.584247703872311,1.531583532906539,0.5949519749579826
1.584345363872311,1.495082667067453,0.5983041369134734
1.584443023872311,1.4751731038825,0.6050084608244508
1.584540683872311,1.468536582820846,0.6117127847354296
1.584638343872311,1.461900061759197,0.6150649466909204
1.584736003872311,1.465218322290017,0.6217692706018977
1.584833663872311,1.461900061759196,0.6284735945128764
1.584931323872311,1.461900061759194,0.6318257564683673
1.585028983872311,1.631131348831153,0.6385300803793446
1.585126643872311,1.677586996262747,0.6418822423348354
1.585224303872311,1.684223517324414,0.6485865662458128
1.585321963872311,1.68754177785524,0.6552908901567915
1.585419623872311,1.687541777855241,0.6619952140677703
1.585517283872311,1.690860038386064,0.6653473760232611
1.585614943872311,1.690860038386065,0.6720516999342384
1.585712603872311,1.690860038386065,0.6787560238452172
1.585810263872311,1.690860038386065,0.685460347756196
1.585907923872311,1.690860038386065,0.6921646716671748
1.586005583872311,-0.5589206015117303,0.685460347756202
1.586103243872311,-2.447010843550873,0.6653473760232718
1.586200903872311,-2.612923870092868,0.6485865662458234
1.586298563872311,-2.689243862301865,0.6318257564683765
1.586396223872311,-2.72574472814095,0.6150649466909296
1.586493883872311,-2.745654291325903,0.5915998130025069
1.586591543872311,-2.75560907291838,0.5714868412695691
1.586689203872311,-2.758927333449207,0.5513738695366327
1.586786863872311,-2.758927333449209,0.5312608978036965
1.586884523872311,-2.762245593980031,0.514500088026248
1.586982183872311,-2.184868261616882,0.4977392782488012
1.587079843872311,-0.950475344150572,0.4910349543378178
1.587177503872311,-0.8675188308794431,0.4809784684713512
1.587275163872311,-0.8243814439787102,0.470921982604883
1.587372823872311,-0.8044718807937543,0.4642176586939027
1.587470483872311,-0.7945170992012771,0.4541611728274361
1.587568143872311,-0.7911988386704514,0.4474568489164589
1.587665803872311,-0.7878805781396272,0.4407525250054801
1.587763463872311,-0.7878805781396242,0.430696039139015
1.587861123872311,-0.7845623176088029,0.4273438771835195
1.587958783872311,-0.7613344938930515,0.4206395532725438
1.588056443872311,-0.5257379962047254,0.413935229361565
1.588154103872311,-0.5124649540812264,0.4072309054505863
1.588251763872311,-0.5058284330195718,0.4005265815396075
1.588349423872311,-0.4991919119579234,0.397174419584115
1.588447083872311,-0.4958736514270962,0.3938222576286257
1.588544743872311,-0.4991919119579143,0.3837657717621636
1.588642403872311,-0.4991919119579173,0.3804136098066682
1.588740063872311,-0.4991919119579173,0.3737092858956924
1.588837723872311,-0.4958736514270962,0.3703571239402
1.588935383872311,-0.4991919119579143,0.3636528000292243
1.589033043872311,-2.08532044569045,0.3502441522072728
1.589130703872311,-2.456965625143867,0.3368355043853153
1.589228363872311,-2.520012575229808,0.3200746946078714
1.589326023872311,-2.553195180538077,0.3033138848304245
1.589423683872311,-2.566468222661392,0.2865530750529776
1.589521343872311,-2.573104743723047,0.2697922652755307
1.589619003872311,-2.576423004253874,0.2530314554980838
1.589716663872311,-2.576423004253877,0.2362706457206368
1.589814323872311,-2.576423004253877,0.2195098359431899
1.589911983872311,-2.576423004253877,0.2027490261657429
1.590009643872311,-3.482308129168064,0.1826360544328097
1.590107303872311,-4.119414151086557,0.1558187587889008
1.590204963872311,-4.179142840641918,0.132353625100472
1.590302623872311,-4.209007185419363,0.10553632945656
1.590400283872311,-4.222280227542675,0.08207119576813124
1.590497943872311,-4.22891674860434,0.05525390012415824
1.590595603872311,-4.232235009135158,0.02843660448030414
1.590693263872311,-4.232235009135165,0.00497147079181748
1.590790923872311,-4.235553269665981,-0.02184582485203661
1.590888583872311,-4.2355532696634,-0.04866312049599437
1.590986243872311,-2.340826506567081,-0.06207176831792142
1.591083903872311,1.08030010071474,-0.05201528245146089
1.591181563872311,1.322533119464357,-0.04866312049597912
1.591279223872311,1.441990498574321,-0.04195879658498816
1.591376883872311,1.495082667067388,-0.03525447267402464
1.591474543872311,1.521628751314053,-0.02855014876302606
1.591572203872311,1.538220053968136,-0.01849366289658077
1.591669863872311,1.5448565750298,-0.008437177030089751
1.591767523872311,1.5448565750298,0.001619308836355535
1.591865183872311,1.548174835560375,0.01167579470284655
1.591962843872311,1.365670506365458,0.02173228056929184
1.592060503872311,0.1611419336759975,0.02173228056930098
1.592158163872311,0.08482194146721408,0.02173228056930098
1.592255823872311,0.04832107562805566,0.02508444252479037
1.592353483872311,0.0317297729739723,0.02508444252479037
1.592451143872311,0.02177499138148004,0.02508444252479037
1.592548803872311,0.01845673085066337,0.02508444252479037
1.592646463872311,0.01513847031983613,0.02508444252479037
1.592744123872311,0.01513847031983613,0.02508444252479037
1.592841783872311,0.01513847031983613,0.02508444252479037
1.592939443872311,0.01513847031983613,0.02508444252479037
1.593037103872311,-0.353188448601747,0.02173228056929641
1.593134763872311,-0.422871919748897,0.01838011861381465
1.593232423872311,-0.4328267013414421,0.01838011861380703
1.593330083872311,-0.4394632224030754,0.01502795665832527
1.593427743872311,-0.4427814829339102,0.01167579470282826
1.593525403872311,-0.4460997434647269,0.008323632747346498
1.593623063872311,-0.4460997434647299,0.008323632747338876
1.593720723872311,-0.4460997434647299,0.004971470791857114
1.593818383872311,-0.4460997434647299,0.001619308836364681
1.593916043872311,-0.4460997434647299,0.001619308836364681
1.594013703872311,1.913183493953226,0.0116757947028557
1.594111363872311,3.333399001142761,0.02843660448026451
1.594209023872311,3.47276594343876,0.04854957621323892
1.594306683872311,3.539131154055093,0.06531038599064773
1.594404343872311,3.572313759363418,0.08542335772362672
1.594502003872311,3.588905062017502,0.1055363294565173
1.594599663872311,3.59554158307917,0.1256493011895039
1.594697323872311,3.598859843609986,0.1491144348778762
1.594794983872311,3.598859843609994,0.1692274066108614
1.594892643872311,3.602178104140811,0.1893403783437519
1.594990303872311,1.91982001501064,0.2027490261657216
1.595087963872311,-0.6053762489408476,0.1960447022547581
1.595185623872311,-0.7911988386705299,0.1926925402992535
1.595283283872311,-0.88079187300258,0.1859882163882899
1.595380943872311,-0.9239292599034351,0.1826360544327884
1.595478603872311,-0.9438388230883351,0.1792838924773066
1.595576263872311,-0.953793604680841,0.1692274066108278
1.595673923872311,-0.9604301257424743,0.1625230826998643
1.595771583872311,-0.9604301257424864,0.1558187587888702
1.595869243872311,-0.9637483862733031,0.1491144348779067
1.595966903872311,-0.6451953753128128,0.1457622729224112
1.596064563872311,0.8612949056779559,0.149114434877893
1.596162223872311,0.96084272160478,0.15246659683339
1.596259883872311,1.007298369036213,0.1558187587888718
1.596357543872311,1.030526192752055,0.1625230826998582
1.596455203872311,1.040480974344505,0.1658752446553399
1.596552863872311,1.047117495406167,0.1725795685663263
1.596650523872311,1.047117495406167,0.1759317305218081
1.596748183872311,1.04711749540617,0.1826360544327975
1.596845843872311,1.050435755936987,0.1893403783437611
1.596943503872311,1.050435755937007,0.1926925402992657
1.597041163872311,1.06702705859109,0.1993968642102292
1.597138823872311,1.067027058591113,0.2061011881212201
1.597236483872311,1.067027058591113,0.2094533500767019
1.597334143872311,1.067027058591113,0.212805512032202
1.597431803872311,1.067027058591113,0.2195098359431655
1.597529463872311,1.067027058591113,0.2262141598541564
1.597627123872311,1.067027058591113,0.2295663218096382
1.597724783872311,1.067027058591113,0.2329184837651383
1.597822443872311,1.067027058591113,0.2396228076761018
1.597920103872311,1.06702705859105,0.2429749696316064
1.598017763872311,0.9973435874438992,0.24967929354257
1.598115423872311,0.9608427216047347,0.2530314554980715
1.598213083872311,0.9575244610739181,0.2563836174535533
1.598310743872311,0.9542062005430892,0.2597357794090533
1.598408403872311,0.9542062005430892,0.2664401033200169
1.598506063872311,0.9542062005430892,0.2697922652755185
1.598603723872311,0.9542062005430892,0.2731444272310002
1.598701383872311,0.9542062005430892,0.2764965891865003
1.598799043872311,0.9542062005430892,0.2832009130974638
1.598896703872311,0.9542062005443176,0.2865530750529715
1.598994363872311,2.304738236586703,0.2966095609194168
1.599092023872311,4.04682501527138,0.3200746946078745
1.599189683872311,4.179555436504047,0.3401876663407651
1.599287343872311,4.242602386589918,0.3603006380737501
1.599385003872311,4.275784991898084,0.3837657717621225
1.599482663872311,4.289058034021433,0.4072309054506015
1.599580323872311,4.295694555083078,0.4306960391390242
1.599677983872311,4.299012815613902,0.4508090108719665
1.599775643872311,4.302331076144724,0.4776263065158756
1.599873303872311,4.302331076144277,0.4977392782488119
1.599970963872311,3.811228517581085,0.5178522499817388
1.600068623872311,1.992821746690961,0.5279087358482071
1.600166283872311,1.873364367581343,0.5379652217146722
1.600263943872311,1.813635678026534,0.544669545625651
1.600361603872311,1.783771333249134,0.5513738695366297
1.600459263872311,1.773816551656665,0.5580781934476114
1.600556923872311,1.767180030595019,0.5681346793140767
1.600654583872311,1.763861770064198,0.5748390032250554
1.600752243872311,1.763861770064198,0.5815433271360342
1.600849903872311,1.763861770064195,0.5882476510470129
1.600947563872311,1.760543509535791,0.59495197495801
1.601045223872311,4.418470194723755,0.621769270601919
1.601142883872311,4.620884087103924,0.6418822423348552
1.601240543872311,4.70384060037449,0.6619952140677946
1.601338203872311,4.74365972674436,0.6854603477562203
1.601435863872311,4.760251029398474,0.708925481444646
1.601533523872311,4.770205810990941,0.7323906151330748
1.601631183872311,4.773524071521769,0.7592079107769838
1.601728843872311,4.780160592583411,0.7793208825099261
1.601826503872311,4.780160592583411,0.8061381781538351
1.601924163872311,4.780160592579741,0.8262511498867531
1.602021823872311,0.7451557870995853,0.826251149886744
1.602119483872311,-0.9902944705200825,0.8161946640202788
1.602217143872311,-1.189390102369442,0.8094903401092971
1.602314803872311,-1.285619657763277,0.799433854242832
1.602412463872311,-1.332075305194805,0.7860252064208744
1.602510123872311,-1.351984868379745,0.7726165585989184
1.602607783872311,-1.361939649972217,0.7625600727324487
1.602705443872311,-1.368576171033864,0.7491514249104911
1.602803103872311,-1.371894431564686,0.7357427770885352
1.602900763872311,-1.371894431563989,0.7256862912220686
1.602998423872311,0.1611419336768742,0.7189819673110973
1.603096083872311,1.860091325458161,0.7290384531775626
1.603193743872311,1.992821746691099,0.7323906151330534
1.603291403872311,2.059186957307567,0.7390949390440321
1.603389063872311,2.089051302084977,0.7457992629550109
1.603486723872311,2.102324344208271,0.7525035868659912
1.603584383872311,2.108960865269919,0.7625600727324578
1.603682043872311,2.115597386331565,0.7692643966434366
1.603779703872311,2.115597386331565,0.7759687205544153
1.603877363872311,2.115597386331059,0.7826730444653927
1.603975023872311,1.003980108503934,0.7860252064208714
1.604072683872311,-2.33418998550381,0.7659122346879381
1.604170343872311,-2.55651344106898,0.752503586865979
1.604268003872311,-2.66269777805533,0.7357427770885306
1.604365663872311,-2.715789946548506,0.7156298053555943
1.604463323872311,-2.742336030795092,0.6955168336226565
1.604560983872311,-2.752290812387563,0.6720516999342323
1.604658643872311,-2.75892733344921,0.6519387282012975
1.604756303872311,-2.762245593980033,0.6351779184238491
1.604853963872311,-2.762245593980048,0.6150649466909128
1.604951623872311,-2.795428199288802,0.5949519749579734
1.605049283872311,-3.953501124545958,0.5681346793140584
1.605146943872311,-4.023184595693252,0.5413173836701433
1.605244603872311,-4.059685461532308,0.5145000880262282
1.605342263872311,-4.076276764186426,0.4876827923823117
1.605439923872311,-4.086231545778896,0.4575133347829103
1.605537583872311,-4.089549806309719,0.434048201094483
1.605635243872311,-4.089549806309719,0.4072309054505679
1.605732903872311,-4.089549806309721,0.3804136098066529
1.605830563872311,-4.092868066840543,0.3535963141627378
1.605928223872311,-4.09286806683855,0.326779018518835
1.606025883872311,0.2905540943789402,0.326779018518838
1.606123543872311,1.816953938557474,0.3334833424298152
1.606221203872311,2.012731309876056,0.3368355043853076
1.606318863872311,2.105642604739113,0.3468919902517743
1.606416523872311,2.15209825217064,0.3535963141627561
1.606514183872311,2.172007815355581,0.3670049619847121
1.606611843872311,2.181962596948052,0.3770614478511802
1.606709503872311,2.188599118009699,0.3871179337176484
1.606807163872311,2.191917378540522,0.3971744195841165
1.606904823872311,2.191917378539626,0.4072309054505802
1.607002483872311,0.2208706232301031,0.4072309054505756
1.607100143872311,-1.614127450314924,0.3971744195841074
1.607197803872311,-1.766767434732801,0.3871179337176378
1.607295463872311,-1.839769166410917,0.3737092858956818
1.607393123872311,-1.876270032249975,0.3636528000292121
1.607490783872311,-1.892861334904091,0.3502441522072545
1.607588443872311,-1.89949785596574,0.336835504385297
1.607686103872311,-1.906134377027385,0.3234268565633395
1.607783763872311,-1.906134377027385,0.3100182087413835
1.607881423872311,-1.906134377027237,0.2999617228749137
1.607979083872311,-1.580944845006242,0.2865530750529608
1.608076743872311,-0.7679710149546548,0.2832009130974699
1.608174403872311,-0.7148788464614794,0.2764965891864911
1.608272063872311,-0.6883327622148917,0.2697922652755124
1.608369723872311,-0.6750597200915979,0.2630879413645352
1.608467383872311,-0.6684231990299508,0.2597357794090442
1.608565043872311,-0.6651049384991282,0.2530314554980654
1.608662703872311,-0.6651049384991282,0.2463271315870866
1.608760363872311,-0.6651049384991282,0.2396228076761094
1.608858023872311,-0.6651049384992173,0.2362706457206185
1.608955683872311,-0.8608823098191044,0.2295663218096306
1.609053343872311,-3.824088963843865,0.2027490261657185
1.609151003872311,-4.006593293039154,0.1826360544327792
1.609248663872311,-4.096186327371387,0.1558187587888657
1.609346323872311,-4.139323714272091,0.13235362510044
1.609443983872311,-4.159233277457032,0.1088884914120143
1.609541643872311,-4.169188059049503,0.08542335772358861
1.609639303872311,-4.175824580111149,0.06195822403517359
1.609736963872311,-4.179142840641973,0.03514092839125852
1.609834623872311,-4.179142840641973,0.008323632747343448
1.609932283872311,-4.179142840641973,-0.01514150094108224
1.610029943872311,-1.415031818465401,-0.02519798680755039
1.610127603872311,-0.631922333190886,-0.02855014876303977
1.610225263872311,-0.5191014751428626,-0.03525447267401854
1.610322923872311,-0.462691046118851,-0.04195879658499731
1.610420583872311,-0.4394632224030815,-0.04195879658499731
1.610518243872311,-0.4261901802797846,-0.0453109585404867
1.610615903872311,-0.4195536592181362,-0.04866312049597608
1.610713563872311,-0.416235398687312,-0.05201528245146547
1.610811223872311,-0.416235398687312,-0.05536744440695485
1.610908883872311,-0.416235398687312,-0.05536744440695485
1.611006543872311,0.2606897496008281,-0.05201528245146547
1.611104203872311,0.8015662161251753,-0.0453109585404867
1.611201863872311,0.8480218635567144,-0.0453109585404867
1.611299523872311,0.8712496872724839,-0.03860663462950793
1.611397183872311,0.8845227293957808,-0.03190231071852916
1.611494843872311,0.887840989926605,-0.02855014876303977
1.611592503872311,0.8911592504574292,-0.021845824852061
1.611690163872311,0.8911592504574292,-0.01514150094108224
1.611787823872311,0.8944775109882535,-0.008437177030103471
1.611885483872311,0.8944775109882535,-0.001732853119124703
1.611983143872311,-0.05122674029664819,-0.005085015074614087
1.612080803872311,-1.962544806051397,-0.01514150094108224
1.612178463872311,-2.095275227284366,-0.02519798680755039
1.612276123872311,-2.158322177370025,-0.03860663462950793
1.612373783872311,-2.191504782678268,-0.04866312049597608
1.612471443872311,-2.204777824801564,-0.06207176831793362
1.612569103872311,-2.211414345863213,-0.07212825418440176
1.612666763872311,-2.214732606394037,-0.0855369020063593
1.612764423872311,-2.218050866924862,-0.09894554982831684
1.612862083872311,-2.218050866924862,-0.1123541976502744
1.612959743872311,-1.683810921462162,-0.1224106835167425
1.613057403872311,3.104439024517181,-0.09894554982831684
1.613155063872311,3.403082472291361,-0.0855369020063593
1.613252723872311,3.549085935647626,-0.065423930273423
1.613350383872311,3.622087667325759,-0.04866312049597608
1.613448043872311,3.655270272634001,-0.02519798680755039
1.613545703872311,3.671861575288122,-0.001732853119124703
1.613643363872311,3.678498096349771,0.0183801186138116
1.613741023872311,3.681816356880595,0.04184525230223729
