System Dynamics/Lab/lab4/Lab4hofxdata.csv

#Digilent WaveForms Oscilloscope Acquisition
#Device Name: Discovery2
#Serial Number: SN:210321AFD7CC
#Date Time: 2020-10-08 16:07:05.269
#Sample rate: 10239.6Hz
#Samples: 8192
#Trigger: Source: Channel 1 Type: Edge Condition: Rising Level: 0 V Hyst.: Auto HoldOff: 0 s
#Channel 1: Range: 500 mV/div Offset: 0 V Attenuation: 10 X
#Channel 2: Range: 500 mV/div Offset: 0 V Attenuation: 10 X
#Wavegen Channel 1: Enabled
#Mode: Simple
#Type: Pulse
#Frequency: 1 Hz
#Period: 1 s
#Amplitude: 5 V
#Offset: 0 V
#Symmetry: 0.1 %
#Phase: 0 °

Time (s),Channel 1 (V),Channel 2 (V)
1.57994348,-0.00808935339593338,-0.005085015074614087
1.58004114,-0.00808935339593338,-0.005085015074614087
1.5801388,-0.00808935339593338,-0.005085015074614087
1.58023646,-0.00808935339593338,-0.001732853119126227
1.58033412,-0.00808935339593338,-0.001732853119124703
1.58043178,-0.00808935339593338,-0.005085015074612563
1.58052944,-0.00808935339593338,-0.005085015074614087
1.5806271,-0.00808935339593338,-0.005085015074614087
1.58072476,-0.00808935339593338,-0.005085015074614087
1.58082242,-0.00808935339593338,-0.005085015074614087
1.58092008,-0.00808935339593338,-0.005085015074614087
1.58101774,-0.00808935339593338,-0.005085015074614087
1.5811154,-0.00808935339593338,-0.005085015074614087
1.58121306,-0.00808935339593338,-0.005085015074614087
1.58131072,-0.00808935339593338,-0.005085015074614087
1.58140838,-0.00808935339593338,-0.001732853119126227
1.58150604,-0.00808935339593338,-0.001732853119124703
1.5816037,-0.00808935339593338,-0.001732853119124703
1.58170136,-0.00808935339593338,-0.001732853119124703
1.58179902,-0.004771092865110673,-0.001732853119124703
1.58189668,-0.008089353395931871,-0.001732853119124703
1.58199434,-0.00808935339593338,-0.005085015074612563
1.582092,-0.00808935339593338,-0.005085015074614087
1.58218966,-0.00808935339593338,-0.005085015074614087
1.58228732,-0.00808935339593338,-0.005085015074614087
1.58238498,-0.00808935339593338,-0.005085015074614087
1.58248264,-0.00808935339593338,-0.001732853119126227
1.5825803,-0.004771092865110673,-0.005085015074612563
1.58267796,-0.008089353395931871,-0.001732853119126227
1.58277562,-0.004771092865110673,-0.005085015074612563
1.58287328,-0.008089353395931871,-0.005085015074614087
1.58297094,-0.00808935339593338,-0.005085015074614087
1.5830686,-0.00808935339593338,-0.001732853119126227
1.58316626,-0.00808935339593338,-0.001732853119124703
1.58326392,-0.004771092865110673,-0.001732853119124703
1.58336158,-0.004771092865109164,-0.001732853119124703
1.58345924,-0.008089353395931871,-0.001732853119124703
1.5835569,-0.00808935339593338,-0.001732853119124703
1.58365456,-0.00808935339593338,-0.001732853119124703
1.58375222,-0.00808935339593338,-0.001732853119124703
1.58384988,-0.00808935339593338,-0.001732853119124703
1.58394754,-0.004771092865110673,-0.001732853119124703
1.5840452,-0.004771092865109164,-0.001732853119124703
1.58414286,-0.008089353395931871,-0.001732853119124703
1.58424052,-0.00808935339593338,-0.001732853119124703
1.58433818,-0.004771092865110673,-0.001732853119124703
1.58443584,-0.004771092865109164,-0.001732853119124703
1.5845335,-0.008089353395931871,-0.005085015074612563
1.58463116,-0.00808935339593338,-0.001732853119126227
1.58472882,-0.00808935339593338,-0.005085015074612563
1.58482648,-0.00808935339593338,-0.001732853119126227
1.58492414,-0.004771092865110673,-0.001732853119124703
1.5850218,-0.008089353395931871,-0.005085015074612563
1.58511946,-0.00808935339593338,-0.005085015074614087
1.58521712,-0.00808935339593338,-0.005085015074614087
1.58531478,-0.004771092865110673,-0.001732853119126227
1.58541244,-0.008089353395931871,-0.001732853119124703
1.5855101,-0.00808935339593338,-0.005085015074612563
1.58560776,-0.00808935339593338,-0.005085015074614087
1.58570542,-0.004771092865110673,-0.001732853119126227
1.58580308,-0.008089353395931871,-0.001732853119124703
1.58590074,-0.004771092865110673,-0.001732853119124703
1.5859984,-0.004771092865109164,-0.001732853119124703
1.58609606,-0.008089353395931871,-0.001732853119124703
1.58619372,-0.00808935339593338,-0.001732853119124703
1.58629138,-0.004771092865110673,-0.001732853119124703
1.58638904,-0.008089353395931871,-0.001732853119124703
1.5864867,-0.00808935339593338,-0.001732853119124703
1.58658436,-0.00808935339593338,-0.001732853119124703
1.58668202,-0.00808935339593338,-0.001732853119124703
1.58677968,-0.00808935339593338,-0.005085015074612563
1.58687734,-0.00808935339593338,-0.001732853119126227
1.586975,-0.00808935339593338,-0.005085015074612563
1.58707266,-0.00808935339593338,-0.001732853119126227
1.58717032,-0.00808935339593338,-0.001732853119124703
1.58726798,-0.00808935339593338,-0.005085015074612563
1.58736564,-0.00808935339593338,-0.001732853119126227
1.5874633,-0.00808935339593338,-0.005085015074612563
1.58756096,-0.00808935339593338,-0.005085015074614087
1.58765862,-0.00808935339593338,-0.005085015074614087
1.58775628,-0.00808935339593338,-0.005085015074614087
1.58785394,-0.004771092865112183,-0.001732853119127751
1.5879516,-0.008089353395930362,-0.001732853119124703
1.58804926,-0.00808935339593338,-0.001732853119124703
1.58814692,-0.00808935339593338,-0.001732853119124703
1.58824458,-0.00808935339593338,-0.005085015074611038
1.58834224,-0.004771092865112183,-0.001732853119127751
1.5884399,-0.008089353395930362,-0.005085015074611038
1.58853756,-0.00808935339593338,-0.001732853119127751
1.58863522,-0.004771092865112183,-0.005085015074611038
1.58873288,-0.008089353395930362,-0.005085015074614087
1.58883054,-0.00808935339593338,-0.005085015074614087
1.5889282,-0.00808935339593338,-0.005085015074614087
1.58902586,-0.00808935339593338,-0.005085015074614087
1.58912352,-0.00808935339593338,-0.005085015074614087
1.58922118,-0.004771092865112183,-0.005085015074614087
1.58931884,-0.008089353395930362,-0.005085015074614087
1.5894165,-0.00808935339593338,-0.005085015074614087
1.58951416,-0.00808935339593338,-0.005085015074614087
1.58961182,-0.00808935339593338,-0.005085015074614087
1.58970948,-0.00808935339593338,-0.005085015074614087
1.58980714,-0.00808935339593338,-0.005085015074614087
1.5899048,-0.00808935339593338,-0.005085015074614087
1.59000246,-0.00808935339593338,-0.005085015074614087
1.59010012,-0.00808935339593338,-0.005085015074614087
1.59019778,-0.00808935339593338,-0.005085015074614087
1.59029544,-0.00808935339593338,-0.005085015074614087
1.5903931,-0.00808935339593338,-0.005085015074614087
1.59049076,-0.00808935339593338,-0.005085015074614087
1.59058842,-0.00808935339593338,-0.005085015074614087
1.59068608,-0.00808935339593338,-0.005085015074614087
1.59078374,-0.00808935339593338,-0.005085015074614087
1.5908814,-0.00808935339593338,-0.005085015074614087
1.59097906,-0.00808935339593338,-0.005085015074614087
1.59107672,-0.00808935339593338,-0.005085015074614087
1.59117438,-0.00808935339593338,-0.005085015074614087
1.59127204,-0.00808935339593338,-0.005085015074614087
1.5913697,-0.00808935339593338,-0.005085015074614087
1.59146736,-0.00808935339593338,-0.001732853119124703
1.59156502,-0.00808935339593338,-0.001732853119124703
1.59166268,-0.00808935339593338,-0.005085015074614087
1.59176034,-0.00808935339593338,-0.005085015074614087
1.591858,-0.00808935339593338,-0.005085015074614087
1.59195566,-0.00808935339593338,-0.005085015074614087
1.59205332,-0.00808935339593338,-0.005085015074614087
1.59215098,-0.00808935339593338,-0.005085015074614087
1.59224864,-0.00808935339593338,-0.005085015074614087
1.5923463,-0.00808935339593338,-0.005085015074614087
1.59244396,-0.00808935339593338,-0.005085015074614087
1.59254162,-0.00808935339593338,-0.005085015074614087
1.59263928,-0.00808935339593338,-0.005085015074614087
1.59273694,-0.00808935339593338,-0.005085015074614087
1.5928346,-0.00808935339593338,-0.005085015074614087
1.59293226,-0.00808935339593338,-0.005085015074614087
1.59302992,-0.00808935339593338,-0.005085015074614087
1.59312758,-0.00808935339593338,-0.005085015074614087
1.59322524,-0.00808935339593338,-0.005085015074614087
1.5933229,-0.00808935339593338,-0.005085015074614087
1.59342056,-0.00808935339593338,-0.005085015074614087
1.59351822,-0.00808935339593338,-0.005085015074614087
1.59361588,-0.00808935339593338,-0.005085015074614087
1.59371354,-0.00808935339593338,-0.005085015074614087
1.5938112,-0.00808935339593338,-0.005085015074614087
1.59390886,-0.00808935339593338,-0.005085015074614087
1.59400652,-0.00808935339593338,-0.005085015074614087
1.59410418,-0.00808935339593338,-0.005085015074614087
1.59420184,-0.00808935339593338,-0.005085015074614087
1.5942995,-0.00808935339593338,-0.005085015074614087
1.59439716,-0.00808935339593338,-0.005085015074614087
1.59449482,-0.00808935339593338,-0.005085015074614087
1.59459248,-0.00808935339593338,-0.005085015074614087
1.59469014,-0.00808935339593338,-0.005085015074614087
1.5947878,-0.00808935339593338,-0.005085015074614087
1.59488546,-0.00808935339593338,-0.005085015074614087
1.59498312,-0.00808935339593338,-0.005085015074614087
1.59508078,-0.00808935339593338,-0.005085015074614087
1.59517844,-0.00808935339593338,-0.005085015074614087
1.5952761,-0.00808935339593338,-0.005085015074614087
1.59537376,-0.00808935339593338,-0.005085015074614087
1.59547142,-0.00808935339593338,-0.005085015074614087
1.59556908,-0.008089353395930362,-0.005085015074611038
1.59566674,-0.004771092865113691,-0.001732853119129276
1.5957644,-0.00808935339593338,-0.001732853119127751
1.59586206,-0.00808935339593338,-0.005085015074609513
1.59595972,-0.00808935339593338,-0.005085015074614087
1.59605738,-0.00808935339593338,-0.005085015074614087
1.59615504,-0.00808935339593338,-0.005085015074614087
1.5962527,-0.00808935339593338,-0.005085015074614087
1.59635036,-0.00808935339593338,-0.001732853119127751
1.59644802,-0.00808935339593338,-0.005085015074609513
1.59654568,-0.00808935339593338,-0.005085015074614087
1.59664334,-0.00808935339593338,-0.005085015074614087
1.596741,-0.00808935339593338,-0.005085015074611038
1.59683866,-0.00808935339593338,-0.001732853119129276
1.59693632,-0.00808935339593338,-0.005085015074614087
1.59703398,-0.00808935339593338,-0.005085015074614087
1.59713164,-0.00808935339593338,-0.001732853119127751
1.5972293,-0.00808935339593338,-0.005085015074609513
1.59732696,-0.00808935339593338,-0.005085015074611038
1.59742462,-0.00808935339593338,-0.001732853119129276
1.59752228,-0.00808935339593338,-0.005085015074614087
1.59761994,-0.00808935339593338,-0.005085015074614087
1.5977176,-0.00808935339593338,-0.001732853119124703
1.59781526,-0.00808935339593338,-0.001732853119124703
1.59791292,-0.00808935339593338,-0.005085015074614087
1.59801058,-0.00808935339593338,-0.005085015074614087
1.59810824,-0.00808935339593338,-0.001732853119127751
1.5982059,-0.00808935339593338,-0.005085015074609513
1.59830356,-0.00808935339593338,-0.005085015074611038
1.59840122,-0.00808935339593338,-0.001732853119129276
1.59849888,-0.00808935339593338,-0.005085015074611038
1.59859654,-0.00808935339593338,-0.001732853119129276
1.5986942,-0.008089353395930362,-0.001732853119127751
1.59879186,-0.004771092865113691,-0.005085015074609513
1.59888952,-0.004771092865112182,-0.001732853119124703
1.59898718,-0.008089353395928853,-0.001732853119124703
1.59908484,-0.008089353395930362,-0.005085015074611038
1.5991825,-0.004771092865113691,-0.001732853119129276
1.59928016,-0.00808935339593338,-0.001732853119124703
1.59937782,-0.00808935339593338,-0.001732853119124703
1.59947548,-0.00808935339593338,-0.001732853119124703
1.59957314,-0.008089353395930362,-0.001732853119127751
1.5996708,-0.004771092865112182,-0.005085015074614087
1.59976846,-0.00808935339593338,-0.005085015074614087
1.59986612,-0.008089353395930362,-0.005085015074614087
1.59996378,-0.004771092865109164,-0.005085015074611038
1.60006144,-0.004771092865109164,-0.001732853119124703
1.6001591,-0.004771092865112182,-0.001732853119124703
1.60025676,-0.008089353395930362,-0.001732853119124703
1.60035442,-0.004771092865109164,-0.001732853119124703
1.60045208,-0.004771092865112182,-0.001732853119127751
1.60054974,-0.00808935339593338,-0.005085015074614087
1.6006474,-0.008089353395930362,-0.005085015074611038
1.60074506,-0.004771092865112182,-0.001732853119124703
1.60084272,-0.00808935339593338,-0.001732853119127751
1.60094038,-0.00808935339593338,-0.005085015074614087
1.60103804,-0.00808935339593338,-0.005085015074611038
1.6011357,-0.008089353395930362,-0.001732853119124703
1.60123336,-0.004771092865109164,-0.001732853119127751
1.60133102,-0.004771092865109164,-0.005085015074611038
1.60142868,-0.004771092865112182,-0.001732853119127751
1.60152634,-0.00808935339593338,-0.005085015074611038
1.601624,-0.008089353395930362,-0.001732853119124703
1.60172166,-0.004771092865109164,-0.001732853119124703
1.60181932,-0.004771092865109164,-0.001732853119124703
1.60191698,-0.004771092865112182,-0.001732853119127751
1.60201464,-0.00808935339593338,-0.005085015074614087
1.6021123,-0.00808935339593338,-0.005085015074614087
1.60220996,-0.00808935339593338,-0.005085015074614087
1.60230762,-0.00808935339593338,-0.005085015074614087
1.60240528,-0.00808935339593338,-0.005085015074614087
1.60250294,-0.00808935339593338,-0.005085015074612563
1.6026006,-0.00808935339593338,-0.001732853119124703
1.60269826,-0.00808935339593338,-0.001732853119126227
1.60279592,-0.00808935339593338,-0.005085015074614087
1.60289358,-0.00808935339593338,-0.005085015074614087
1.60299124,-0.00808935339593338,-0.005085015074614087
1.6030889,-0.00808935339593338,-0.005085015074614087
1.60318656,-0.00808935339593338,-0.005085015074612563
1.60328422,-0.008089353395931871,-0.001732853119126227
1.60338188,-0.004771092865110673,-0.005085015074614087
1.60347954,-0.00808935339593338,-0.005085015074614087
1.6035772,-0.00808935339593338,-0.005085015074612563
1.60367486,-0.00808935339593338,-0.001732853119126227
1.60377252,-0.00808935339593338,-0.005085015074614087
1.60387018,-0.00808935339593338,-0.005085015074614087
1.60396784,-0.00808935339593338,-0.005085015074614087
1.6040655,-0.00808935339593338,-0.005085015074614087
1.60416316,-0.00808935339593338,-0.005085015074614087
1.60426082,-0.00808935339593338,-0.005085015074614087
1.60435848,-0.00808935339593338,-0.005085015074614087
1.60445614,-0.008089353395931871,-0.005085015074614087
1.6045538,-0.004771092865110673,-0.005085015074614087
1.60465146,-0.00808935339593338,-0.005085015074614087
1.60474912,-0.00808935339593338,-0.005085015074614087
1.60484678,-0.008089353395931871,-0.005085015074614087
1.60494444,-0.004771092865109164,-0.005085015074614087
1.6050421,-0.004771092865110673,-0.005085015074614087
1.60513976,-0.00808935339593338,-0.005085015074614087
1.60523742,-0.00808935339593338,-0.005085015074614087
1.60533508,-0.00808935339593338,-0.005085015074614087
1.60543274,-0.00808935339593338,-0.005085015074614087
1.6055304,-0.00808935339593338,-0.005085015074614087
1.60562806,-0.00808935339593338,-0.005085015074614087
1.60572572,-0.00808935339593338,-0.005085015074614087
1.60582338,-0.00808935339593338,-0.005085015074614087
1.60592104,-0.00808935339593338,-0.005085015074614087
1.6060187,-0.00808935339593338,-0.005085015074614087
1.60611636,-0.00808935339593338,-0.005085015074614087
1.60621402,-0.00808935339593338,-0.005085015074614087
1.60631168,-0.00808935339593338,-0.005085015074614087
1.60640934,-0.00808935339593338,-0.005085015074614087
1.606507,-0.00808935339593338,-0.005085015074614087
1.60660466,-0.00808935339593338,-0.005085015074614087
1.60670232,-0.00808935339593338,-0.005085015074614087
1.60679998,-0.00808935339593338,-0.005085015074614087
1.60689764,-0.00808935339593338,-0.005085015074614087
1.6069953,-0.00808935339593338,-0.005085015074614087
1.60709296,-0.00808935339593338,-0.005085015074614087
1.60719062,-0.00808935339593338,-0.005085015074614087
1.60728828,-0.00808935339593338,-0.005085015074614087
1.60738594,-0.00808935339593338,-0.005085015074614087
1.6074836,-0.00808935339593338,-0.005085015074614087
1.60758126,-0.00808935339593338,-0.005085015074614087
1.60767892,-0.00808935339593338,-0.005085015074614087
1.60777658,-0.00808935339593338,-0.005085015074614087
1.60787424,-0.00808935339593338,-0.005085015074614087
1.6079719,-0.00808935339593338,-0.005085015074614087
1.60806956,-0.00808935339593338,-0.005085015074614087
1.60816722,-0.00808935339593338,-0.005085015074614087
1.60826488,-0.00808935339593338,-0.005085015074614087
1.60836254,-0.00808935339593338,-0.005085015074614087
1.6084602,-0.00808935339593338,-0.005085015074614087
1.60855786,-0.00808935339593338,-0.005085015074614087
1.60865552,-0.00808935339593338,-0.005085015074614087
1.60875318,-0.00808935339593338,-0.005085015074614087
1.60885084,-0.00808935339593338,-0.005085015074614087
1.6089485,-0.00808935339593338,-0.005085015074614087
1.60904616,-0.00808935339593338,-0.005085015074614087
1.60914382,-0.00808935339593338,-0.005085015074614087
1.60924148,-0.00808935339593338,-0.005085015074614087
1.60933914,-0.00808935339593338,-0.005085015074614087
1.6094368,-0.00808935339593338,-0.005085015074614087
1.60953446,-0.00808935339593338,-0.005085015074614087
1.60963212,-0.00808935339593338,-0.005085015074614087
1.60972978,-0.00808935339593338,-0.005085015074614087
1.60982744,-0.00808935339593338,-0.005085015074614087
1.6099251,-0.00808935339593338,-0.005085015074614087
1.61002276,-0.00808935339593338,-0.005085015074614087
1.61012042,-0.00808935339593338,-0.005085015074614087
1.61021808,-0.00808935339593338,-0.005085015074614087
1.61031574,-0.00808935339593338,-0.005085015074614087
1.6104134,-0.00808935339593338,-0.005085015074614087
1.61051106,-0.00808935339593338,-0.005085015074614087
1.61060872,-0.00808935339593338,-0.005085015074614087
1.61070638,-0.00808935339593338,-0.005085015074614087
1.61080404,-0.00808935339593338,-0.005085015074614087
1.6109017,-0.00808935339593338,-0.005085015074614087
1.61099936,-0.00808935339593338,-0.005085015074614087
1.61109702,-0.00808935339593338,-0.005085015074614087
1.61119468,-0.00808935339593338,-0.005085015074614087
1.61129234,-0.00808935339593338,-0.005085015074614087
1.61139,-0.00808935339593338,-0.005085015074614087
1.61148766,-0.00808935339593338,-0.005085015074614087
1.61158532,-0.00808935339593338,-0.005085015074614087
1.61168298,-0.00808935339593338,-0.005085015074614087
1.61178064,-0.00808935339593338,-0.008437177030103471
1.6118783,-0.00808935339593338,-0.005085015074614087
1.61197596,-0.00808935339593338,-0.005085015074614087
1.61207362,-0.00808935339593338,-0.005085015074614087
1.61217128,-0.00808935339593338,-0.005085015074614087
1.61226894,-0.00808935339593338,-0.005085015074614087
1.6123666,-0.00808935339593338,-0.005085015074614087
1.61246426,-0.00808935339593338,-0.005085015074614087
1.61256192,-0.00808935339593338,-0.005085015074614087
1.61265958,-0.00808935339593338,-0.005085015074614087
1.61275724,-0.00808935339593338,-0.005085015074614087
1.6128549,-0.00808935339593338,-0.005085015074614087
1.61295256,-0.00808935339593338,-0.005085015074614087
1.61305022,-0.00808935339593338,-0.005085015074614087
1.61314788,-0.00808935339593338,-0.005085015074614087
1.61324554,-0.00808935339593338,-0.005085015074614087
1.6133432,-0.00808935339593338,-0.005085015074614087
1.61344086,-0.00808935339593338,-0.005085015074614087
1.61353852,-0.00808935339593338,-0.005085015074614087
1.61363618,-0.00808935339593338,-0.005085015074614087
1.61373384,-0.00808935339593338,-0.005085015074614087
1.6138315,-0.00808935339593338,-0.005085015074614087
1.61392916,-0.00808935339593338,-0.005085015074614087
1.61402682,-0.00808935339593338,-0.005085015074614087
1.61412448,-0.00808935339593338,-0.005085015074614087
1.61422214,-0.00808935339593338,-0.005085015074614087
1.6143198,-0.00808935339593338,-0.005085015074614087
1.61441746,-0.00808935339593338,-0.005085015074614087
1.61451512,-0.00808935339593338,-0.005085015074614087
1.61461278,-0.00808935339593338,-0.005085015074614087
1.61471044,-0.00808935339593338,-0.001732853119124703
1.6148081,-0.00808935339593338,-0.005085015074614087
1.61490576,-0.00808935339593338,-0.005085015074614087
1.61500342,-0.00808935339593338,-0.005085015074614087
